Loading CIF specification "controllercheck/common/anno_false_to_true.cif".
Checking for confluence:
    Converting CIF specification to a BDD representation:
        CIF variables and location pointers:
            Nr     Kind              Type  Name  Group  BDD vars  CIF values  BDD values  Values used
            -----  ----------------  ----  ----  -----  --------  ----------  ----------  -----------
            1      location pointer  n/a   p     0      2 * 4     3 * 4       4 * 4       75%
            -----  ----------------  ----  ----  -----  --------  ----------  ----------  -----------
            Total                                1      8         12          16          75%

        Skipping variable ordering: only one variable present.

        Restricting system behavior using state/event exclusion plant invariants:
            No guards changed.

    One controllable event. Confluence trivially holds.

CONCLUSION:
    [UNKNOWN] Bounded response checking was disabled, bounded response property is unknown.
    [UNKNOWN] Non-blocking under control checking was disabled, non-blocking under control property is unknown.
    [UNKNOWN] Finite response checking was disabled, finite response property is unknown.
    [OK] The specification has confluence.

The model with the check results has been written to "controllercheck/common/anno_false_to_true.xCxx.out.cif.real".
