Loading CIF specification "controllercheck/common/svg_input_decl_removed.cif".
Checking for bounded response:
    Converting CIF specification to a BDD representation:
        The specification has no BDD variables.

        Restricting system behavior using state/event exclusion plant invariants:
            No guards changed.

    Computing states we can be in at the start of uncontrollable and controllable event loops:
        Round 1:
            Pre input states: true
            Pre uncontrollables states: false
            Pre controllables states: false

            Applying event loop for input variable events:
                No input variable events.

            Pre uncontrollables states: false -> true

            Applying event loop for uncontrollable events:
                Iteration 1 (states before iteration: true):
                    Some edge(s) enabled. No state changes.
                    All iterations end states: true

                Iteration 2 (states before iteration: true):
                    Some edge(s) enabled. No state changes.
                    All iterations end states: true

            Pre controllables states: false -> true

            Applying event loop for controllable events:
                Iteration 1 (states before iteration: true):
                    Some edge(s) enabled. No state changes.
                    All iterations end states: true

                Iteration 2 (states before iteration: true):
                    Some edge(s) enabled. No state changes.
                    All iterations end states: true

        Round 2:
            Pre input states: true
            Pre uncontrollables states: true
            Pre controllables states: true

            Applying event loop for input variable events:
                No input variable events.

            Applying event loop for uncontrollable events:
                Iteration 1 (states before iteration: true):
                    Some edge(s) enabled. No state changes.
                    All iterations end states: true

                Iteration 2 (states before iteration: true):
                    Some edge(s) enabled. No state changes.
                    All iterations end states: true

            Applying event loop for controllable events:
                Iteration 1 (states before iteration: true):
                    Some edge(s) enabled. No state changes.
                    All iterations end states: true

                Iteration 2 (states before iteration: true):
                    Some edge(s) enabled. No state changes.
                    All iterations end states: true

    Computing bound for uncontrollable events:
        Iteration 1 (states before iteration: true):
            Some edge(s) enabled. No state changes.

        Bound: n/a (cycle).

    Computing bound for controllable events:
        Iteration 1 (states before iteration: true):
            Some edge(s) enabled. No state changes.

        Bound: n/a (cycle).

    Bounded response check completed.

Checking for non-blocking under control:
    Converting CIF specification to a BDD representation:
        The specification has no BDD variables.

        Restricting system behavior using state/event exclusion plant invariants:
            No guards changed.

    Computing the condition for no controllable event to be enabled:
        Condition under which no controllable event is enabled: false

    Computing the controllable-complete path states:
        Saturation matrix:
            No variables.

        Controllable-complete path states: false [controllable-complete path end states predicate]

        Controllable-complete path states: false

    Computing the bad states:
        Saturation matrix:
            No variables.

        Bad states: true [not controllable-complete path states predicate]

        Bad states: true

    Computing the result of the non-blocking under control check:
        Initial states: true
        Bad initial states: true

    Non-blocking under control: no

Checking for finite response:
    Converting CIF specification to an MDD representation:
        Analyzing automaton "p":
            Initializing the automaton data for event "p.c".
            Processing edges from the location of automaton "p".
            Updating global guards for event "p.c".

    Iteration 1.
        The following events have been encountered in a controllable-event loop of automaton p:
            (p.c), which is not controllable unconnectable.

Checking for confluence:
    Converting CIF specification to a BDD representation:
        The specification has no BDD variables.

        Restricting system behavior using state/event exclusion plant invariants:
            No guards changed.

    One controllable event. Confluence trivially holds.

CONCLUSION:
    [ERROR] The specification does NOT have bounded response:

        - An infinite sequence of transitions is possible for uncontrollable events.
        - An infinite sequence of transitions is possible for controllable events.

    [ERROR] The specification is NOT non-blocking under control.

    [ERROR] The specification may NOT have finite response:

        At least one controllable-event loop was found.
        The following events might still occur in a controllable-event loop:
            - p.c

    [OK] The specification has confluence.

The model with the check results has been written to "controllercheck/common/svg_input_decl_removed.BCFN.out.cif.real".
