Loading CIF specification "controllercheck/bounded_response/bounded_button_lamp_timer_sup_hw.cif".
Checking for bounded response:
    Converting CIF specification to a BDD representation:
        CIF variables and location pointers:
            Nr     Kind               Type  Name          Group  BDD vars  CIF values  BDD values  Values used
            -----  -----------------  ----  ------------  -----  --------  ----------  ----------  -----------
            1      location pointer   n/a   Button        0      1 * 2     2 * 2       2 * 2       100%
            2      location pointer   n/a   Lamp          1      1 * 2     2 * 2       2 * 2       100%
            3      location pointer   n/a   Timer         2      1 * 2     2 * 2       2 * 2       100%
            4      location pointer   n/a   Cycle         3      3 * 2     5 * 2       8 * 2       ~63%
            5      location pointer   n/a   ButtonHW      4      1 * 2     2 * 2       2 * 2       100%
            6      input variable     bool  ButtonHW.bit  5      1 * 2     2 * 2       2 * 2       100%
            7      location pointer   n/a   LampHW        6      1 * 2     2 * 2       2 * 2       100%
            8      discrete variable  bool  LampHW.bit    7      1 * 2     2 * 2       2 * 2       100%
            -----  -----------------  ----  ------------  -----  --------  ----------  ----------  -----------
            Total                                         8      20        38          44          ~86%

        Applying variable ordering:
            Applying 4 orderers, sequentially:
                Applying sorted variable order:
                    Effect: both

                Applying DCSH algorithm:
                    Metric: wes
                    Relations: legacy
                    Effect: var-order
                    Number of hyper-edges: 8

                    Applying Weighted Cuthill-McKee algorithm:
                        Node finder: george-liu
                        Relations: legacy
                        Effect: var-order
                        Number of graph edges: 13

                        Total span:   19 (total)   2.38 (avg/edge) / WES:   0.578125 (total)   0.072266 (avg/edge) [before]
                        Total span:   15 (total)   1.88 (avg/edge) / WES:   0.460938 (total)   0.057617 (avg/edge) [after]

                    Found new best variable order.

                    Applying Sloan algorithm:
                        Relations: legacy
                        Effect: var-order
                        Number of graph edges: 13

                        Total span:   19 (total)   2.38 (avg/edge) / WES:   0.578125 (total)   0.072266 (avg/edge) [before]
                        Total span:   19 (total)   2.38 (avg/edge) / WES:   0.488281 (total)   0.061035 (avg/edge) [after]

                    Applying 2 orderers, sequentially:
                        Applying Weighted Cuthill-McKee algorithm:
                            Node finder: george-liu
                            Relations: legacy
                            Effect: var-order
                            Number of graph edges: 13

                            Total span:   19 (total)   2.38 (avg/edge) / WES:   0.578125 (total)   0.072266 (avg/edge) [before]
                            Total span:   15 (total)   1.88 (avg/edge) / WES:   0.460938 (total)   0.057617 (avg/edge) [after]

                        Reversing the variable order:
                            Relations: legacy
                            Effect: var-order
                            Number of hyper-edges: 8

                            Total span:   15 (total)   1.88 (avg/edge) / WES:   0.460938 (total)   0.057617 (avg/edge) [before]
                            Total span:   15 (total)   1.88 (avg/edge) / WES:   0.460938 (total)   0.057617 (avg/edge) [reversed]

                    Found new best variable order.

                    Applying 2 orderers, sequentially:
                        Applying Sloan algorithm:
                            Relations: legacy
                            Effect: var-order
                            Number of graph edges: 13

                            Total span:   19 (total)   2.38 (avg/edge) / WES:   0.578125 (total)   0.072266 (avg/edge) [before]
                            Total span:   19 (total)   2.38 (avg/edge) / WES:   0.488281 (total)   0.061035 (avg/edge) [after]

                        Reversing the variable order:
                            Relations: legacy
                            Effect: var-order
                            Number of hyper-edges: 8

                            Total span:   19 (total)   2.38 (avg/edge) / WES:   0.488281 (total)   0.061035 (avg/edge) [before]
                            Total span:   19 (total)   2.38 (avg/edge) / WES:   0.488281 (total)   0.061035 (avg/edge) [reversed]

                Applying FORCE algorithm:
                    Metric: total-span
                    Relations: linearized
                    Effect: var-order
                    Number of hyper-edges: 10
                    Maximum number of iterations: 30

                    Total span:   27 (total)   2.70 (avg/edge) / WES:   0.678125 (total)   0.067813 (avg/edge) [before]
                    Total span:   27 (total)   2.70 (avg/edge) / WES:   0.678125 (total)   0.067813 (avg/edge) [iteration 1]
                    Total span:   27 (total)   2.70 (avg/edge) / WES:   0.678125 (total)   0.067813 (avg/edge) [after]

                Applying sliding window algorithm:
                    Size: 4
                    Metric: total-span
                    Relations: linearized
                    Effect: var-order
                    Number of hyper-edges: 10
                    Window length: 4

                    Total span:   27 (total)   2.70 (avg/edge) / WES:   0.678125 (total)   0.067813 (avg/edge) [before]
                    Total span:   27 (total)   2.70 (avg/edge) / WES:   0.678125 (total)   0.067813 (avg/edge) [after]

        Variable order changed.

        CIF variables and location pointers:
            Nr     Kind               Type  Name          Group  BDD vars  CIF values  BDD values  Values used
            -----  -----------------  ----  ------------  -----  --------  ----------  ----------  -----------
            1      discrete variable  bool  LampHW.bit    0      1 * 2     2 * 2       2 * 2       100%
            2      location pointer   n/a   LampHW        1      1 * 2     2 * 2       2 * 2       100%
            3      location pointer   n/a   Lamp          2      1 * 2     2 * 2       2 * 2       100%
            4      location pointer   n/a   Timer         3      1 * 2     2 * 2       2 * 2       100%
            5      location pointer   n/a   Cycle         4      3 * 2     5 * 2       8 * 2       ~63%
            6      input variable     bool  ButtonHW.bit  5      1 * 2     2 * 2       2 * 2       100%
            7      location pointer   n/a   ButtonHW      6      1 * 2     2 * 2       2 * 2       100%
            8      location pointer   n/a   Button        7      1 * 2     2 * 2       2 * 2       100%
            -----  -----------------  ----  ------------  -----  --------  ----------  ----------  -----------
            Total                                         8      20        38          44          ~86%

        Restricting system behavior using state/event exclusion plant invariants:
            No guards changed.

    Computing states we can be in at the start of uncontrollable and controllable event loops:
        Round 1:
            Pre input states: not LampHW.bit and (LampHW.Off and Lamp.Off) and (Timer.Idle and Cycle.WaitForButtonPush and (ButtonHW.Released and Button.Released))
            Pre uncontrollables states: false
            Pre controllables states: false

            Applying event loop for input variable events:
                Iteration 1 (states before iteration: not LampHW.bit and (LampHW.Off and Lamp.Off) and (Timer.Idle and Cycle.WaitForButtonPush and (ButtonHW.Released and Button.Released))):
                    Some edge(s) enabled. No state changes.
                    All iterations end states: not LampHW.bit and (LampHW.Off and Lamp.Off) and (Timer.Idle and Cycle.WaitForButtonPush and (ButtonHW.Released and Button.Released))

                Iteration 2 (states before iteration: not LampHW.bit and (LampHW.Off and Lamp.Off) and (Timer.Idle and Cycle.WaitForButtonPush and (ButtonHW.Released and Button.Released))):
                    Some edge(s) enabled. No state changes.
                    All iterations end states: not LampHW.bit and (LampHW.Off and Lamp.Off) and (Timer.Idle and Cycle.WaitForButtonPush and (ButtonHW.Released and Button.Released))

            Pre uncontrollables states: false -> not LampHW.bit and (LampHW.Off and Lamp.Off) and (Timer.Idle and Cycle.WaitForButtonPush and (ButtonHW.Released and Button.Released))

            Applying event loop for uncontrollable events:
                Iteration 1 (states before iteration: not LampHW.bit and (LampHW.Off and Lamp.Off) and (Timer.Idle and Cycle.WaitForButtonPush and (ButtonHW.Released and Button.Released))):
                    Event Button.u_pushed: not LampHW.bit and (LampHW.Off and Lamp.Off) and (Timer.Idle and Cycle.WaitForButtonPush and (ButtonHW.Released and Button.Released)) -> <bdd 15n 2p>
                    All iterations end states: <bdd 15n 2p>

                Iteration 2 (states before iteration: <bdd 15n 2p>):
                    No edge(s) enabled. No state changes.
                    All iterations end states: <bdd 15n 2p>

            Pre controllables states: false -> <bdd 15n 2p>

            Applying event loop for controllable events:
                Iteration 1 (states before iteration: <bdd 15n 2p>):
                    Event Lamp.c_on: <bdd 15n 2p> -> <bdd 19n 2p>
                    Event Timer.c_start: <bdd 19n 2p> -> <bdd 19n 2p>
                    All iterations end states: <bdd 19n 2p>

                Iteration 2 (states before iteration: <bdd 19n 2p>):
                    No edge(s) enabled. No state changes.
                    All iterations end states: <bdd 19n 2p>

            Pre input states: not LampHW.bit and (LampHW.Off and Lamp.Off) and (Timer.Idle and Cycle.WaitForButtonPush and (ButtonHW.Released and Button.Released)) -> <bdd 18n 2p>

        Round 2:
            Pre input states: <bdd 18n 2p>
            Pre uncontrollables states: not LampHW.bit and (LampHW.Off and Lamp.Off) and (Timer.Idle and Cycle.WaitForButtonPush and (ButtonHW.Released and Button.Released))
            Pre controllables states: <bdd 15n 2p>

            Applying event loop for input variable events:
                Iteration 1 (states before iteration: <bdd 18n 2p>):
                    Event ButtonHW.bit: <bdd 18n 2p> -> <bdd 18n 2p>
                    All iterations end states: <bdd 18n 2p>

                Iteration 2 (states before iteration: <bdd 18n 2p>):
                    Event ButtonHW.bit: <bdd 18n 2p> -> <bdd 18n 2p>
                    All iterations end states: <bdd 17n 2p>

                Iteration 3 (states before iteration: <bdd 18n 2p>):
                    Event ButtonHW.bit: <bdd 18n 2p> -> <bdd 18n 2p>
                    All iterations end states: <bdd 17n 2p>

            Pre uncontrollables states: not LampHW.bit and (LampHW.Off and Lamp.Off) and (Timer.Idle and Cycle.WaitForButtonPush and (ButtonHW.Released and Button.Released)) -> <bdd 18n 2p>

            Applying event loop for uncontrollable events:
                Iteration 1 (states before iteration: <bdd 18n 2p>):
                    Event Button.u_pushed: <bdd 18n 2p> -> <bdd 22n 3p>
                    Event Button.u_released: <bdd 22n 3p> -> <bdd 20n 3p>
                    Event Timer.u_timeout: <bdd 20n 3p> -> <bdd 21n 3p>
                    All iterations end states: <bdd 21n 3p>

                Iteration 2 (states before iteration: <bdd 21n 3p>):
                    No edge(s) enabled. No state changes.
                    All iterations end states: <bdd 21n 3p>

            Pre controllables states: <bdd 15n 2p> -> <bdd 21n 3p>

            Applying event loop for controllable events:
                Iteration 1 (states before iteration: <bdd 21n 3p>):
                    Event Lamp.c_off: <bdd 21n 3p> -> <bdd 15n 2p>
                    Event Lamp.c_on: <bdd 15n 2p> -> <bdd 19n 2p>
                    Event Timer.c_start: <bdd 19n 2p> -> <bdd 19n 2p>
                    All iterations end states: <bdd 19n 2p>

                Iteration 2 (states before iteration: <bdd 19n 2p>):
                    No edge(s) enabled. No state changes.
                    All iterations end states: <bdd 19n 2p>

        Round 3:
            Pre input states: <bdd 18n 2p>
            Pre uncontrollables states: <bdd 18n 2p>
            Pre controllables states: <bdd 21n 3p>

            Applying event loop for input variable events:
                Iteration 1 (states before iteration: <bdd 18n 2p>):
                    Event ButtonHW.bit: <bdd 18n 2p> -> <bdd 18n 2p>
                    All iterations end states: <bdd 18n 2p>

                Iteration 2 (states before iteration: <bdd 18n 2p>):
                    Event ButtonHW.bit: <bdd 18n 2p> -> <bdd 18n 2p>
                    All iterations end states: <bdd 17n 2p>

                Iteration 3 (states before iteration: <bdd 18n 2p>):
                    Event ButtonHW.bit: <bdd 18n 2p> -> <bdd 18n 2p>
                    All iterations end states: <bdd 17n 2p>

            Applying event loop for uncontrollable events:
                Iteration 1 (states before iteration: <bdd 18n 2p>):
                    Event Button.u_pushed: <bdd 18n 2p> -> <bdd 22n 3p>
                    Event Button.u_released: <bdd 22n 3p> -> <bdd 20n 3p>
                    Event Timer.u_timeout: <bdd 20n 3p> -> <bdd 21n 3p>
                    All iterations end states: <bdd 21n 3p>

                Iteration 2 (states before iteration: <bdd 21n 3p>):
                    No edge(s) enabled. No state changes.
                    All iterations end states: <bdd 21n 3p>

            Applying event loop for controllable events:
                Iteration 1 (states before iteration: <bdd 21n 3p>):
                    Event Lamp.c_off: <bdd 21n 3p> -> <bdd 15n 2p>
                    Event Lamp.c_on: <bdd 15n 2p> -> <bdd 19n 2p>
                    Event Timer.c_start: <bdd 19n 2p> -> <bdd 19n 2p>
                    All iterations end states: <bdd 19n 2p>

                Iteration 2 (states before iteration: <bdd 19n 2p>):
                    No edge(s) enabled. No state changes.
                    All iterations end states: <bdd 19n 2p>

    Computing bound for uncontrollable events:
        Iteration 1 (states before iteration: <bdd 18n 2p>):
            Event Button.u_pushed: <bdd 18n 2p> -> <bdd 22n 3p>
            Event Button.u_released: <bdd 22n 3p> -> <bdd 20n 3p>
            Event Timer.u_timeout: <bdd 20n 3p> -> <bdd 21n 3p>

        Iteration 2 (states before iteration: <bdd 21n 3p>):
            No edge(s) enabled. No state changes.

        Bound: 1.

    Computing bound for controllable events:
        Iteration 1 (states before iteration: <bdd 21n 3p>):
            Event Lamp.c_off: <bdd 21n 3p> -> <bdd 15n 2p>
            Event Lamp.c_on: <bdd 15n 2p> -> <bdd 19n 2p>
            Event Timer.c_start: <bdd 19n 2p> -> <bdd 19n 2p>

        Iteration 2 (states before iteration: <bdd 19n 2p>):
            No edge(s) enabled. No state changes.

        Bound: 1.

    Bounded response check completed.

CONCLUSION:
    [OK] The specification has bounded response:

        - At most 1 iteration is needed for the event loop for uncontrollable events.
        - At most 1 iteration is needed for the event loop for controllable events.

    [UNKNOWN] Non-blocking under control checking was disabled, non-blocking under control property is unknown.
    [UNKNOWN] Finite response checking was disabled, finite response property is unknown.
    [UNKNOWN] Confluence checking was disabled, confluence property is unknown.

The model with the check results has been written to "controllercheck/bounded_response/bounded_button_lamp_timer_sup_hw.Bxxx.out.cif.real".
