Loading CIF specification "controllercheck/bounded_response/bounded_channel_non_deterministic_ctrl.cif".
Checking for bounded response:
    Converting CIF specification to a BDD representation:
        CIF variables and location pointers:
            Nr     Kind              Type  Name    Group  BDD vars  CIF values  BDD values  Values used
            -----  ----------------  ----  ------  -----  --------  ----------  ----------  -----------
            1      location pointer  n/a   csend1  0      1 * 2     2 * 2       2 * 2       100%
            2      location pointer  n/a   csend2  1      1 * 2     2 * 2       2 * 2       100%
            3      location pointer  n/a   csend3  2      1 * 2     2 * 2       2 * 2       100%
            4      location pointer  n/a   crecv1  3      1 * 2     2 * 2       2 * 2       100%
            5      location pointer  n/a   crecv2  4      1 * 2     2 * 2       2 * 2       100%
            6      location pointer  n/a   crecv3  5      1 * 2     2 * 2       2 * 2       100%
            7      location pointer  n/a   crecv4  6      1 * 2     2 * 2       2 * 2       100%
            -----  ----------------  ----  ------  -----  --------  ----------  ----------  -----------
            Total                                  7      14        28          28          100%

        Applying variable ordering:
            Applying 4 orderers, sequentially:
                Applying sorted variable order:
                    Effect: both

                Applying DCSH algorithm:
                    Metric: wes
                    Relations: legacy
                    Effect: var-order
                    Number of hyper-edges: 1

                    Applying Weighted Cuthill-McKee algorithm:
                        Node finder: george-liu
                        Relations: legacy
                        Effect: var-order
                        Number of graph edges: 21

                        Total span:   6 (total)   6.00 (avg/edge) / WES:   1.714286 (total)   1.714286 (avg/edge) [before]
                        Total span:   6 (total)   6.00 (avg/edge) / WES:   1.714286 (total)   1.714286 (avg/edge) [after]

                    Found new best variable order.

                    Applying Sloan algorithm:
                        Relations: legacy
                        Effect: var-order
                        Number of graph edges: 21

                        Total span:   6 (total)   6.00 (avg/edge) / WES:   1.714286 (total)   1.714286 (avg/edge) [before]
                        Total span:   6 (total)   6.00 (avg/edge) / WES:   1.714286 (total)   1.714286 (avg/edge) [after]

                    Applying 2 orderers, sequentially:
                        Applying Weighted Cuthill-McKee algorithm:
                            Node finder: george-liu
                            Relations: legacy
                            Effect: var-order
                            Number of graph edges: 21

                            Total span:   6 (total)   6.00 (avg/edge) / WES:   1.714286 (total)   1.714286 (avg/edge) [before]
                            Total span:   6 (total)   6.00 (avg/edge) / WES:   1.714286 (total)   1.714286 (avg/edge) [after]

                        Reversing the variable order:
                            Relations: legacy
                            Effect: var-order
                            Number of hyper-edges: 1

                            Total span:   6 (total)   6.00 (avg/edge) / WES:   1.714286 (total)   1.714286 (avg/edge) [before]
                            Total span:   6 (total)   6.00 (avg/edge) / WES:   1.714286 (total)   1.714286 (avg/edge) [reversed]

                    Applying 2 orderers, sequentially:
                        Applying Sloan algorithm:
                            Relations: legacy
                            Effect: var-order
                            Number of graph edges: 21

                            Total span:   6 (total)   6.00 (avg/edge) / WES:   1.714286 (total)   1.714286 (avg/edge) [before]
                            Total span:   6 (total)   6.00 (avg/edge) / WES:   1.714286 (total)   1.714286 (avg/edge) [after]

                        Reversing the variable order:
                            Relations: legacy
                            Effect: var-order
                            Number of hyper-edges: 1

                            Total span:   6 (total)   6.00 (avg/edge) / WES:   1.714286 (total)   1.714286 (avg/edge) [before]
                            Total span:   6 (total)   6.00 (avg/edge) / WES:   1.714286 (total)   1.714286 (avg/edge) [reversed]

                Applying FORCE algorithm:
                    Metric: total-span
                    Relations: linearized
                    Effect: var-order
                    Number of hyper-edges: 12
                    Maximum number of iterations: 20

                    Total span:   42 (total)   3.50 (avg/edge) / WES:   0.945578 (total)   0.078798 (avg/edge) [before]
                    Total span:   28 (total)   2.33 (avg/edge) / WES:   0.612245 (total)   0.051020 (avg/edge) [iteration 1]
                    Total span:   28 (total)   2.33 (avg/edge) / WES:   0.612245 (total)   0.051020 (avg/edge) [iteration 2]
                    Total span:   28 (total)   2.33 (avg/edge) / WES:   0.612245 (total)   0.051020 (avg/edge) [after]

                Applying sliding window algorithm:
                    Size: 4
                    Metric: total-span
                    Relations: linearized
                    Effect: var-order
                    Number of hyper-edges: 12
                    Window length: 4

                    Total span:   28 (total)   2.33 (avg/edge) / WES:   0.612245 (total)   0.051020 (avg/edge) [before]
                    Total span:   28 (total)   2.33 (avg/edge) / WES:   0.612245 (total)   0.051020 (avg/edge) [after]

        Variable order changed.

        CIF variables and location pointers:
            Nr     Kind              Type  Name    Group  BDD vars  CIF values  BDD values  Values used
            -----  ----------------  ----  ------  -----  --------  ----------  ----------  -----------
            1      location pointer  n/a   crecv1  0      1 * 2     2 * 2       2 * 2       100%
            2      location pointer  n/a   csend1  1      1 * 2     2 * 2       2 * 2       100%
            3      location pointer  n/a   crecv2  2      1 * 2     2 * 2       2 * 2       100%
            4      location pointer  n/a   csend2  3      1 * 2     2 * 2       2 * 2       100%
            5      location pointer  n/a   crecv3  4      1 * 2     2 * 2       2 * 2       100%
            6      location pointer  n/a   csend3  5      1 * 2     2 * 2       2 * 2       100%
            7      location pointer  n/a   crecv4  6      1 * 2     2 * 2       2 * 2       100%
            -----  ----------------  ----  ------  -----  --------  ----------  ----------  -----------
            Total                                  7      14        28          28          100%
