Loading CIF specification "controllercheck/bounded_response/cycle_in_cycle.cif".
Checking for bounded response:
    Converting CIF specification to a BDD representation:
        CIF variables and location pointers:
            Nr     Kind              Type  Name  Group  BDD vars  CIF values  BDD values  Values used
            -----  ----------------  ----  ----  -----  --------  ----------  ----------  -----------
            1      location pointer  n/a   pu    0      2 * 2     4 * 2       4 * 2       100%
            2      location pointer  n/a   pc    1      2 * 2     3 * 2       4 * 2       75%
            -----  ----------------  ----  ----  -----  --------  ----------  ----------  -----------
            Total                                2      8         14          16          ~88%

        Applying variable ordering:
            Applying 4 orderers, sequentially:
                Applying sorted variable order:
                    Effect: both

                Applying DCSH algorithm:
                    Metric: wes
                    Relations: legacy
                    Effect: var-order
                    Number of hyper-edges: 9

                    Applying Weighted Cuthill-McKee algorithm:
                        Node finder: george-liu
                        Relations: legacy
                        Effect: var-order
                        Number of graph edges: 0

                        Skipping algorithm: no graph edges.

                    Found new best variable order.

                    Applying Sloan algorithm:
                        Relations: legacy
                        Effect: var-order
                        Number of graph edges: 0

                        Skipping algorithm: no graph edges.

                    Applying 2 orderers, sequentially:
                        Applying Weighted Cuthill-McKee algorithm:
                            Node finder: george-liu
                            Relations: legacy
                            Effect: var-order
                            Number of graph edges: 0

                            Skipping algorithm: no graph edges.

                        Reversing the variable order:
                            Relations: legacy
                            Effect: var-order
                            Number of hyper-edges: 9

                            Total span:   0 (total)   0.00 (avg/edge) / WES:   0.277778 (total)   0.030864 (avg/edge) [before]
                            Total span:   0 (total)   0.00 (avg/edge) / WES:   0.277778 (total)   0.030864 (avg/edge) [reversed]

                    Found new best variable order.

                    Applying 2 orderers, sequentially:
                        Applying Sloan algorithm:
                            Relations: legacy
                            Effect: var-order
                            Number of graph edges: 0

                            Skipping algorithm: no graph edges.

                        Reversing the variable order:
                            Relations: legacy
                            Effect: var-order
                            Number of hyper-edges: 9

                            Total span:   0 (total)   0.00 (avg/edge) / WES:   0.277778 (total)   0.030864 (avg/edge) [before]
                            Total span:   0 (total)   0.00 (avg/edge) / WES:   0.277778 (total)   0.030864 (avg/edge) [reversed]

                Applying FORCE algorithm:
                    Metric: total-span
                    Relations: linearized
                    Effect: var-order
                    Number of hyper-edges: 9
                    Maximum number of iterations: 10

                    Total span:   0 (total)   0.00 (avg/edge) / WES:   0.222222 (total)   0.024691 (avg/edge) [before]
                    Total span:   0 (total)   0.00 (avg/edge) / WES:   0.222222 (total)   0.024691 (avg/edge) [iteration 1]
                    Total span:   0 (total)   0.00 (avg/edge) / WES:   0.222222 (total)   0.024691 (avg/edge) [after]

                Applying sliding window algorithm:
                    Size: 4
                    Metric: total-span
                    Relations: linearized
                    Effect: var-order
                    Number of hyper-edges: 9
                    Window length: 2

                    Total span:   0 (total)   0.00 (avg/edge) / WES:   0.222222 (total)   0.024691 (avg/edge) [before]
                    Total span:   0 (total)   0.00 (avg/edge) / WES:   0.222222 (total)   0.024691 (avg/edge) [after]

        Variable order unchanged.

        Restricting system behavior using state/event exclusion plant invariants:
            No guards changed.

    Computing states we can be in at the start of uncontrollable and controllable event loops:
        Round 1:
            Pre input states: pu.loc1 and pc.loc1
            Pre uncontrollables states: false
            Pre controllables states: false

            Applying event loop for input variable events:
                No input variable events.

            Pre uncontrollables states: false -> pu.loc1 and pc.loc1

            Applying event loop for uncontrollable events:
                Iteration 1 (states before iteration: pu.loc1 and pc.loc1):
                    Event u_e1: pu.loc1 and pc.loc1 -> pu.loc2 and pc.loc1
                    Event u_e2: pu.loc2 and pc.loc1 -> pu.loc3 and pc.loc1
                    Event u_e3: pu.loc3 and pc.loc1 -> pu.loc2 and pc.loc1
                    All iterations end states: pu.loc2 and pc.loc1

                Iteration 2 (states before iteration: pu.loc2 and pc.loc1):
                    Event u_e2: pu.loc2 and pc.loc1 -> pu.loc3 and pc.loc1
                    Event u_e3: pu.loc3 and pc.loc1 -> pu.loc2 and pc.loc1
                    All iterations end states: pu.loc2 and pc.loc1

            Pre controllables states: false -> pu.loc2 and pc.loc1

            Applying event loop for controllable events:
                Iteration 1 (states before iteration: pu.loc2 and pc.loc1):
                    Event c_e1: pu.loc2 and pc.loc1 -> pu.loc2 and pc.loc2
                    Event c_e3: pu.loc2 and pc.loc2 -> pu.loc2 and pc.loc3
                    Event c_e4: pu.loc2 and pc.loc3 -> pu.loc2 and pc.loc1
                    All iterations end states: pu.loc2 and pc.loc1

                Iteration 2 (states before iteration: pu.loc2 and pc.loc1):
                    Event c_e1: pu.loc2 and pc.loc1 -> pu.loc2 and pc.loc2
                    Event c_e3: pu.loc2 and pc.loc2 -> pu.loc2 and pc.loc3
                    Event c_e4: pu.loc2 and pc.loc3 -> pu.loc2 and pc.loc1
                    All iterations end states: pu.loc2 and pc.loc1

            Pre input states: pu.loc1 and pc.loc1 -> (pu.loc1 or pu.loc2) and pc.loc1

        Round 2:
            Pre input states: (pu.loc1 or pu.loc2) and pc.loc1
            Pre uncontrollables states: pu.loc1 and pc.loc1
            Pre controllables states: pu.loc2 and pc.loc1

            Applying event loop for input variable events:
                No input variable events.

            Pre uncontrollables states: pu.loc1 and pc.loc1 -> (pu.loc1 or pu.loc2) and pc.loc1

            Applying event loop for uncontrollable events:
                Iteration 1 (states before iteration: (pu.loc1 or pu.loc2) and pc.loc1):
                    Event u_e1: (pu.loc1 or pu.loc2) and pc.loc1 -> pu.loc2 and pc.loc1
                    Event u_e2: pu.loc2 and pc.loc1 -> pu.loc3 and pc.loc1
                    Event u_e3: pu.loc3 and pc.loc1 -> pu.loc2 and pc.loc1
                    All iterations end states: pu.loc2 and pc.loc1

                Iteration 2 (states before iteration: pu.loc2 and pc.loc1):
                    Event u_e2: pu.loc2 and pc.loc1 -> pu.loc3 and pc.loc1
                    Event u_e3: pu.loc3 and pc.loc1 -> pu.loc2 and pc.loc1
                    All iterations end states: pu.loc2 and pc.loc1

            Applying event loop for controllable events:
                Iteration 1 (states before iteration: pu.loc2 and pc.loc1):
                    Event c_e1: pu.loc2 and pc.loc1 -> pu.loc2 and pc.loc2
                    Event c_e3: pu.loc2 and pc.loc2 -> pu.loc2 and pc.loc3
                    Event c_e4: pu.loc2 and pc.loc3 -> pu.loc2 and pc.loc1
                    All iterations end states: pu.loc2 and pc.loc1

                Iteration 2 (states before iteration: pu.loc2 and pc.loc1):
                    Event c_e1: pu.loc2 and pc.loc1 -> pu.loc2 and pc.loc2
                    Event c_e3: pu.loc2 and pc.loc2 -> pu.loc2 and pc.loc3
                    Event c_e4: pu.loc2 and pc.loc3 -> pu.loc2 and pc.loc1
                    All iterations end states: pu.loc2 and pc.loc1

        Round 3:
            Pre input states: (pu.loc1 or pu.loc2) and pc.loc1
            Pre uncontrollables states: (pu.loc1 or pu.loc2) and pc.loc1
            Pre controllables states: pu.loc2 and pc.loc1

            Applying event loop for input variable events:
                No input variable events.

            Applying event loop for uncontrollable events:
                Iteration 1 (states before iteration: (pu.loc1 or pu.loc2) and pc.loc1):
                    Event u_e1: (pu.loc1 or pu.loc2) and pc.loc1 -> pu.loc2 and pc.loc1
                    Event u_e2: pu.loc2 and pc.loc1 -> pu.loc3 and pc.loc1
                    Event u_e3: pu.loc3 and pc.loc1 -> pu.loc2 and pc.loc1
                    All iterations end states: pu.loc2 and pc.loc1

                Iteration 2 (states before iteration: pu.loc2 and pc.loc1):
                    Event u_e2: pu.loc2 and pc.loc1 -> pu.loc3 and pc.loc1
                    Event u_e3: pu.loc3 and pc.loc1 -> pu.loc2 and pc.loc1
                    All iterations end states: pu.loc2 and pc.loc1

            Applying event loop for controllable events:
                Iteration 1 (states before iteration: pu.loc2 and pc.loc1):
                    Event c_e1: pu.loc2 and pc.loc1 -> pu.loc2 and pc.loc2
                    Event c_e3: pu.loc2 and pc.loc2 -> pu.loc2 and pc.loc3
                    Event c_e4: pu.loc2 and pc.loc3 -> pu.loc2 and pc.loc1
                    All iterations end states: pu.loc2 and pc.loc1

                Iteration 2 (states before iteration: pu.loc2 and pc.loc1):
                    Event c_e1: pu.loc2 and pc.loc1 -> pu.loc2 and pc.loc2
                    Event c_e3: pu.loc2 and pc.loc2 -> pu.loc2 and pc.loc3
                    Event c_e4: pu.loc2 and pc.loc3 -> pu.loc2 and pc.loc1
                    All iterations end states: pu.loc2 and pc.loc1

    Computing bound for uncontrollable events:
        Iteration 1 (states before iteration: (pu.loc1 or pu.loc2) and pc.loc1):
            Event u_e1: (pu.loc1 or pu.loc2) and pc.loc1 -> pu.loc2 and pc.loc1
            Event u_e2: pu.loc2 and pc.loc1 -> pu.loc3 and pc.loc1
            Event u_e3: pu.loc3 and pc.loc1 -> pu.loc2 and pc.loc1

        Iteration 2 (states before iteration: pu.loc2 and pc.loc1):
            Event u_e2: pu.loc2 and pc.loc1 -> pu.loc3 and pc.loc1
            Event u_e3: pu.loc3 and pc.loc1 -> pu.loc2 and pc.loc1

        Bound: n/a (cycle).

    Computing bound for controllable events:
        Iteration 1 (states before iteration: pu.loc2 and pc.loc1):
            Event c_e1: pu.loc2 and pc.loc1 -> pu.loc2 and pc.loc2
            Event c_e3: pu.loc2 and pc.loc2 -> pu.loc2 and pc.loc3
            Event c_e4: pu.loc2 and pc.loc3 -> pu.loc2 and pc.loc1

        Bound: n/a (cycle).

    Bounded response check completed.

CONCLUSION:
    [ERROR] The specification does NOT have bounded response:

        - An infinite sequence of transitions is possible for uncontrollable events.
        - An infinite sequence of transitions is possible for controllable events.

    [UNKNOWN] Non-blocking under control checking was disabled, non-blocking under control property is unknown.
    [UNKNOWN] Finite response checking was disabled, finite response property is unknown.
    [UNKNOWN] Confluence checking was disabled, confluence property is unknown.

The model with the check results has been written to "controllercheck/bounded_response/cycle_in_cycle.Bxxx.out.cif.real".
