Loading CIF specification "controllercheck/bounded_response/exec_scheme_chan_aut_order.cif".
Checking for bounded response:
    Converting CIF specification to a BDD representation:
        CIF variables and location pointers:
            Nr     Kind               Type           Name          Group  BDD vars  CIF values  BDD values  Values used
            -----  -----------------  -------------  ------------  -----  --------  ----------  ----------  -----------
            1      discrete variable  int[0..5]      chan_rcv2.x   0      3 * 2     6 * 2       8 * 2       75%
            2      discrete variable  int[0..5]      chan_rcv1.x   1      3 * 2     6 * 2       8 * 2       75%
            3      discrete variable  int[0..2,000]  chan_sync1.v  2      11 * 2    2001 * 2    2048 * 2    ~98%
            4      discrete variable  int[0..2,000]  chan_sync1.w  3      11 * 2    2001 * 2    2048 * 2    ~98%
            -----  -----------------  -------------  ------------  -----  --------  ----------  ----------  -----------
            Total                                                  4      56        8028        8224        ~98%

        Applying variable ordering:
            Applying 4 orderers, sequentially:
                Applying sorted variable order:
                    Effect: both

                Applying DCSH algorithm:
                    Metric: wes
                    Relations: legacy
                    Effect: var-order
                    Number of hyper-edges: 38

                    Applying Weighted Cuthill-McKee algorithm:
                        Node finder: george-liu
                        Relations: legacy
                        Effect: var-order
                        Number of graph edges: 4

                        Total span:   4 (total)   0.11 (avg/edge) / WES:   0.174342 (total)   0.004588 (avg/edge) [before]
                        Total span:   4 (total)   0.11 (avg/edge) / WES:   0.174342 (total)   0.004588 (avg/edge) [after]

                    Found new best variable order.

                    Applying Sloan algorithm:
                        Relations: legacy
                        Effect: var-order
                        Number of graph edges: 4

                        Total span:   4 (total)   0.11 (avg/edge) / WES:   0.174342 (total)   0.004588 (avg/edge) [before]
                        Total span:   4 (total)   0.11 (avg/edge) / WES:   0.273026 (total)   0.007185 (avg/edge) [after]

                    Applying 2 orderers, sequentially:
                        Applying Weighted Cuthill-McKee algorithm:
                            Node finder: george-liu
                            Relations: legacy
                            Effect: var-order
                            Number of graph edges: 4

                            Total span:   4 (total)   0.11 (avg/edge) / WES:   0.174342 (total)   0.004588 (avg/edge) [before]
                            Total span:   4 (total)   0.11 (avg/edge) / WES:   0.174342 (total)   0.004588 (avg/edge) [after]

                        Reversing the variable order:
                            Relations: legacy
                            Effect: var-order
                            Number of hyper-edges: 38

                            Total span:   4 (total)   0.11 (avg/edge) / WES:   0.174342 (total)   0.004588 (avg/edge) [before]
                            Total span:   4 (total)   0.11 (avg/edge) / WES:   0.174342 (total)   0.004588 (avg/edge) [reversed]

                    Applying 2 orderers, sequentially:
                        Applying Sloan algorithm:
                            Relations: legacy
                            Effect: var-order
                            Number of graph edges: 4

                            Total span:   4 (total)   0.11 (avg/edge) / WES:   0.174342 (total)   0.004588 (avg/edge) [before]
                            Total span:   4 (total)   0.11 (avg/edge) / WES:   0.273026 (total)   0.007185 (avg/edge) [after]

                        Reversing the variable order:
                            Relations: legacy
                            Effect: var-order
                            Number of hyper-edges: 38

                            Total span:   4 (total)   0.11 (avg/edge) / WES:   0.273026 (total)   0.007185 (avg/edge) [before]
                            Total span:   4 (total)   0.11 (avg/edge) / WES:   0.273026 (total)   0.007185 (avg/edge) [reversed]

                Applying FORCE algorithm:
                    Metric: total-span
                    Relations: linearized
                    Effect: var-order
                    Number of hyper-edges: 41
                    Maximum number of iterations: 20

                    Total span:   81 (total)   1.98 (avg/edge) / WES:   0.750000 (total)   0.018293 (avg/edge) [before]
                    Total span:   81 (total)   1.98 (avg/edge) / WES:   0.750000 (total)   0.018293 (avg/edge) [iteration 1]
                    Total span:   81 (total)   1.98 (avg/edge) / WES:   0.750000 (total)   0.018293 (avg/edge) [after]

                Applying sliding window algorithm:
                    Size: 4
                    Metric: total-span
                    Relations: linearized
                    Effect: var-order
                    Number of hyper-edges: 41
                    Window length: 4

                    Total span:   81 (total)   1.98 (avg/edge) / WES:   0.750000 (total)   0.018293 (avg/edge) [before]
                    Total span:   81 (total)   1.98 (avg/edge) / WES:   0.750000 (total)   0.018293 (avg/edge) [after]

        Variable order changed.

        CIF variables and location pointers:
            Nr     Kind               Type           Name          Group  BDD vars  CIF values  BDD values  Values used
            -----  -----------------  -------------  ------------  -----  --------  ----------  ----------  -----------
            1      discrete variable  int[0..5]      chan_rcv1.x   0      3 * 2     6 * 2       8 * 2       75%
            2      discrete variable  int[0..5]      chan_rcv2.x   1      3 * 2     6 * 2       8 * 2       75%
            3      discrete variable  int[0..2,000]  chan_sync1.v  2      11 * 2    2001 * 2    2048 * 2    ~98%
            4      discrete variable  int[0..2,000]  chan_sync1.w  3      11 * 2    2001 * 2    2048 * 2    ~98%
            -----  -----------------  -------------  ------------  -----  --------  ----------  ----------  -----------
            Total                                                  4      56        8028        8224        ~98%

        Restricting system behavior using state/event exclusion plant invariants:
            No guards changed.

    Computing states we can be in at the start of uncontrollable and controllable event loops:
        Round 1:
            Pre input states: <bdd 28n 1p>
            Pre uncontrollables states: false
            Pre controllables states: false

            Applying event loop for input variable events:
                No input variable events.

            Pre uncontrollables states: false -> <bdd 28n 1p>

            Applying event loop for uncontrollable events:
                Iteration 1 (states before iteration: <bdd 28n 1p>):
                    Event chan: <bdd 28n 1p> -> <bdd 28n 1p>
                    Event z.e: <bdd 28n 1p> -> <bdd 28n 1p>
                    All iterations end states: <bdd 28n 1p>

                Iteration 2 (states before iteration: <bdd 28n 1p>):
                    Event chan: <bdd 28n 1p> -> <bdd 28n 1p>
                    Event z.e: <bdd 28n 1p> -> <bdd 28n 1p>
                    All iterations end states: <bdd 43n 2p>

                Iteration 3 (states before iteration: <bdd 28n 1p>):
                    Event z.e: <bdd 28n 1p> -> <bdd 28n 1p>
                    All iterations end states: <bdd 42n 2p>

                Iteration 4 (states before iteration: <bdd 28n 1p>):
                    Event z.e: <bdd 28n 1p> -> <bdd 28n 1p>
                    All iterations end states: <bdd 45n 4p>

                Iteration 5 (states before iteration: <bdd 28n 1p>):
                    Event z.e: <bdd 28n 1p> -> <bdd 28n 1p>
                    All iterations end states: <bdd 43n 3p>

                Iteration 6 (states before iteration: <bdd 28n 1p>):
                    Event z.e: <bdd 28n 1p> -> <bdd 28n 1p>
                    All iterations end states: <bdd 45n 5p>

                Iteration 7 (states before iteration: <bdd 28n 1p>):
                    Event z.e: <bdd 28n 1p> -> <bdd 28n 1p>
                    All iterations end states: <bdd 43n 3p>

                Iteration 8 (states before iteration: <bdd 28n 1p>):
                    Event z.e: <bdd 28n 1p> -> <bdd 28n 1p>
                    All iterations end states: <bdd 47n 6p>

                Iteration 9 (states before iteration: <bdd 28n 1p>):
                    Event z.e: <bdd 28n 1p> -> <bdd 28n 1p>
                    All iterations end states: <bdd 44n 4p>

                Iteration 10 (states before iteration: <bdd 28n 1p>):
                    Event z.e: <bdd 28n 1p> -> <bdd 28n 1p>
                    All iterations end states: <bdd 47n 8p>

                Iteration 11 (states before iteration: <bdd 28n 1p>):
                    No edge(s) enabled. No state changes.
                    All iterations end states: <bdd 47n 8p>

            Pre controllables states: false -> <bdd 28n 1p>

            Applying event loop for controllable events:
                No controllable events.

            Pre input states: <bdd 28n 1p> -> <bdd 48n 2p>

        Round 2:
            Pre input states: <bdd 48n 2p>
            Pre uncontrollables states: <bdd 28n 1p>
            Pre controllables states: <bdd 28n 1p>

            Applying event loop for input variable events:
                No input variable events.

            Pre uncontrollables states: <bdd 28n 1p> -> <bdd 48n 2p>

            Applying event loop for uncontrollable events:
                Iteration 1 (states before iteration: <bdd 48n 2p>):
                    Event chan: <bdd 48n 2p> -> <bdd 45n 2p>
                    Event z.e: <bdd 45n 2p> -> <bdd 45n 2p>
                    All iterations end states: <bdd 45n 2p>

                Iteration 2 (states before iteration: <bdd 45n 2p>):
                    Event chan: <bdd 45n 2p> -> <bdd 31n 2p>
                    Event z.e: <bdd 31n 2p> -> <bdd 27n 1p>
                    All iterations end states: <bdd 44n 2p>

                Iteration 3 (states before iteration: <bdd 27n 1p>):
                    Event z.e: <bdd 27n 1p> -> <bdd 31n 2p>
                    All iterations end states: <bdd 45n 3p>

                Iteration 4 (states before iteration: <bdd 31n 2p>):
                    Event z.e: <bdd 31n 2p> -> <bdd 30n 2p>
                    All iterations end states: <bdd 46n 4p>

                Iteration 5 (states before iteration: <bdd 30n 2p>):
                    Event z.e: <bdd 30n 2p> -> <bdd 31n 2p>
                    All iterations end states: <bdd 46n 5p>

                Iteration 6 (states before iteration: <bdd 31n 2p>):
                    Event z.e: <bdd 31n 2p> -> <bdd 29n 2p>
                    All iterations end states: <bdd 46n 6p>

                Iteration 7 (states before iteration: <bdd 29n 2p>):
                    Event z.e: <bdd 29n 2p> -> <bdd 31n 2p>
                    All iterations end states: <bdd 46n 6p>

                Iteration 8 (states before iteration: <bdd 31n 2p>):
                    Event z.e: <bdd 31n 2p> -> <bdd 27n 1p>
                    All iterations end states: <bdd 48n 7p>

                Iteration 9 (states before iteration: <bdd 27n 1p>):
                    Event z.e: <bdd 27n 1p> -> <bdd 29n 2p>
                    All iterations end states: <bdd 47n 8p>

                Iteration 10 (states before iteration: <bdd 29n 2p>):
                    Event z.e: <bdd 29n 2p> -> <bdd 28n 1p>
                    All iterations end states: <bdd 47n 8p>

            Applying event loop for controllable events:
                No controllable events.

        Round 3:
            Pre input states: <bdd 48n 2p>
            Pre uncontrollables states: <bdd 48n 2p>
            Pre controllables states: <bdd 28n 1p>

            Applying event loop for input variable events:
                No input variable events.

            Applying event loop for uncontrollable events:
                Iteration 1 (states before iteration: <bdd 48n 2p>):
                    Event chan: <bdd 48n 2p> -> <bdd 45n 2p>
                    Event z.e: <bdd 45n 2p> -> <bdd 45n 2p>
                    All iterations end states: <bdd 45n 2p>

                Iteration 2 (states before iteration: <bdd 45n 2p>):
                    Event chan: <bdd 45n 2p> -> <bdd 31n 2p>
                    Event z.e: <bdd 31n 2p> -> <bdd 27n 1p>
                    All iterations end states: <bdd 44n 2p>

                Iteration 3 (states before iteration: <bdd 27n 1p>):
                    Event z.e: <bdd 27n 1p> -> <bdd 31n 2p>
                    All iterations end states: <bdd 45n 3p>

                Iteration 4 (states before iteration: <bdd 31n 2p>):
                    Event z.e: <bdd 31n 2p> -> <bdd 30n 2p>
                    All iterations end states: <bdd 46n 4p>

                Iteration 5 (states before iteration: <bdd 30n 2p>):
                    Event z.e: <bdd 30n 2p> -> <bdd 31n 2p>
                    All iterations end states: <bdd 46n 5p>

                Iteration 6 (states before iteration: <bdd 31n 2p>):
                    Event z.e: <bdd 31n 2p> -> <bdd 29n 2p>
                    All iterations end states: <bdd 46n 6p>

                Iteration 7 (states before iteration: <bdd 29n 2p>):
                    Event z.e: <bdd 29n 2p> -> <bdd 31n 2p>
                    All iterations end states: <bdd 46n 6p>

                Iteration 8 (states before iteration: <bdd 31n 2p>):
                    Event z.e: <bdd 31n 2p> -> <bdd 27n 1p>
                    All iterations end states: <bdd 48n 7p>

                Iteration 9 (states before iteration: <bdd 27n 1p>):
                    Event z.e: <bdd 27n 1p> -> <bdd 29n 2p>
                    All iterations end states: <bdd 47n 8p>

                Iteration 10 (states before iteration: <bdd 29n 2p>):
                    Event z.e: <bdd 29n 2p> -> <bdd 28n 1p>
                    All iterations end states: <bdd 47n 8p>

            Applying event loop for controllable events:
                No controllable events.

    Computing bound for uncontrollable events:
        Iteration 1 (states before iteration: <bdd 48n 2p>):
            Event chan: <bdd 48n 2p> -> <bdd 45n 2p>
            Event z.e: <bdd 45n 2p> -> <bdd 45n 2p>

        Iteration 2 (states before iteration: <bdd 45n 2p>):
            Event chan: <bdd 45n 2p> -> <bdd 31n 2p>
            Event z.e: <bdd 31n 2p> -> <bdd 27n 1p>

        Iteration 3 (states before iteration: <bdd 27n 1p>):
            Event z.e: <bdd 27n 1p> -> <bdd 31n 2p>

        Iteration 4 (states before iteration: <bdd 31n 2p>):
            Event z.e: <bdd 31n 2p> -> <bdd 30n 2p>

        Iteration 5 (states before iteration: <bdd 30n 2p>):
            Event z.e: <bdd 30n 2p> -> <bdd 31n 2p>

        Iteration 6 (states before iteration: <bdd 31n 2p>):
            Event z.e: <bdd 31n 2p> -> <bdd 29n 2p>

        Iteration 7 (states before iteration: <bdd 29n 2p>):
            Event z.e: <bdd 29n 2p> -> <bdd 31n 2p>

        Iteration 8 (states before iteration: <bdd 31n 2p>):
            Event z.e: <bdd 31n 2p> -> <bdd 27n 1p>

        Iteration 9 (states before iteration: <bdd 27n 1p>):
            Event z.e: <bdd 27n 1p> -> <bdd 29n 2p>

        Iteration 10 (states before iteration: <bdd 29n 2p>):
            Event z.e: <bdd 29n 2p> -> <bdd 28n 1p>

        Iteration 11 (states before iteration: <bdd 28n 1p>):
            No edge(s) enabled. No state changes.

        Bound: 10.

    Computing bound for controllable events:
        No controllable events.

        Bound: 0.

    Bounded response check completed.

CONCLUSION:
    [OK] The specification has bounded response:

        - At most 10 iterations are needed for the event loop for uncontrollable events.
        - No transitions are possible for controllable events.

    [UNKNOWN] Non-blocking under control checking was disabled, non-blocking under control property is unknown.
    [UNKNOWN] Finite response checking was disabled, finite response property is unknown.
    [UNKNOWN] Confluence checking was disabled, confluence property is unknown.

The model with the check results has been written to "controllercheck/bounded_response/exec_scheme_chan_aut_order.Bxxx.out.cif.real".
