Loading CIF specification "controllercheck/bounded_response/no_init.cif".
Checking for bounded response:
    Converting CIF specification to a BDD representation:
        The specification has no BDD variables.

        Restricting system behavior using state/event exclusion plant invariants:
            No guards changed.

    No initial states.

CONCLUSION:
    [OK] The specification has bounded response:

        - No transitions are possible for uncontrollable events.
        - No transitions are possible for controllable events.

    [UNKNOWN] Non-blocking under control checking was disabled, non-blocking under control property is unknown.
    [UNKNOWN] Finite response checking was disabled, finite response property is unknown.
    [UNKNOWN] Confluence checking was disabled, confluence property is unknown.

The model with the check results has been written to "controllercheck/bounded_response/no_init.Bxxx.out.cif.real".
