Loading CIF specification "controllercheck/mdd/disabled_evts.cif".
Checking for confluence:
    Converting CIF specification to a BDD representation:
        The specification has no BDD variables.

        Restricting system behavior using state/event exclusion plant invariants:
            No guards changed.

    One controllable event. Confluence trivially holds.

CONCLUSION:
    [UNKNOWN] Bounded response checking was disabled, bounded response property is unknown.
    [UNKNOWN] Non-blocking under control checking was disabled, non-blocking under control property is unknown.
    [UNKNOWN] Finite response checking was disabled, finite response property is unknown.
    [OK] The specification has confluence.

The model with the check results has been written to "controllercheck/mdd/disabled_evts.xCxx.out.cif.real".
