Reading CIF file "datasynth/bdd_out_normal.cif".

Preprocessing CIF specification (includes checking that the specification is supported).

Converting CIF specification to internal format (BDDs):
    CIF variables and location pointers:
        Nr     Kind               Type       Name  Group  BDD vars  CIF values  BDD values  Values used
        -----  -----------------  ---------  ----  -----  --------  ----------  ----------  -----------
        1      input variable     int[0..1]  io.i  0      1 * 2     2 * 2       2 * 2       100%
        2      location pointer   n/a        p     1      1 * 2     2 * 2       2 * 2       100%
        3      discrete variable  bool       p.b   2      1 * 2     2 * 2       2 * 2       100%
        4      discrete variable  int[0..3]  p.x   3      2 * 2     4 * 2       4 * 2       100%
        5      discrete variable  int[2..5]  p.y   4      3 * 2     4 * 2       8 * 2       50%
        6      discrete variable  p.E        p.v   5      2 * 2     3 * 2       4 * 2       75%
        -----  -----------------  ---------  ----  -----  --------  ----------  ----------  -----------
        Total                                      6      20        34          44          ~77%

    Applying variable ordering:
        Applying 4 orderers, sequentially:
            Applying model variable order:
                Effect: both

            Applying DCSH algorithm:
                Metric: wes
                Relations: legacy
                Effect: var-order
                Number of hyper-edges: 7

                Applying Weighted Cuthill-McKee algorithm:
                    Node finder: george-liu
                    Relations: legacy
                    Effect: var-order
                    Number of graph edges: 4

                    Total span:   6 (total)   0.86 (avg/edge) / WES:   0.341270 (total)   0.048753 (avg/edge) [before]
                    Total span:   3 (total)   0.43 (avg/edge) / WES:   0.198413 (total)   0.028345 (avg/edge) [after]

                Found new best variable order.

                Applying Sloan algorithm:
                    Relations: legacy
                    Effect: var-order
                    Number of graph edges: 4

                    Total span:   6 (total)   0.86 (avg/edge) / WES:   0.341270 (total)   0.048753 (avg/edge) [before]
                    Total span:   3 (total)   0.43 (avg/edge) / WES:   0.198413 (total)   0.028345 (avg/edge) [after]

                Applying 2 orderers, sequentially:
                    Applying Weighted Cuthill-McKee algorithm:
                        Node finder: george-liu
                        Relations: legacy
                        Effect: var-order
                        Number of graph edges: 4

                        Total span:   6 (total)   0.86 (avg/edge) / WES:   0.341270 (total)   0.048753 (avg/edge) [before]
                        Total span:   3 (total)   0.43 (avg/edge) / WES:   0.198413 (total)   0.028345 (avg/edge) [after]

                    Reversing the variable order:
                        Relations: legacy
                        Effect: var-order
                        Number of hyper-edges: 7

                        Total span:   3 (total)   0.43 (avg/edge) / WES:   0.198413 (total)   0.028345 (avg/edge) [before]
                        Total span:   3 (total)   0.43 (avg/edge) / WES:   0.198413 (total)   0.028345 (avg/edge) [reversed]

                Applying 2 orderers, sequentially:
                    Applying Sloan algorithm:
                        Relations: legacy
                        Effect: var-order
                        Number of graph edges: 4

                        Total span:   6 (total)   0.86 (avg/edge) / WES:   0.341270 (total)   0.048753 (avg/edge) [before]
                        Total span:   3 (total)   0.43 (avg/edge) / WES:   0.198413 (total)   0.028345 (avg/edge) [after]

                    Reversing the variable order:
                        Relations: legacy
                        Effect: var-order
                        Number of hyper-edges: 7

                        Total span:   3 (total)   0.43 (avg/edge) / WES:   0.198413 (total)   0.028345 (avg/edge) [before]
                        Total span:   3 (total)   0.43 (avg/edge) / WES:   0.198413 (total)   0.028345 (avg/edge) [reversed]

            Applying FORCE algorithm:
                Metric: total-span
                Relations: linearized
                Effect: var-order
                Number of hyper-edges: 2
                Maximum number of iterations: 20

                Total span:   3 (total)   1.50 (avg/edge) / WES:   0.333333 (total)   0.166667 (avg/edge) [before]
                Total span:   3 (total)   1.50 (avg/edge) / WES:   0.333333 (total)   0.166667 (avg/edge) [iteration 1]
                Total span:   3 (total)   1.50 (avg/edge) / WES:   0.333333 (total)   0.166667 (avg/edge) [after]

            Applying sliding window algorithm:
                Size: 4
                Metric: total-span
                Relations: linearized
                Effect: var-order
                Number of hyper-edges: 2
                Window length: 4

                Total span:   3 (total)   1.50 (avg/edge) / WES:   0.333333 (total)   0.166667 (avg/edge) [before]
                Total span:   3 (total)   1.50 (avg/edge) / WES:   0.333333 (total)   0.166667 (avg/edge) [after]

    Variable order changed.

    CIF variables and location pointers:
        Nr     Kind               Type       Name  Group  BDD vars  CIF values  BDD values  Values used
        -----  -----------------  ---------  ----  -----  --------  ----------  ----------  -----------
        1      input variable     int[0..1]  io.i  0      1 * 2     2 * 2       2 * 2       100%
        2      discrete variable  int[2..5]  p.y   1      3 * 2     4 * 2       8 * 2       50%
        3      location pointer   n/a        p     2      1 * 2     2 * 2       2 * 2       100%
        4      discrete variable  int[0..3]  p.x   3      2 * 2     4 * 2       4 * 2       100%
        5      discrete variable  bool       p.b   4      1 * 2     2 * 2       2 * 2       100%
        6      discrete variable  p.E        p.v   5      2 * 2     3 * 2       4 * 2       75%
        -----  -----------------  ---------  ----  -----  --------  ----------  ----------  -----------
        Total                                      6      20        34          44          ~77%

Starting data-based synthesis.

Synthesis input:
    Invariant (components state plant inv):      true
    Invariant (locations state plant invariant): true
    Invariant (system state plant invariant):    true

    Invariant (component state req invariant):   p.b
    Invariant (components state req invariant):  p.b
    Invariant (location state req invariant):    p.L1 or p.v != p.Q
    Invariant (locations state req invariant):   p.L1 or p.v != p.Q
    Invariant (system state req invariant):      p.L1 and p.b or p.L2 and (p.b and p.v != p.Q)

    Initial   (discrete variable 1):             true
    Initial   (discrete variable 3):             true
    Initial   (discrete variable 4):             true
    Initial   (discrete variable 5):             true
    Initial   (discrete variables):              true
    Initial   (components init predicate):       true
    Initial   (aut/locs init predicate):         p.L1 and (p.x = 2 or p.x = 3)
    Initial   (auts/locs init predicate):        p.L1 and (p.x = 2 or p.x = 3)
    Initial   (uncontrolled system):             (p.y = 2 or p.y = 3 or (p.L2 or (p.x = 2 or p.x = 3))) and (p.y = 2 or (p.y = 3 or p.L1)) and ((p.y = 4 or p.y = 5 or (p.L2 or (p.x = 2 or p.x = 3))) and (p.y = 4 or (p.y = 5 or p.L1)))
    Initial   (system, combined init/plant inv): (p.y = 2 or p.y = 3 or (p.L2 or (p.x = 2 or p.x = 3))) and (p.y = 2 or (p.y = 3 or p.L1)) and ((p.y = 4 or p.y = 5 or (p.L2 or (p.x = 2 or p.x = 3))) and (p.y = 4 or (p.y = 5 or p.L1)))
    Initial   (system, combined init/state inv): (p.y = 2 or p.y = 3 or (p.L2 or (p.x = 2 or p.x = 3))) and ((p.y = 2 or (p.y = 3 or p.L2) or (p.x = 0 or (p.x = 1 or p.b))) and (p.y = 2 or (p.y = 3 or p.L1))) and ((p.y = 4 or p.y = 5 or (p.L2 or (p.x = 2 or p.x = 3))) and ((p.y = 4 or (p.y = 5 or p.L2) or (p.x = 0 or (p.x = 1 or p.b))) and (p.y = 4 or (p.y = 5 or p.L1))))

    Marked    (components marker predicate):     true
    Marked    (aut/locs marker predicate):       (p.y = 2 or p.y = 4) and p.L2 or p.y = 3 and p.L2
    Marked    (auts/locs marker predicate):      (p.y = 2 or p.y = 4) and p.L2 or p.y = 3 and p.L2
    Marked    (uncontrolled system):             (p.y = 2 or p.y = 4) and p.L2 or p.y = 3 and p.L2
    Marked    (system, combined mark/plant inv): (p.y = 2 or p.y = 4) and p.L2 or p.y = 3 and p.L2
    Marked    (system, combined mark/state inv): (p.y = 2 or p.y = 4) and p.L2 and (p.b and p.v != p.Q) or p.y = 3 and p.L2 and (p.b and p.v != p.Q)

    State/event exclusion plants:
        None

    State/event exclusion requirements:
        None

    Uncontrolled system:
        State: (controlled-behavior: ?)
            Edge: (event: p.e1) (guard: p.L1 and p.x = 2) (assignments: p := p.L2)
            Edge: (event: p.e2) (guard: io.i = 0 and (p.y = 2 and p.L2) or io.i = 1 and p.L2) (assignments: p := p.L1)
            Edge: (event: io.i) (guard: true) (assignments: io.i+ != io.i)

Checking input for potential problems.

Restricting edge guards to prevent runtime errors:
    No guards changed.

Restricting uncontrolled system behavior using state/event exclusion plant invariants:
    No guards changed.

Initializing edges for being applied.

Restricting uncontrolled system behavior using state plant invariants:
    No restrictions needed.

Initializing controlled behavior:
    Controlled-behavior predicate: true.
    Controlled-initialization predicate: (p.y = 2 or p.y = 3 or (p.L2 or (p.x = 2 or p.x = 3))) and (p.y = 2 or (p.y = 3 or p.L1)) and ((p.y = 4 or p.y = 5 or (p.L2 or (p.x = 2 or p.x = 3))) and (p.y = 4 or (p.y = 5 or p.L1))).

Restricting behavior using state requirements:
    Controlled behavior: true -> p.L1 and p.b or p.L2 and (p.b and p.v != p.Q) [state requirements: p.L1 and p.b or p.L2 and (p.b and p.v != p.Q)].

Extending controlled-behavior predicate using variable ranges:
    Controlled behavior: p.L1 and p.b or p.L2 and (p.b and p.v != p.Q) -> (p.y = 4 or p.y = 5) and (p.L1 and p.b) or (p.y = 4 or p.y = 5) and p.L2 and (p.b and p.v != p.Q) or ((p.y = 2 or p.y = 3) and (p.L1 and p.b) or (p.y = 2 or p.y = 3) and p.L2 and (p.b and p.v != p.Q)) [range: true, variable: discrete variable "p.y" of type "int[2..5]" (group: 1, domain: 2+3, BDD variables: 3, CIF/BDD values: 4/8)].
    Controlled behavior: (p.y = 4 or p.y = 5) and (p.L1 and p.b) or (p.y = 4 or p.y = 5) and p.L2 and (p.b and p.v != p.Q) or ((p.y = 2 or p.y = 3) and (p.L1 and p.b) or (p.y = 2 or p.y = 3) and p.L2 and (p.b and p.v != p.Q)) -> (p.y = 2 or p.y = 3 or (p.L2 or p.b)) and ((p.y = 2 or p.y = 3 or (p.L1 or p.b)) and (p.y = 2 or p.y = 3 or (p.L1 or (not p.b or p.v != p.Q)))) and ((p.y = 4 or p.y = 5 or (p.L2 or p.b)) and ((p.y = 4 or p.y = 5 or (p.L1 or p.b)) and (p.y = 4 or p.y = 5 or (p.L1 or (not p.b or p.v != p.Q))))) [range: true, variable: discrete variable "p.v" of type "p.E" (group: 5, domain: 10+11, BDD variables: 2, CIF/BDD values: 3/4)].

    Extended controlled-behavior predicate using variable ranges: (p.y = 2 or p.y = 3 or (p.L2 or p.b)) and ((p.y = 2 or p.y = 3 or (p.L1 or p.b)) and (p.y = 2 or p.y = 3 or (p.L1 or (not p.b or p.v != p.Q)))) and ((p.y = 4 or p.y = 5 or (p.L2 or p.b)) and ((p.y = 4 or p.y = 5 or (p.L1 or p.b)) and (p.y = 4 or p.y = 5 or (p.L1 or (not p.b or p.v != p.Q))))).

Restricting behavior using state/event exclusion requirements:
    Guards and controlled behavior not changed.

Restricting behavior using implicit runtime error requirements:
    Controlled behavior not changed.

Re-initializing edges for being applied.

Checking pre-synthesis for events that are never enabled.

Synthesis round 1:
    Computing backward controlled-behavior predicate:
        Saturation matrix:
                   /-------------------- 1  io.i#0
                   |/------------------- 2  io.i#0+
                   ||/------------------ 3  p.y#0
                   |||/----------------- 4  p.y#0+
                   ||||/---------------- 5  p.y#1
                   |||||/--------------- 6  p.y#1+
                   ||||||/-------------- 7  p.y#2
                   |||||||/------------- 8  p.y#2+
                   ||||||||/------------ 9  p#0
                   |||||||||/----------- 10 p#0+
                   ||||||||||/---------- 11 p.x#0
                   |||||||||||/--------- 12 p.x#0+
                   ||||||||||||/-------- 13 p.x#1
                   |||||||||||||/------- 14 p.x#1+
                   ||||||||||||||/------ 15 p.b#0
                   |||||||||||||||/----- 16 p.b#0+
                   ||||||||||||||||/---- 17 p.v#0
                   |||||||||||||||||/--- 18 p.v#0+
                   ||||||||||||||||||/-- 19 p.v#1
                   |||||||||||||||||||/- 20 p.v#1+
            1 p.e2 r r r r rw
            2 io.i rw
            3 p.e1         rwr r

        Backward controlled-behavior: (p.y = 2 or p.y = 4) and p.L2 or p.y = 3 and p.L2 [marker predicate]
        Backward controlled-behavior: (p.y = 2 or p.y = 4) and p.L2 or p.y = 3 and p.L2 -> p.y = 4 and p.L2 and (p.b and p.v != p.Q) or (p.y = 2 and p.L2 and (p.b and p.v != p.Q) or p.y = 3 and p.L2 and (p.b and p.v != p.Q)) [restricted to current/previous controlled-behavior predicate: (p.y = 2 or p.y = 3 or (p.L2 or p.b)) and ((p.y = 2 or p.y = 3 or (p.L1 or p.b)) and (p.y = 2 or p.y = 3 or (p.L1 or (not p.b or p.v != p.Q)))) and ((p.y = 4 or p.y = 5 or (p.L2 or p.b)) and ((p.y = 4 or p.y = 5 or (p.L1 or p.b)) and (p.y = 4 or p.y = 5 or (p.L1 or (not p.b or p.v != p.Q)))))]
        Backward controlled-behavior: p.L2 and (p.b and p.v != p.Q) -> p.L1 and p.x = 2 and (p.b and p.v != p.Q) or p.L2 and (p.b and p.v != p.Q) [backward reach using bounded saturation (transition: 3 of 3) (level: 9 of 20) with edge: (event: p.e1) (guard: p.L1 and p.x = 2) (assignments: p := p.L2)]

        Backward controlled-behavior: p.y = 4 and p.L1 and (p.x = 2 and (p.b and p.v != p.Q)) or (p.y = 4 and p.L2 and (p.b and p.v != p.Q) or p.y = 2 and p.L1 and (p.x = 2 and (p.b and p.v != p.Q))) or (p.y = 2 and p.L2 and (p.b and p.v != p.Q) or (p.y = 3 and p.L1 and (p.x = 2 and (p.b and p.v != p.Q)) or p.y = 3 and p.L2 and (p.b and p.v != p.Q))) [fixed point].

        Controlled behavior: (p.y = 2 or p.y = 3 or (p.L2 or p.b)) and ((p.y = 2 or p.y = 3 or (p.L1 or p.b)) and (p.y = 2 or p.y = 3 or (p.L1 or (not p.b or p.v != p.Q)))) and ((p.y = 4 or p.y = 5 or (p.L2 or p.b)) and ((p.y = 4 or p.y = 5 or (p.L1 or p.b)) and (p.y = 4 or p.y = 5 or (p.L1 or (not p.b or p.v != p.Q))))) -> p.y = 4 and p.L1 and (p.x = 2 and (p.b and p.v != p.Q)) or (p.y = 4 and p.L2 and (p.b and p.v != p.Q) or p.y = 2 and p.L1 and (p.x = 2 and (p.b and p.v != p.Q))) or (p.y = 2 and p.L2 and (p.b and p.v != p.Q) or (p.y = 3 and p.L1 and (p.x = 2 and (p.b and p.v != p.Q)) or p.y = 3 and p.L2 and (p.b and p.v != p.Q))).

    Computing backward uncontrolled bad-state predicate:
        Saturation matrix:
                   /-------------------- 1  io.i#0
                   |/------------------- 2  io.i#0+
                   ||/------------------ 3  p.y#0
                   |||/----------------- 4  p.y#0+
                   ||||/---------------- 5  p.y#1
                   |||||/--------------- 6  p.y#1+
                   ||||||/-------------- 7  p.y#2
                   |||||||/------------- 8  p.y#2+
                   ||||||||/------------ 9  p#0
                   |||||||||/----------- 10 p#0+
                   ||||||||||/---------- 11 p.x#0
                   |||||||||||/--------- 12 p.x#0+
                   ||||||||||||/-------- 13 p.x#1
                   |||||||||||||/------- 14 p.x#1+
                   ||||||||||||||/------ 15 p.b#0
                   |||||||||||||||/----- 16 p.b#0+
                   ||||||||||||||||/---- 17 p.v#0
                   |||||||||||||||||/--- 18 p.v#0+
                   ||||||||||||||||||/-- 19 p.v#1
                   |||||||||||||||||||/- 20 p.v#1+
            1 io.i rw

        Backward uncontrolled bad-state: <bdd 10n 22p> [current/previous controlled behavior predicate]

        Controlled behavior not changed.

    Computing forward controlled-behavior predicate:
        Saturation matrix:
                   /-------------------- 1  io.i#0
                   |/------------------- 2  io.i#0+
                   ||/------------------ 3  p.y#0
                   |||/----------------- 4  p.y#0+
                   ||||/---------------- 5  p.y#1
                   |||||/--------------- 6  p.y#1+
                   ||||||/-------------- 7  p.y#2
                   |||||||/------------- 8  p.y#2+
                   ||||||||/------------ 9  p#0
                   |||||||||/----------- 10 p#0+
                   ||||||||||/---------- 11 p.x#0
                   |||||||||||/--------- 12 p.x#0+
                   ||||||||||||/-------- 13 p.x#1
                   |||||||||||||/------- 14 p.x#1+
                   ||||||||||||||/------ 15 p.b#0
                   |||||||||||||||/----- 16 p.b#0+
                   ||||||||||||||||/---- 17 p.v#0
                   |||||||||||||||||/--- 18 p.v#0+
                   ||||||||||||||||||/-- 19 p.v#1
                   |||||||||||||||||||/- 20 p.v#1+
            1 p.e2 r r r r rw
            2 io.i rw
            3 p.e1         rwr r

        Forward controlled-behavior: (p.y = 2 or p.y = 3 or (p.L2 or (p.x = 2 or p.x = 3))) and (p.y = 2 or (p.y = 3 or p.L1)) and ((p.y = 4 or p.y = 5 or (p.L2 or (p.x = 2 or p.x = 3))) and (p.y = 4 or (p.y = 5 or p.L1))) [initialization predicate]
        Forward controlled-behavior: (p.y = 2 or p.y = 3 or (p.L2 or (p.x = 2 or p.x = 3))) and (p.y = 2 or (p.y = 3 or p.L1)) and ((p.y = 4 or p.y = 5 or (p.L2 or (p.x = 2 or p.x = 3))) and (p.y = 4 or (p.y = 5 or p.L1))) -> p.y = 4 and p.L1 and (p.x = 2 and (p.b and p.v != p.Q)) or (p.y = 2 and p.L1 and (p.x = 2 and (p.b and p.v != p.Q)) or p.y = 3 and p.L1 and (p.x = 2 and (p.b and p.v != p.Q))) [restricted to current/previous controlled-behavior predicate: p.y = 4 and p.L1 and (p.x = 2 and (p.b and p.v != p.Q)) or (p.y = 4 and p.L2 and (p.b and p.v != p.Q) or p.y = 2 and p.L1 and (p.x = 2 and (p.b and p.v != p.Q))) or (p.y = 2 and p.L2 and (p.b and p.v != p.Q) or (p.y = 3 and p.L1 and (p.x = 2 and (p.b and p.v != p.Q)) or p.y = 3 and p.L2 and (p.b and p.v != p.Q)))]
        Forward controlled-behavior: p.L1 and p.x = 2 and (p.b and p.v != p.Q) -> p.x = 2 and (p.b and p.v != p.Q) [forward reach using bounded saturation (transition: 3 of 3) (level: 9 of 20) with edge: (event: p.e1) (guard: p.L1 and p.x = 2) (assignments: p := p.L2)]

        Forward controlled-behavior: p.y = 4 and p.x = 2 and (p.b and p.v != p.Q) or (p.y = 2 and p.x = 2 and (p.b and p.v != p.Q) or p.y = 3 and p.x = 2 and (p.b and p.v != p.Q)) [fixed point].

        Controlled behavior: p.y = 4 and p.L1 and (p.x = 2 and (p.b and p.v != p.Q)) or (p.y = 4 and p.L2 and (p.b and p.v != p.Q) or p.y = 2 and p.L1 and (p.x = 2 and (p.b and p.v != p.Q))) or (p.y = 2 and p.L2 and (p.b and p.v != p.Q) or (p.y = 3 and p.L1 and (p.x = 2 and (p.b and p.v != p.Q)) or p.y = 3 and p.L2 and (p.b and p.v != p.Q))) -> p.y = 4 and p.x = 2 and (p.b and p.v != p.Q) or (p.y = 2 and p.x = 2 and (p.b and p.v != p.Q) or p.y = 3 and p.x = 2 and (p.b and p.v != p.Q)).

    Need another round.

Synthesis round 2:
    Computing backward controlled-behavior predicate:
        Saturation matrix:
                   /-------------------- 1  io.i#0
                   |/------------------- 2  io.i#0+
                   ||/------------------ 3  p.y#0
                   |||/----------------- 4  p.y#0+
                   ||||/---------------- 5  p.y#1
                   |||||/--------------- 6  p.y#1+
                   ||||||/-------------- 7  p.y#2
                   |||||||/------------- 8  p.y#2+
                   ||||||||/------------ 9  p#0
                   |||||||||/----------- 10 p#0+
                   ||||||||||/---------- 11 p.x#0
                   |||||||||||/--------- 12 p.x#0+
                   ||||||||||||/-------- 13 p.x#1
                   |||||||||||||/------- 14 p.x#1+
                   ||||||||||||||/------ 15 p.b#0
                   |||||||||||||||/----- 16 p.b#0+
                   ||||||||||||||||/---- 17 p.v#0
                   |||||||||||||||||/--- 18 p.v#0+
                   ||||||||||||||||||/-- 19 p.v#1
                   |||||||||||||||||||/- 20 p.v#1+
            1 p.e2 r r r r rw
            2 io.i rw
            3 p.e1         rwr r

        Backward controlled-behavior: (p.y = 2 or p.y = 4) and p.L2 or p.y = 3 and p.L2 [marker predicate]
        Backward controlled-behavior: (p.y = 2 or p.y = 4) and p.L2 or p.y = 3 and p.L2 -> p.y = 4 and p.L2 and (p.x = 2 and (p.b and p.v != p.Q)) or (p.y = 2 and p.L2 and (p.x = 2 and (p.b and p.v != p.Q)) or p.y = 3 and p.L2 and (p.x = 2 and (p.b and p.v != p.Q))) [restricted to current/previous controlled-behavior predicate: p.y = 4 and p.x = 2 and (p.b and p.v != p.Q) or (p.y = 2 and p.x = 2 and (p.b and p.v != p.Q) or p.y = 3 and p.x = 2 and (p.b and p.v != p.Q))]
        Backward controlled-behavior: p.L2 and p.x = 2 and (p.b and p.v != p.Q) -> p.x = 2 and (p.b and p.v != p.Q) [backward reach using bounded saturation (transition: 3 of 3) (level: 9 of 20) with edge: (event: p.e1) (guard: p.L1 and p.x = 2) (assignments: p := p.L2)]

        Backward controlled-behavior: p.y = 4 and p.x = 2 and (p.b and p.v != p.Q) or (p.y = 2 and p.x = 2 and (p.b and p.v != p.Q) or p.y = 3 and p.x = 2 and (p.b and p.v != p.Q)) [fixed point].

        Controlled behavior not changed.

    Computing backward uncontrolled bad-state predicate:
        Saturation matrix:
                   /-------------------- 1  io.i#0
                   |/------------------- 2  io.i#0+
                   ||/------------------ 3  p.y#0
                   |||/----------------- 4  p.y#0+
                   ||||/---------------- 5  p.y#1
                   |||||/--------------- 6  p.y#1+
                   ||||||/-------------- 7  p.y#2
                   |||||||/------------- 8  p.y#2+
                   ||||||||/------------ 9  p#0
                   |||||||||/----------- 10 p#0+
                   ||||||||||/---------- 11 p.x#0
                   |||||||||||/--------- 12 p.x#0+
                   ||||||||||||/-------- 13 p.x#1
                   |||||||||||||/------- 14 p.x#1+
                   ||||||||||||||/------ 15 p.b#0
                   |||||||||||||||/----- 16 p.b#0+
                   ||||||||||||||||/---- 17 p.v#0
                   |||||||||||||||||/--- 18 p.v#0+
                   ||||||||||||||||||/-- 19 p.v#1
                   |||||||||||||||||||/- 20 p.v#1+
            1 io.i rw

        Backward uncontrolled bad-state: (p.y != 4 or p.x != 2 or (not p.b or p.v = p.Q)) and ((p.y != 2 or p.x != 2 or (not p.b or p.v = p.Q)) and (p.y != 3 or p.x != 2 or (not p.b or p.v = p.Q))) [current/previous controlled behavior predicate]

        Controlled behavior not changed.

    Finished: controlled behavior is stable.

Computing final controlled system guards:
    Edge (event: p.e1) (guard: p.L1 and p.x = 2) (assignments: p := p.L2): guard: p.L1 and p.x = 2 -> p.y = 4 and p.L1 and (p.x = 2 and (p.b and p.v != p.Q)) or (p.y = 2 and p.L1 and (p.x = 2 and (p.b and p.v != p.Q)) or p.y = 3 and p.L1 and (p.x = 2 and (p.b and p.v != p.Q))).
    Edge (event: p.e2) (guard: io.i = 0 and (p.y = 2 and p.L2) or io.i = 1 and p.L2) (assignments: p := p.L1): guard: io.i = 0 and (p.y = 2 and p.L2) or io.i = 1 and p.L2 -> io.i = 0 and (p.y = 2 and p.L2) and (p.x = 2 and (p.b and p.v != p.Q)) or io.i = 1 and (p.y = 4 and p.L2) and (p.x = 2 and (p.b and p.v != p.Q)) or (io.i = 1 and (p.y = 2 and p.L2) and (p.x = 2 and (p.b and p.v != p.Q)) or io.i = 1 and (p.y = 3 and p.L2) and (p.x = 2 and (p.b and p.v != p.Q))).

Cleaning up cached predicate of edges that were used when applying edges.

Final synthesis result:
    State: (controlled-behavior: p.y = 4 and p.x = 2 and (p.b and p.v != p.Q) or (p.y = 2 and p.x = 2 and (p.b and p.v != p.Q) or p.y = 3 and p.x = 2 and (p.b and p.v != p.Q)))
        Edge: (event: p.e1) (guard: p.L1 and p.x = 2 -> p.y = 4 and p.L1 and (p.x = 2 and (p.b and p.v != p.Q)) or (p.y = 2 and p.L1 and (p.x = 2 and (p.b and p.v != p.Q)) or p.y = 3 and p.L1 and (p.x = 2 and (p.b and p.v != p.Q)))) (assignments: p := p.L2)
        Edge: (event: p.e2) (guard: io.i = 0 and (p.y = 2 and p.L2) or io.i = 1 and p.L2 -> io.i = 0 and (p.y = 2 and p.L2) and (p.x = 2 and (p.b and p.v != p.Q)) or io.i = 1 and (p.y = 4 and p.L2) and (p.x = 2 and (p.b and p.v != p.Q)) or (io.i = 1 and (p.y = 2 and p.L2) and (p.x = 2 and (p.b and p.v != p.Q)) or io.i = 1 and (p.y = 3 and p.L2) and (p.x = 2 and (p.b and p.v != p.Q)))) (assignments: p := p.L1)
        Edge: (event: io.i) (guard: true) (assignments: io.i+ != io.i)

Computing initialization predicate of the controlled system.

Controlled system: exactly 24 states.

Determining initialization predicate for output model:
    Initial (synthesis result):            p.y = 4 and p.x = 2 and (p.b and p.v != p.Q) or (p.y = 2 and p.x = 2 and (p.b and p.v != p.Q) or p.y = 3 and p.x = 2 and (p.b and p.v != p.Q))
    Initial (uncontrolled system):         (p.y = 2 or p.y = 3 or (p.L2 or (p.x = 2 or p.x = 3))) and (p.y = 2 or (p.y = 3 or p.L1)) and ((p.y = 4 or p.y = 5 or (p.L2 or (p.x = 2 or p.x = 3))) and (p.y = 4 or (p.y = 5 or p.L1)))
    Initial (controlled system):           p.y = 4 and p.L1 and (p.x = 2 and (p.b and p.v != p.Q)) or (p.y = 2 and p.L1 and (p.x = 2 and (p.b and p.v != p.Q)) or p.y = 3 and p.L1 and (p.x = 2 and (p.b and p.v != p.Q)))
    Initial (removed by supervisor):       (p.y != 4 or (p.L2 or p.x != 0)) and ((p.y != 4 or p.L2 or (p.x != 2 or (not p.b or p.v = p.Q))) and (p.y != 4 or (p.L2 or p.x != 1))) and ((p.y != 4 or p.L1) and (p.y != 2 or (p.L2 or p.x != 0)) and ((p.y != 2 or p.L2 or (p.x != 2 or (not p.b or p.v = p.Q))) and (p.y != 2 or (p.L2 or p.x != 1)))) and ((p.y != 2 or p.L1) and ((p.y != 5 or p.L2 or (p.x = 2 or p.x = 3)) and (p.y != 5 or p.L1)) and ((p.y != 3 or (p.L2 or p.x != 0)) and (p.y != 3 or p.L2 or (p.x != 2 or (not p.b or p.v = p.Q))) and ((p.y != 3 or (p.L2 or p.x != 1)) and (p.y != 3 or p.L1))))
    Initial (added by supervisor):         <bdd 15n 28p>

    Simplifying of controlled system initialization predicate under the assumption of the uncontrolled system initialization predicates:
        Initial: p.y = 4 and p.L1 and (p.x = 2 and (p.b and p.v != p.Q)) or (p.y = 2 and p.L1 and (p.x = 2 and (p.b and p.v != p.Q)) or p.y = 3 and p.L1 and (p.x = 2 and (p.b and p.v != p.Q))) -> (p.y = 2 or p.y = 4) and (p.x = 0 or p.x = 2) and (p.b and p.v != p.Q) or p.y = 3 and (p.x = 0 or p.x = 2) and (p.b and p.v != p.Q) [assume (p.y = 2 or p.y = 3 or (p.L2 or (p.x = 2 or p.x = 3))) and (p.y = 2 or (p.y = 3 or p.L1)) and ((p.y = 4 or p.y = 5 or (p.L2 or (p.x = 2 or p.x = 3))) and (p.y = 4 or (p.y = 5 or p.L1)))].

    Initial (output model):                (p.y = 2 or p.y = 4) and (p.x = 0 or p.x = 2) and (p.b and p.v != p.Q) or p.y = 3 and (p.x = 0 or p.x = 2) and (p.b and p.v != p.Q)

Determining supervisor guards for output model:
    Event p.e1: guard: p.y = 4 and p.L1 and (p.x = 2 and (p.b and p.v != p.Q)) or (p.y = 2 and p.L1 and (p.x = 2 and (p.b and p.v != p.Q)) or p.y = 3 and p.L1 and (p.x = 2 and (p.b and p.v != p.Q))).
    Event p.e2: guard: io.i = 0 and (p.y = 2 and p.L2) and (p.x = 2 and (p.b and p.v != p.Q)) or io.i = 1 and (p.y = 4 and p.L2) and (p.x = 2 and (p.b and p.v != p.Q)) or (io.i = 1 and (p.y = 2 and p.L2) and (p.x = 2 and (p.b and p.v != p.Q)) or io.i = 1 and (p.y = 3 and p.L2) and (p.x = 2 and (p.b and p.v != p.Q))).

Checking post-synthesis for events that are never enabled.

Simplifying supervisor guards for output model:
    Simplification under the assumption of the plants.

    Event p.e1: guard: p.y = 4 and p.L1 and (p.x = 2 and (p.b and p.v != p.Q)) or (p.y = 2 and p.L1 and (p.x = 2 and (p.b and p.v != p.Q)) or p.y = 3 and p.L1 and (p.x = 2 and (p.b and p.v != p.Q))) -> p.y = 4 and (p.b and p.v != p.Q) or (p.y = 2 and (p.b and p.v != p.Q) or p.y = 3 and (p.b and p.v != p.Q)) [assume p.L1 and p.x = 2].
    Event p.e2: guard: io.i = 0 and (p.y = 2 and p.L2) and (p.x = 2 and (p.b and p.v != p.Q)) or io.i = 1 and (p.y = 4 and p.L2) and (p.x = 2 and (p.b and p.v != p.Q)) or (io.i = 1 and (p.y = 2 and p.L2) and (p.x = 2 and (p.b and p.v != p.Q)) or io.i = 1 and (p.y = 3 and p.L2) and (p.x = 2 and (p.b and p.v != p.Q))) -> io.i = 0 and p.x = 2 and (p.b and p.v != p.Q) or io.i = 1 and p.y = 4 and (p.x = 2 and (p.b and p.v != p.Q)) or (io.i = 1 and p.y = 2 and (p.x = 2 and (p.b and p.v != p.Q)) or io.i = 1 and p.y = 3 and (p.x = 2 and (p.b and p.v != p.Q))) [assume io.i = 0 and (p.y = 2 and p.L2) or io.i = 1 and p.L2].

Constructing output CIF specification.

Checking output CIF specification.

Writing output CIF file "datasynth/bdd_out_normal.ctrlsys.real.cif".
