Reading CIF file "datasynth/dining_philosophers4.cif".

Preprocessing CIF specification (includes checking that the specification is supported).

Converting CIF specification to internal format (BDDs):
    CIF variables and location pointers:
        Nr     Kind              Type  Name  Group  BDD vars  CIF values  BDD values  Values used
        -----  ----------------  ----  ----  -----  --------  ----------  ----------  -----------
        1      location pointer  n/a   f1    0      1 * 2     2 * 2       2 * 2       100%
        2      location pointer  n/a   f2    1      1 * 2     2 * 2       2 * 2       100%
        3      location pointer  n/a   f3    2      1 * 2     2 * 2       2 * 2       100%
        4      location pointer  n/a   f4    3      1 * 2     2 * 2       2 * 2       100%
        5      location pointer  n/a   p1    4      2 * 2     4 * 2       4 * 2       100%
        6      location pointer  n/a   p2    5      2 * 2     4 * 2       4 * 2       100%
        7      location pointer  n/a   p3    6      2 * 2     4 * 2       4 * 2       100%
        8      location pointer  n/a   p4    7      2 * 2     4 * 2       4 * 2       100%
        -----  ----------------  ----  ----  -----  --------  ----------  ----------  -----------
        Total                                8      24        48          48          100%

    Applying variable ordering:
        Applying 4 orderers, sequentially:
            Applying model variable order:
                Effect: both

            Applying DCSH algorithm:
                Metric: wes
                Relations: legacy
                Effect: var-order
                Number of hyper-edges: 12

                Applying Weighted Cuthill-McKee algorithm:
                    Node finder: george-liu
                    Relations: legacy
                    Effect: var-order
                    Number of graph edges: 12

                    Total span:   51 (total)   4.25 (avg/edge) / WES:   0.929688 (total)   0.077474 (avg/edge) [before]
                    Total span:   26 (total)   2.17 (avg/edge) / WES:   0.466146 (total)   0.038845 (avg/edge) [after]

                Found new best variable order.

                Applying Sloan algorithm:
                    Relations: legacy
                    Effect: var-order
                    Number of graph edges: 12

                    Total span:   51 (total)   4.25 (avg/edge) / WES:   0.929688 (total)   0.077474 (avg/edge) [before]
                    Total span:   26 (total)   2.17 (avg/edge) / WES:   0.481771 (total)   0.040148 (avg/edge) [after]

                Applying 2 orderers, sequentially:
                    Applying Weighted Cuthill-McKee algorithm:
                        Node finder: george-liu
                        Relations: legacy
                        Effect: var-order
                        Number of graph edges: 12

                        Total span:   51 (total)   4.25 (avg/edge) / WES:   0.929688 (total)   0.077474 (avg/edge) [before]
                        Total span:   26 (total)   2.17 (avg/edge) / WES:   0.466146 (total)   0.038845 (avg/edge) [after]

                    Reversing the variable order:
                        Relations: legacy
                        Effect: var-order
                        Number of hyper-edges: 12

                        Total span:   26 (total)   2.17 (avg/edge) / WES:   0.466146 (total)   0.038845 (avg/edge) [before]
                        Total span:   26 (total)   2.17 (avg/edge) / WES:   0.466146 (total)   0.038845 (avg/edge) [reversed]

                Applying 2 orderers, sequentially:
                    Applying Sloan algorithm:
                        Relations: legacy
                        Effect: var-order
                        Number of graph edges: 12

                        Total span:   51 (total)   4.25 (avg/edge) / WES:   0.929688 (total)   0.077474 (avg/edge) [before]
                        Total span:   26 (total)   2.17 (avg/edge) / WES:   0.481771 (total)   0.040148 (avg/edge) [after]

                    Reversing the variable order:
                        Relations: legacy
                        Effect: var-order
                        Number of hyper-edges: 12

                        Total span:   26 (total)   2.17 (avg/edge) / WES:   0.481771 (total)   0.040148 (avg/edge) [before]
                        Total span:   26 (total)   2.17 (avg/edge) / WES:   0.481771 (total)   0.040148 (avg/edge) [reversed]

            Applying FORCE algorithm:
                Metric: total-span
                Relations: linearized
                Effect: var-order
                Number of hyper-edges: 20
                Maximum number of iterations: 30

                Total span:   40 (total)   2.00 (avg/edge) / WES:   0.434375 (total)   0.021719 (avg/edge) [before]
                Total span:   40 (total)   2.00 (avg/edge) / WES:   0.434375 (total)   0.021719 (avg/edge) [iteration 1]
                Total span:   40 (total)   2.00 (avg/edge) / WES:   0.434375 (total)   0.021719 (avg/edge) [after]

            Applying sliding window algorithm:
                Size: 4
                Metric: total-span
                Relations: linearized
                Effect: var-order
                Number of hyper-edges: 20
                Window length: 4

                Total span:   40 (total)   2.00 (avg/edge) / WES:   0.434375 (total)   0.021719 (avg/edge) [before]
                Total span:   40 (total)   2.00 (avg/edge) / WES:   0.434375 (total)   0.021719 (avg/edge) [after]

    Variable order changed.

    CIF variables and location pointers:
        Nr     Kind              Type  Name  Group  BDD vars  CIF values  BDD values  Values used
        -----  ----------------  ----  ----  -----  --------  ----------  ----------  -----------
        1      location pointer  n/a   p2    0      2 * 2     4 * 2       4 * 2       100%
        2      location pointer  n/a   f2    1      1 * 2     2 * 2       2 * 2       100%
        3      location pointer  n/a   f3    2      1 * 2     2 * 2       2 * 2       100%
        4      location pointer  n/a   p1    3      2 * 2     4 * 2       4 * 2       100%
        5      location pointer  n/a   f1    4      1 * 2     2 * 2       2 * 2       100%
        6      location pointer  n/a   p3    5      2 * 2     4 * 2       4 * 2       100%
        7      location pointer  n/a   f4    6      1 * 2     2 * 2       2 * 2       100%
        8      location pointer  n/a   p4    7      2 * 2     4 * 2       4 * 2       100%
        -----  ----------------  ----  ----  -----  --------  ----------  ----------  -----------
        Total                                8      24        48          48          100%

Starting data-based synthesis.

Synthesis input:
    Invariant (components state plant inv):      true
    Invariant (locations state plant invariant): true
    Invariant (system state plant invariant):    true

    Invariant (components state req invariant):  true
    Invariant (locations state req invariant):   true
    Invariant (system state req invariant):      true

    Initial   (discrete variables):              true
    Initial   (components init predicate):       true
    Initial   (aut/locs init predicate):         f1.available
    Initial   (aut/locs init predicate):         f2.available
    Initial   (aut/locs init predicate):         f3.available
    Initial   (aut/locs init predicate):         f4.available
    Initial   (aut/locs init predicate):         p1.neither
    Initial   (aut/locs init predicate):         p2.neither
    Initial   (aut/locs init predicate):         p3.neither
    Initial   (aut/locs init predicate):         p4.neither
    Initial   (auts/locs init predicate):        p2.neither and f2.available and (f3.available and p1.neither) and (f1.available and p3.neither and (f4.available and p4.neither))
    Initial   (uncontrolled system):             p2.neither and f2.available and (f3.available and p1.neither) and (f1.available and p3.neither and (f4.available and p4.neither))
    Initial   (system, combined init/plant inv): p2.neither and f2.available and (f3.available and p1.neither) and (f1.available and p3.neither and (f4.available and p4.neither))
    Initial   (system, combined init/state inv): p2.neither and f2.available and (f3.available and p1.neither) and (f1.available and p3.neither and (f4.available and p4.neither))

    Marked    (components marker predicate):     true
    Marked    (aut/locs marker predicate):       f1.available
    Marked    (aut/locs marker predicate):       f2.available
    Marked    (aut/locs marker predicate):       f3.available
    Marked    (aut/locs marker predicate):       f4.available
    Marked    (aut/locs marker predicate):       p1.neither
    Marked    (aut/locs marker predicate):       p2.neither
    Marked    (aut/locs marker predicate):       p3.neither
    Marked    (aut/locs marker predicate):       p4.neither
    Marked    (auts/locs marker predicate):      p2.neither and f2.available and (f3.available and p1.neither) and (f1.available and p3.neither and (f4.available and p4.neither))
    Marked    (uncontrolled system):             p2.neither and f2.available and (f3.available and p1.neither) and (f1.available and p3.neither and (f4.available and p4.neither))
    Marked    (system, combined mark/plant inv): p2.neither and f2.available and (f3.available and p1.neither) and (f1.available and p3.neither and (f4.available and p4.neither))
    Marked    (system, combined mark/state inv): p2.neither and f2.available and (f3.available and p1.neither) and (f1.available and p3.neither and (f4.available and p4.neither))

    State/event exclusion plants:
        None

    State/event exclusion requirements:
        None

    Uncontrolled system:
        State: (controlled-behavior: ?)
            Edge: (event: p1.take_left) (guard: p1.neither and f1.available) (assignments: f1 := f1.taken, p1 := p1.left)
            Edge: (event: p1.take_left) (guard: p1.right and f1.available) (assignments: f1 := f1.taken, p1 := p1.both)
            Edge: (event: p4.take_right) (guard: f1.available and p4.neither) (assignments: f1 := f1.taken, p4 := p4.right)
            Edge: (event: p4.take_right) (guard: f1.available and p4.left) (assignments: f1 := f1.taken, p4 := p4.both)
            Edge: (event: p1.release_both) (guard: f2.taken and (p1.both and f1.taken)) (assignments: f1 := f1.available, f2 := f2.available, p1 := p1.neither)
            Edge: (event: p4.release_both) (guard: f1.taken and (f4.taken and p4.both)) (assignments: f1 := f1.available, f4 := f4.available, p4 := p4.neither)
            Edge: (event: p2.take_left) (guard: p2.neither and f2.available) (assignments: f2 := f2.taken, p2 := p2.left)
            Edge: (event: p2.take_left) (guard: p2.right and f2.available) (assignments: f2 := f2.taken, p2 := p2.both)
            Edge: (event: p1.take_right) (guard: f2.available and p1.neither) (assignments: f2 := f2.taken, p1 := p1.right)
            Edge: (event: p1.take_right) (guard: f2.available and p1.left) (assignments: f2 := f2.taken, p1 := p1.both)
            Edge: (event: p2.release_both) (guard: p2.both and (f2.taken and f3.taken)) (assignments: f2 := f2.available, f3 := f3.available, p2 := p2.neither)
            Edge: (event: p3.take_left) (guard: f3.available and p3.neither) (assignments: f3 := f3.taken, p3 := p3.left)
            Edge: (event: p3.take_left) (guard: f3.available and p3.right) (assignments: f3 := f3.taken, p3 := p3.both)
            Edge: (event: p2.take_right) (guard: p2.neither and f3.available) (assignments: f3 := f3.taken, p2 := p2.right)
            Edge: (event: p2.take_right) (guard: p2.left and f3.available) (assignments: f3 := f3.taken, p2 := p2.both)
            Edge: (event: p3.release_both) (guard: f3.taken and (p3.both and f4.taken)) (assignments: f3 := f3.available, f4 := f4.available, p3 := p3.neither)
            Edge: (event: p4.take_left) (guard: f4.available and p4.neither) (assignments: f4 := f4.taken, p4 := p4.left)
            Edge: (event: p4.take_left) (guard: f4.available and p4.right) (assignments: f4 := f4.taken, p4 := p4.both)
            Edge: (event: p3.take_right) (guard: p3.neither and f4.available) (assignments: f4 := f4.taken, p3 := p3.right)
            Edge: (event: p3.take_right) (guard: p3.left and f4.available) (assignments: f4 := f4.taken, p3 := p3.both)

Checking input for potential problems.

Restricting edge guards to prevent runtime errors:
    No guards changed.

Restricting uncontrolled system behavior using state/event exclusion plant invariants:
    No guards changed.

Initializing edges for being applied.

Restricting uncontrolled system behavior using state plant invariants:
    No restrictions needed.

Initializing controlled behavior:
    Controlled-behavior predicate: true.
    Controlled-initialization predicate: p2.neither and f2.available and (f3.available and p1.neither) and (f1.available and p3.neither and (f4.available and p4.neither)).

Restricting behavior using state requirements:
    Controlled behavior not changed.

Extending controlled-behavior predicate using variable ranges:
    Controlled behavior not changed.

Restricting behavior using state/event exclusion requirements:
    Guards and controlled behavior not changed.

Restricting behavior using implicit runtime error requirements:
    Controlled behavior not changed.

Re-initializing edges for being applied.

Checking pre-synthesis for events that are never enabled.

Synthesis round 1:
    Computing backward controlled-behavior predicate:
        Saturation matrix:
                               /------------------------ 1  p2#0
                               |/----------------------- 2  p2#0+
                               ||/---------------------- 3  p2#1
                               |||/--------------------- 4  p2#1+
                               ||||/-------------------- 5  f2#0
                               |||||/------------------- 6  f2#0+
                               ||||||/------------------ 7  f3#0
                               |||||||/----------------- 8  f3#0+
                               ||||||||/---------------- 9  p1#0
                               |||||||||/--------------- 10 p1#0+
                               ||||||||||/-------------- 11 p1#1
                               |||||||||||/------------- 12 p1#1+
                               ||||||||||||/------------ 13 f1#0
                               |||||||||||||/----------- 14 f1#0+
                               ||||||||||||||/---------- 15 p3#0
                               |||||||||||||||/--------- 16 p3#0+
                               ||||||||||||||||/-------- 17 p3#1
                               |||||||||||||||||/------- 18 p3#1+
                               ||||||||||||||||||/------ 19 f4#0
                               |||||||||||||||||||/----- 20 f4#0+
                               ||||||||||||||||||||/---- 21 p4#0
                               |||||||||||||||||||||/--- 22 p4#0+
                               ||||||||||||||||||||||/-- 23 p4#1
                               |||||||||||||||||||||||/- 24 p4#1+
            1  p2.take_left    rwrwrw
            2  p2.take_left    rwrwrw
            3  p2.release_both rwrwrwrw
            4  p2.take_right   rwrw  rw
            5  p2.take_right   rwrw  rw
            6  p1.release_both     rw  rwrwrw
            7  p1.take_right       rw  rwrw
            8  p1.take_right       rw  rwrw
            9  p3.take_left          rw      rwrw
            10 p3.take_left          rw      rwrw
            11 p3.release_both       rw      rwrwrw
            12 p1.take_left            rwrwrw
            13 p1.take_left            rwrwrw
            14 p4.take_right               rw      rwrw
            15 p4.take_right               rw      rwrw
            16 p4.release_both             rw    rwrwrw
            17 p3.take_right                 rwrwrw
            18 p3.take_right                 rwrwrw
            19 p4.take_left                      rwrwrw
            20 p4.take_left                      rwrwrw

        Backward controlled-behavior: p2.neither and f2.available and (f3.available and p1.neither) and (f1.available and p3.neither and (f4.available and p4.neither)) [marker predicate]
        Backward controlled-behavior: f1.available and p3.neither and (f4.available and p4.neither) -> f1.available and p3.neither and (f4.available and p4.neither) or f1.taken and p3.neither and (f4.taken and p4.both) [backward reach using bounded saturation (transition: 16 of 20) (level: 13 of 24) with edge: (event: p4.release_both) (guard: f1.taken and (f4.taken and p4.both)) (assignments: f1 := f1.available, f4 := f4.available, p4 := p4.neither)]
        Backward controlled-behavior: f4.taken and p4.both -> f4.available and p4.right or f4.taken and p4.both [backward reach using bounded saturation (transition: 20 of 20) (level: 19 of 24) with edge: (event: p4.take_left) (guard: f4.available and p4.right) (assignments: f4 := f4.taken, p4 := p4.both)]
        Backward controlled-behavior: f1.available and p3.neither and (f4.available and p4.neither) or (f1.taken and p3.neither and (f4.available and p4.right) or f1.taken and p3.neither and (f4.taken and p4.both)) -> f1.available and p3.neither and (f4.available and p4.neither) or f1.available and p3.neither and (f4.taken and p4.left) or (f1.taken and p3.neither and (f4.available and p4.right) or f1.taken and p3.neither and (f4.taken and p4.both)) [backward reach using bounded saturation (transition: 15 of 20) (level: 13 of 24) with edge: (event: p4.take_right) (guard: f1.available and p4.left) (assignments: f1 := f1.taken, p4 := p4.both)]
        Backward controlled-behavior: f3.available and (p1.neither and f1.available) and (p3.neither and (f4.available and p4.neither)) or f3.available and (p1.neither and f1.available) and (p3.neither and (f4.taken and p4.left)) or (f3.available and (p1.neither and f1.taken) and (p3.neither and (f4.available and p4.right)) or f3.available and (p1.neither and f1.taken) and (p3.neither and (f4.taken and p4.both))) -> <bdd 25n 6p> [backward reach using bounded saturation (transition: 11 of 20) (level: 7 of 24) with edge: (event: p3.release_both) (guard: f3.taken and (p3.both and f4.taken)) (assignments: f3 := f3.available, f4 := f4.available, p3 := p3.neither)]
        Backward controlled-behavior: p3.both and (f4.taken and p4.neither) -> p3.left and (f4.available and p4.neither) or p3.both and (f4.taken and p4.neither) [backward reach using bounded saturation (transition: 18 of 20) (level: 15 of 24) with edge: (event: p3.take_right) (guard: p3.left and f4.available) (assignments: f4 := f4.taken, p3 := p3.both)]
        Backward controlled-behavior: p3.both and (f4.taken and p4.right) -> p3.left and (f4.available and p4.right) or p3.both and (f4.taken and p4.right) [backward reach using bounded saturation (transition: 18 of 20) (level: 15 of 24) with edge: (event: p3.take_right) (guard: p3.left and f4.available) (assignments: f4 := f4.taken, p3 := p3.both)]
        Backward controlled-behavior: f1.available and p3.left and (f4.available and p4.neither) or f1.available and p3.both and (f4.taken and p4.neither) or (f1.taken and p3.left and (f4.available and p4.right) or f1.taken and p3.both and (f4.taken and p4.right)) -> f1.available and p3.left and (f4.available and p4.neither) or f1.available and p3.both and (f4.taken and p4.neither) or (f1.taken and p3.left and (f4.available and p4.right) or (f1.taken and p3.left and (f4.taken and p4.both) or f1.taken and p3.both and (f4.taken and p4.right))) [backward reach using bounded saturation (transition: 16 of 20) (level: 13 of 24) with edge: (event: p4.release_both) (guard: f1.taken and (f4.taken and p4.both)) (assignments: f1 := f1.available, f4 := f4.available, p4 := p4.neither)]
        Backward controlled-behavior: f1.available and p3.left and (f4.available and p4.neither) or f1.available and p3.both and (f4.taken and p4.neither) or (f1.taken and p3.left and (f4.available and p4.right) or (f1.taken and p3.left and (f4.taken and p4.both) or f1.taken and p3.both and (f4.taken and p4.right))) -> f1.available and p3.left and (f4.available and p4.neither) or (f1.available and p3.left and (f4.taken and p4.left) or f1.available and p3.both and (f4.taken and p4.neither)) or (f1.taken and p3.left and (f4.available and p4.right) or (f1.taken and p3.left and (f4.taken and p4.both) or f1.taken and p3.both and (f4.taken and p4.right))) [backward reach using bounded saturation (transition: 15 of 20) (level: 13 of 24) with edge: (event: p4.take_right) (guard: f1.available and p4.left) (assignments: f1 := f1.taken, p4 := p4.both)]
        Backward controlled-behavior: <bdd 25n 10p> -> <bdd 23n 12p> [backward reach using bounded saturation (transition: 10 of 20) (level: 7 of 24) with edge: (event: p3.take_left) (guard: f3.available and p3.right) (assignments: f3 := f3.taken, p3 := p3.both)]
        Backward controlled-behavior: <bdd 24n 12p> -> <bdd 31n 18p> [backward reach using bounded saturation (transition: 6 of 20) (level: 5 of 24) with edge: (event: p1.release_both) (guard: f2.taken and (p1.both and f1.taken)) (assignments: f1 := f1.available, f2 := f2.available, p1 := p1.neither)]
        Backward controlled-behavior: <bdd 31n 18p> -> <bdd 33n 24p> [backward reach using bounded saturation (transition: 8 of 20) (level: 5 of 24) with edge: (event: p1.take_right) (guard: f2.available and p1.left) (assignments: f2 := f2.taken, p1 := p1.both)]
        Backward controlled-behavior: p1.both and f1.taken and (p3.neither and (f4.available and p4.neither)) or (p1.both and f1.taken and (p3.neither and (f4.taken and p4.left)) or p1.both and f1.taken and (p3.right and (f4.taken and p4.neither))) -> p1.right and f1.available and (p3.neither and (f4.available and p4.neither)) or (p1.right and f1.available and (p3.neither and (f4.taken and p4.left)) or p1.right and f1.available and (p3.right and (f4.taken and p4.neither))) or (p1.both and f1.taken and (p3.neither and (f4.available and p4.neither)) or (p1.both and f1.taken and (p3.neither and (f4.taken and p4.left)) or p1.both and f1.taken and (p3.right and (f4.taken and p4.neither)))) [backward reach using bounded saturation (transition: 13 of 20) (level: 9 of 24) with edge: (event: p1.take_left) (guard: p1.right and f1.available) (assignments: f1 := f1.taken, p1 := p1.both)]
        Backward controlled-behavior: f1.available and p3.neither and (f4.available and p4.neither) or (f1.available and p3.neither and (f4.taken and p4.left) or f1.available and p3.right and (f4.taken and p4.neither)) -> f1.available and p3.neither and (f4.available and p4.neither) or f1.available and p3.neither and (f4.taken and p4.left) or (f1.available and p3.right and (f4.taken and p4.neither) or f1.taken and p3.neither and (f4.taken and p4.both)) [backward reach using bounded saturation (transition: 16 of 20) (level: 13 of 24) with edge: (event: p4.release_both) (guard: f1.taken and (f4.taken and p4.both)) (assignments: f1 := f1.available, f4 := f4.available, p4 := p4.neither)]
        Backward controlled-behavior: p1.both and f1.taken and (p3.left and (f4.available and p4.neither)) or (p1.both and f1.taken and (p3.left and (f4.taken and p4.left)) or p1.both and f1.taken and (p3.both and (f4.taken and p4.neither))) -> p1.right and f1.available and (p3.left and (f4.available and p4.neither)) or (p1.right and f1.available and (p3.left and (f4.taken and p4.left)) or p1.right and f1.available and (p3.both and (f4.taken and p4.neither))) or (p1.both and f1.taken and (p3.left and (f4.available and p4.neither)) or (p1.both and f1.taken and (p3.left and (f4.taken and p4.left)) or p1.both and f1.taken and (p3.both and (f4.taken and p4.neither)))) [backward reach using bounded saturation (transition: 13 of 20) (level: 9 of 24) with edge: (event: p1.take_left) (guard: p1.right and f1.available) (assignments: f1 := f1.taken, p1 := p1.both)]
        Backward controlled-behavior: f1.available and p3.left and (f4.available and p4.neither) or (f1.available and p3.left and (f4.taken and p4.left) or f1.available and p3.both and (f4.taken and p4.neither)) -> f1.available and p3.left and (f4.available and p4.neither) or f1.available and p3.left and (f4.taken and p4.left) or (f1.available and p3.both and (f4.taken and p4.neither) or f1.taken and p3.left and (f4.taken and p4.both)) [backward reach using bounded saturation (transition: 16 of 20) (level: 13 of 24) with edge: (event: p4.release_both) (guard: f1.taken and (f4.taken and p4.both)) (assignments: f1 := f1.available, f4 := f4.available, p4 := p4.neither)]
        Backward controlled-behavior: <bdd 26n 16p> -> <bdd 28n 17p> [backward reach using bounded saturation (transition: 11 of 20) (level: 7 of 24) with edge: (event: p3.release_both) (guard: f3.taken and (p3.both and f4.taken)) (assignments: f3 := f3.available, f4 := f4.available, p3 := p3.neither)]
        Backward controlled-behavior: <bdd 28n 17p> -> <bdd 27n 18p> [backward reach using bounded saturation (transition: 10 of 20) (level: 7 of 24) with edge: (event: p3.take_left) (guard: f3.available and p3.right) (assignments: f3 := f3.taken, p3 := p3.both)]
        Backward controlled-behavior: <bdd 37n 36p> -> <bdd 40n 45p> [backward reach using bounded saturation (transition: 3 of 20) (level: 1 of 24) with edge: (event: p2.release_both) (guard: p2.both and (f2.taken and f3.taken)) (assignments: f2 := f2.available, f3 := f3.available, p2 := p2.neither)]
        Backward controlled-behavior: <bdd 40n 45p> -> <bdd 42n 54p> [backward reach using bounded saturation (transition: 5 of 20) (level: 1 of 24) with edge: (event: p2.take_right) (guard: p2.left and f3.available) (assignments: f3 := f3.taken, p2 := p2.both)]
        Backward controlled-behavior: f3.available and (p1.neither and f1.available) and (p3.neither and (f4.available and p4.neither)) or f3.available and (p1.neither and f1.available) and (p3.neither and (f4.taken and p4.left)) or (f3.available and (p1.neither and f1.available) and (p3.right and (f4.taken and p4.neither)) or f3.available and (p1.neither and f1.taken) and (p3.neither and (f4.available and p4.right))) or (f3.available and (p1.neither and f1.taken) and (p3.neither and (f4.taken and p4.both)) or f3.available and (p1.neither and f1.taken) and (p3.right and (f4.taken and p4.right)) or (f3.available and (p1.left and f1.taken) and (p3.neither and (f4.available and p4.neither)) or (f3.available and (p1.left and f1.taken) and (p3.neither and (f4.taken and p4.left)) or f3.available and (p1.left and f1.taken) and (p3.right and (f4.taken and p4.neither))))) -> <bdd 29n 12p> [backward reach using bounded saturation (transition: 11 of 20) (level: 7 of 24) with edge: (event: p3.release_both) (guard: f3.taken and (p3.both and f4.taken)) (assignments: f3 := f3.available, f4 := f4.available, p3 := p3.neither)]
        Backward controlled-behavior: <bdd 48n 62p> -> <bdd 49n 71p> [backward reach using bounded saturation (transition: 2 of 20) (level: 1 of 24) with edge: (event: p2.take_left) (guard: p2.right and f2.available) (assignments: f2 := f2.taken, p2 := p2.both)]
        Backward controlled-behavior: <bdd 21n 9p> -> <bdd 24n 12p> [backward reach using bounded saturation (transition: 6 of 20) (level: 5 of 24) with edge: (event: p1.release_both) (guard: f2.taken and (p1.both and f1.taken)) (assignments: f1 := f1.available, f2 := f2.available, p1 := p1.neither)]

        Backward controlled-behavior: <bdd 55n 79p> [fixed point].

        Controlled behavior: true -> <bdd 55n 79p>.

    Computing backward uncontrolled bad-state predicate:
        Saturation matrix:
            No edges.

        Backward uncontrolled bad-state: <bdd 55n 245p> [current/previous controlled behavior predicate]

        Controlled behavior not changed.

    Computing forward controlled-behavior predicate:
        Saturation matrix:
                               /------------------------ 1  p2#0
                               |/----------------------- 2  p2#0+
                               ||/---------------------- 3  p2#1
                               |||/--------------------- 4  p2#1+
                               ||||/-------------------- 5  f2#0
                               |||||/------------------- 6  f2#0+
                               ||||||/------------------ 7  f3#0
                               |||||||/----------------- 8  f3#0+
                               ||||||||/---------------- 9  p1#0
                               |||||||||/--------------- 10 p1#0+
                               ||||||||||/-------------- 11 p1#1
                               |||||||||||/------------- 12 p1#1+
                               ||||||||||||/------------ 13 f1#0
                               |||||||||||||/----------- 14 f1#0+
                               ||||||||||||||/---------- 15 p3#0
                               |||||||||||||||/--------- 16 p3#0+
                               ||||||||||||||||/-------- 17 p3#1
                               |||||||||||||||||/------- 18 p3#1+
                               ||||||||||||||||||/------ 19 f4#0
                               |||||||||||||||||||/----- 20 f4#0+
                               ||||||||||||||||||||/---- 21 p4#0
                               |||||||||||||||||||||/--- 22 p4#0+
                               ||||||||||||||||||||||/-- 23 p4#1
                               |||||||||||||||||||||||/- 24 p4#1+
            1  p2.take_left    rwrwrw
            2  p2.take_left    rwrwrw
            3  p2.release_both rwrwrwrw
            4  p2.take_right   rwrw  rw
            5  p2.take_right   rwrw  rw
            6  p1.release_both     rw  rwrwrw
            7  p1.take_right       rw  rwrw
            8  p1.take_right       rw  rwrw
            9  p3.take_left          rw      rwrw
            10 p3.take_left          rw      rwrw
            11 p3.release_both       rw      rwrwrw
            12 p1.take_left            rwrwrw
            13 p1.take_left            rwrwrw
            14 p4.take_right               rw      rwrw
            15 p4.take_right               rw      rwrw
            16 p4.release_both             rw    rwrwrw
            17 p3.take_right                 rwrwrw
            18 p3.take_right                 rwrwrw
            19 p4.take_left                      rwrwrw
            20 p4.take_left                      rwrwrw

        Forward controlled-behavior: p2.neither and f2.available and (f3.available and p1.neither) and (f1.available and p3.neither and (f4.available and p4.neither)) [initialization predicate]
        Forward controlled-behavior: f4.available and p4.neither -> f4.available and p4.neither or f4.taken and p4.left [forward reach using bounded saturation (transition: 19 of 20) (level: 19 of 24) with edge: (event: p4.take_left) (guard: f4.available and p4.neither) (assignments: f4 := f4.taken, p4 := p4.left)]
        Forward controlled-behavior: p3.neither and (f4.available and p4.neither) or p3.neither and (f4.taken and p4.left) -> p3.neither and (f4.available and p4.neither) or (p3.neither and (f4.taken and p4.left) or p3.right and (f4.taken and p4.neither)) [forward reach using bounded saturation (transition: 17 of 20) (level: 15 of 24) with edge: (event: p3.take_right) (guard: p3.neither and f4.available) (assignments: f4 := f4.taken, p3 := p3.right)]
        Forward controlled-behavior: f1.available and p3.neither and (f4.available and p4.neither) or (f1.available and p3.neither and (f4.taken and p4.left) or f1.available and p3.right and (f4.taken and p4.neither)) -> f1.available and p3.neither and (f4.available and p4.neither) or f1.available and p3.neither and (f4.taken and p4.left) or (f1.available and p3.right and (f4.taken and p4.neither) or (f1.taken and p3.neither and (f4.available and p4.right) or f1.taken and p3.right and (f4.taken and p4.right))) [forward reach using bounded saturation (transition: 14 of 20) (level: 13 of 24) with edge: (event: p4.take_right) (guard: f1.available and p4.neither) (assignments: f1 := f1.taken, p4 := p4.right)]
        Forward controlled-behavior: f1.available and p3.neither and (f4.available and p4.neither) or f1.available and p3.neither and (f4.taken and p4.left) or (f1.available and p3.right and (f4.taken and p4.neither) or (f1.taken and p3.neither and (f4.available and p4.right) or f1.taken and p3.right and (f4.taken and p4.right))) -> f1.available and p3.neither and (f4.available and p4.neither) or (f1.available and p3.neither and (f4.taken and p4.left) or f1.available and p3.right and (f4.taken and p4.neither)) or (f1.taken and p3.neither and (f4.available and p4.right) or (f1.taken and p3.neither and (f4.taken and p4.both) or f1.taken and p3.right and (f4.taken and p4.right))) [forward reach using bounded saturation (transition: 15 of 20) (level: 13 of 24) with edge: (event: p4.take_right) (guard: f1.available and p4.left) (assignments: f1 := f1.taken, p4 := p4.both)]
        Forward controlled-behavior: p1.neither and f1.available and (p3.neither and (f4.available and p4.neither)) or (p1.neither and f1.available and (p3.neither and (f4.taken and p4.left)) or p1.neither and f1.available and (p3.right and (f4.taken and p4.neither))) or (p1.neither and f1.taken and (p3.neither and (f4.available and p4.right)) or (p1.neither and f1.taken and (p3.neither and (f4.taken and p4.both)) or p1.neither and f1.taken and (p3.right and (f4.taken and p4.right)))) -> p1.neither and f1.available and (p3.neither and (f4.available and p4.neither)) or p1.neither and f1.available and (p3.neither and (f4.taken and p4.left)) or (p1.neither and f1.available and (p3.right and (f4.taken and p4.neither)) or p1.neither and f1.taken and (p3.neither and (f4.available and p4.right))) or (p1.neither and f1.taken and (p3.neither and (f4.taken and p4.both)) or p1.neither and f1.taken and (p3.right and (f4.taken and p4.right)) or (p1.left and f1.taken and (p3.neither and (f4.available and p4.neither)) or (p1.left and f1.taken and (p3.neither and (f4.taken and p4.left)) or p1.left and f1.taken and (p3.right and (f4.taken and p4.neither))))) [forward reach using bounded saturation (transition: 12 of 20) (level: 9 of 24) with edge: (event: p1.take_left) (guard: p1.neither and f1.available) (assignments: f1 := f1.taken, p1 := p1.left)]
        Forward controlled-behavior: f3.available and (p1.neither and f1.available) and (p3.neither and (f4.available and p4.neither)) or f3.available and (p1.neither and f1.available) and (p3.neither and (f4.taken and p4.left)) or (f3.available and (p1.neither and f1.available) and (p3.right and (f4.taken and p4.neither)) or f3.available and (p1.neither and f1.taken) and (p3.neither and (f4.available and p4.right))) or (f3.available and (p1.neither and f1.taken) and (p3.neither and (f4.taken and p4.both)) or f3.available and (p1.neither and f1.taken) and (p3.right and (f4.taken and p4.right)) or (f3.available and (p1.left and f1.taken) and (p3.neither and (f4.available and p4.neither)) or (f3.available and (p1.left and f1.taken) and (p3.neither and (f4.taken and p4.left)) or f3.available and (p1.left and f1.taken) and (p3.right and (f4.taken and p4.neither))))) -> <bdd 29n 15p> [forward reach using bounded saturation (transition: 9 of 20) (level: 7 of 24) with edge: (event: p3.take_left) (guard: f3.available and p3.neither) (assignments: f3 := f3.taken, p3 := p3.left)]
        Forward controlled-behavior: <bdd 29n 15p> -> <bdd 27n 18p> [forward reach using bounded saturation (transition: 10 of 20) (level: 7 of 24) with edge: (event: p3.take_left) (guard: f3.available and p3.right) (assignments: f3 := f3.taken, p3 := p3.both)]
        Forward controlled-behavior: <bdd 28n 18p> -> <bdd 33n 30p> [forward reach using bounded saturation (transition: 7 of 20) (level: 5 of 24) with edge: (event: p1.take_right) (guard: f2.available and p1.neither) (assignments: f2 := f2.taken, p1 := p1.right)]
        Forward controlled-behavior: <bdd 33n 30p> -> <bdd 35n 36p> [forward reach using bounded saturation (transition: 8 of 20) (level: 5 of 24) with edge: (event: p1.take_right) (guard: f2.available and p1.left) (assignments: f2 := f2.taken, p1 := p1.both)]
        Forward controlled-behavior: <bdd 37n 36p> -> <bdd 46n 53p> [forward reach using bounded saturation (transition: 1 of 20) (level: 1 of 24) with edge: (event: p2.take_left) (guard: p2.neither and f2.available) (assignments: f2 := f2.taken, p2 := p2.left)]
        Forward controlled-behavior: <bdd 46n 53p> -> <bdd 54n 70p> [forward reach using bounded saturation (transition: 4 of 20) (level: 1 of 24) with edge: (event: p2.take_right) (guard: p2.neither and f3.available) (assignments: f3 := f3.taken, p2 := p2.right)]
        Forward controlled-behavior: <bdd 54n 70p> -> <bdd 55n 79p> [forward reach using bounded saturation (transition: 5 of 20) (level: 1 of 24) with edge: (event: p2.take_right) (guard: p2.left and f3.available) (assignments: f3 := f3.taken, p2 := p2.both)]

        Forward controlled-behavior: <bdd 55n 79p> [fixed point].

        Controlled behavior not changed.

    Finished: controlled behavior is stable.

Computing final controlled system guards:
    Edge (event: p1.take_left) (guard: p1.neither and f1.available) (assignments: f1 := f1.taken, p1 := p1.left): guard: p1.neither and f1.available -> <bdd 30n 17p>.
    Edge (event: p1.take_left) (guard: p1.right and f1.available) (assignments: f1 := f1.taken, p1 := p1.both): guard: p1.right and f1.available -> p2.neither and f2.taken and (f3.available and p1.right) and (f1.available and p3.neither and (f4.available and p4.neither)) or p2.neither and f2.taken and (f3.available and p1.right) and (f1.available and p3.neither and (f4.taken and p4.left)) or (p2.neither and f2.taken and (f3.available and p1.right) and (f1.available and p3.right and (f4.taken and p4.neither)) or p2.neither and f2.taken and (f3.taken and p1.right) and (f1.available and p3.left and (f4.available and p4.neither))) or (p2.neither and f2.taken and (f3.taken and p1.right) and (f1.available and p3.left and (f4.taken and p4.left)) or p2.neither and f2.taken and (f3.taken and p1.right) and (f1.available and p3.both and (f4.taken and p4.neither)) or (p2.right and f2.taken and (f3.taken and p1.right) and (f1.available and p3.neither and (f4.available and p4.neither)) or (p2.right and f2.taken and (f3.taken and p1.right) and (f1.available and p3.neither and (f4.taken and p4.left)) or p2.right and f2.taken and (f3.taken and p1.right) and (f1.available and p3.right and (f4.taken and p4.neither))))).
    Edge (event: p4.take_right) (guard: f1.available and p4.neither) (assignments: f1 := f1.taken, p4 := p4.right): guard: f1.available and p4.neither -> <bdd 33n 17p>.
    Edge (event: p4.take_right) (guard: f1.available and p4.left) (assignments: f1 := f1.taken, p4 := p4.both): guard: f1.available and p4.left -> <bdd 27n 9p>.
    Edge (event: p1.release_both) (guard: f2.taken and (p1.both and f1.taken)) (assignments: f1 := f1.available, f2 := f2.available, p1 := p1.neither): guard: f2.taken and (p1.both and f1.taken) -> p2.neither and f2.taken and (f3.available and p1.both) and (f1.taken and p3.neither and (f4.available and p4.neither)) or p2.neither and f2.taken and (f3.available and p1.both) and (f1.taken and p3.neither and (f4.taken and p4.left)) or (p2.neither and f2.taken and (f3.available and p1.both) and (f1.taken and p3.right and (f4.taken and p4.neither)) or p2.neither and f2.taken and (f3.taken and p1.both) and (f1.taken and p3.left and (f4.available and p4.neither))) or (p2.neither and f2.taken and (f3.taken and p1.both) and (f1.taken and p3.left and (f4.taken and p4.left)) or p2.neither and f2.taken and (f3.taken and p1.both) and (f1.taken and p3.both and (f4.taken and p4.neither)) or (p2.right and f2.taken and (f3.taken and p1.both) and (f1.taken and p3.neither and (f4.available and p4.neither)) or (p2.right and f2.taken and (f3.taken and p1.both) and (f1.taken and p3.neither and (f4.taken and p4.left)) or p2.right and f2.taken and (f3.taken and p1.both) and (f1.taken and p3.right and (f4.taken and p4.neither))))).
    Edge (event: p4.release_both) (guard: f1.taken and (f4.taken and p4.both)) (assignments: f1 := f1.available, f4 := f4.available, p4 := p4.neither): guard: f1.taken and (f4.taken and p4.both) -> <bdd 27n 9p>.
    Edge (event: p2.take_left) (guard: p2.neither and f2.available) (assignments: f2 := f2.taken, p2 := p2.left): guard: p2.neither and f2.available -> <bdd 33n 17p>.
    Edge (event: p2.take_left) (guard: p2.right and f2.available) (assignments: f2 := f2.taken, p2 := p2.both): guard: p2.right and f2.available -> <bdd 23n 9p>.
    Edge (event: p1.take_right) (guard: f2.available and p1.neither) (assignments: f2 := f2.taken, p1 := p1.right): guard: f2.available and p1.neither -> <bdd 33n 17p>.
    Edge (event: p1.take_right) (guard: f2.available and p1.left) (assignments: f2 := f2.taken, p1 := p1.both): guard: f2.available and p1.left -> p2.neither and f2.available and (f3.available and p1.left) and (f1.taken and p3.neither and (f4.available and p4.neither)) or p2.neither and f2.available and (f3.available and p1.left) and (f1.taken and p3.neither and (f4.taken and p4.left)) or (p2.neither and f2.available and (f3.available and p1.left) and (f1.taken and p3.right and (f4.taken and p4.neither)) or p2.neither and f2.available and (f3.taken and p1.left) and (f1.taken and p3.left and (f4.available and p4.neither))) or (p2.neither and f2.available and (f3.taken and p1.left) and (f1.taken and p3.left and (f4.taken and p4.left)) or p2.neither and f2.available and (f3.taken and p1.left) and (f1.taken and p3.both and (f4.taken and p4.neither)) or (p2.right and f2.available and (f3.taken and p1.left) and (f1.taken and p3.neither and (f4.available and p4.neither)) or (p2.right and f2.available and (f3.taken and p1.left) and (f1.taken and p3.neither and (f4.taken and p4.left)) or p2.right and f2.available and (f3.taken and p1.left) and (f1.taken and p3.right and (f4.taken and p4.neither))))).
    Edge (event: p2.release_both) (guard: p2.both and (f2.taken and f3.taken)) (assignments: f2 := f2.available, f3 := f3.available, p2 := p2.neither): guard: p2.both and (f2.taken and f3.taken) -> <bdd 23n 9p>.
    Edge (event: p3.take_left) (guard: f3.available and p3.neither) (assignments: f3 := f3.taken, p3 := p3.left): guard: f3.available and p3.neither -> <bdd 34n 17p>.
    Edge (event: p3.take_left) (guard: f3.available and p3.right) (assignments: f3 := f3.taken, p3 := p3.both): guard: f3.available and p3.right -> <bdd 25n 9p>.
    Edge (event: p2.take_right) (guard: p2.neither and f3.available) (assignments: f3 := f3.taken, p2 := p2.right): guard: p2.neither and f3.available -> <bdd 30n 17p>.
    Edge (event: p2.take_right) (guard: p2.left and f3.available) (assignments: f3 := f3.taken, p2 := p2.both): guard: p2.left and f3.available -> <bdd 23n 9p>.
    Edge (event: p3.release_both) (guard: f3.taken and (p3.both and f4.taken)) (assignments: f3 := f3.available, f4 := f4.available, p3 := p3.neither): guard: f3.taken and (p3.both and f4.taken) -> <bdd 25n 9p>.
    Edge (event: p4.take_left) (guard: f4.available and p4.neither) (assignments: f4 := f4.taken, p4 := p4.left): guard: f4.available and p4.neither -> <bdd 35n 17p>.
    Edge (event: p4.take_left) (guard: f4.available and p4.right) (assignments: f4 := f4.taken, p4 := p4.both): guard: f4.available and p4.right -> <bdd 27n 9p>.
    Edge (event: p3.take_right) (guard: p3.neither and f4.available) (assignments: f4 := f4.taken, p3 := p3.right): guard: p3.neither and f4.available -> <bdd 32n 17p>.
    Edge (event: p3.take_right) (guard: p3.left and f4.available) (assignments: f4 := f4.taken, p3 := p3.both): guard: p3.left and f4.available -> <bdd 25n 9p>.

Cleaning up cached predicate of edges that were used when applying edges.

Final synthesis result:
    State: (controlled-behavior: <bdd 55n 79p>)
        Edge: (event: p1.take_left) (guard: p1.neither and f1.available -> <bdd 30n 17p>) (assignments: f1 := f1.taken, p1 := p1.left)
        Edge: (event: p1.take_left) (guard: p1.right and f1.available -> p2.neither and f2.taken and (f3.available and p1.right) and (f1.available and p3.neither and (f4.available and p4.neither)) or p2.neither and f2.taken and (f3.available and p1.right) and (f1.available and p3.neither and (f4.taken and p4.left)) or (p2.neither and f2.taken and (f3.available and p1.right) and (f1.available and p3.right and (f4.taken and p4.neither)) or p2.neither and f2.taken and (f3.taken and p1.right) and (f1.available and p3.left and (f4.available and p4.neither))) or (p2.neither and f2.taken and (f3.taken and p1.right) and (f1.available and p3.left and (f4.taken and p4.left)) or p2.neither and f2.taken and (f3.taken and p1.right) and (f1.available and p3.both and (f4.taken and p4.neither)) or (p2.right and f2.taken and (f3.taken and p1.right) and (f1.available and p3.neither and (f4.available and p4.neither)) or (p2.right and f2.taken and (f3.taken and p1.right) and (f1.available and p3.neither and (f4.taken and p4.left)) or p2.right and f2.taken and (f3.taken and p1.right) and (f1.available and p3.right and (f4.taken and p4.neither)))))) (assignments: f1 := f1.taken, p1 := p1.both)
        Edge: (event: p4.take_right) (guard: f1.available and p4.neither -> <bdd 33n 17p>) (assignments: f1 := f1.taken, p4 := p4.right)
        Edge: (event: p4.take_right) (guard: f1.available and p4.left -> <bdd 27n 9p>) (assignments: f1 := f1.taken, p4 := p4.both)
        Edge: (event: p1.release_both) (guard: f2.taken and (p1.both and f1.taken) -> p2.neither and f2.taken and (f3.available and p1.both) and (f1.taken and p3.neither and (f4.available and p4.neither)) or p2.neither and f2.taken and (f3.available and p1.both) and (f1.taken and p3.neither and (f4.taken and p4.left)) or (p2.neither and f2.taken and (f3.available and p1.both) and (f1.taken and p3.right and (f4.taken and p4.neither)) or p2.neither and f2.taken and (f3.taken and p1.both) and (f1.taken and p3.left and (f4.available and p4.neither))) or (p2.neither and f2.taken and (f3.taken and p1.both) and (f1.taken and p3.left and (f4.taken and p4.left)) or p2.neither and f2.taken and (f3.taken and p1.both) and (f1.taken and p3.both and (f4.taken and p4.neither)) or (p2.right and f2.taken and (f3.taken and p1.both) and (f1.taken and p3.neither and (f4.available and p4.neither)) or (p2.right and f2.taken and (f3.taken and p1.both) and (f1.taken and p3.neither and (f4.taken and p4.left)) or p2.right and f2.taken and (f3.taken and p1.both) and (f1.taken and p3.right and (f4.taken and p4.neither)))))) (assignments: f1 := f1.available, f2 := f2.available, p1 := p1.neither)
        Edge: (event: p4.release_both) (guard: f1.taken and (f4.taken and p4.both) -> <bdd 27n 9p>) (assignments: f1 := f1.available, f4 := f4.available, p4 := p4.neither)
        Edge: (event: p2.take_left) (guard: p2.neither and f2.available -> <bdd 33n 17p>) (assignments: f2 := f2.taken, p2 := p2.left)
        Edge: (event: p2.take_left) (guard: p2.right and f2.available -> <bdd 23n 9p>) (assignments: f2 := f2.taken, p2 := p2.both)
        Edge: (event: p1.take_right) (guard: f2.available and p1.neither -> <bdd 33n 17p>) (assignments: f2 := f2.taken, p1 := p1.right)
        Edge: (event: p1.take_right) (guard: f2.available and p1.left -> p2.neither and f2.available and (f3.available and p1.left) and (f1.taken and p3.neither and (f4.available and p4.neither)) or p2.neither and f2.available and (f3.available and p1.left) and (f1.taken and p3.neither and (f4.taken and p4.left)) or (p2.neither and f2.available and (f3.available and p1.left) and (f1.taken and p3.right and (f4.taken and p4.neither)) or p2.neither and f2.available and (f3.taken and p1.left) and (f1.taken and p3.left and (f4.available and p4.neither))) or (p2.neither and f2.available and (f3.taken and p1.left) and (f1.taken and p3.left and (f4.taken and p4.left)) or p2.neither and f2.available and (f3.taken and p1.left) and (f1.taken and p3.both and (f4.taken and p4.neither)) or (p2.right and f2.available and (f3.taken and p1.left) and (f1.taken and p3.neither and (f4.available and p4.neither)) or (p2.right and f2.available and (f3.taken and p1.left) and (f1.taken and p3.neither and (f4.taken and p4.left)) or p2.right and f2.available and (f3.taken and p1.left) and (f1.taken and p3.right and (f4.taken and p4.neither)))))) (assignments: f2 := f2.taken, p1 := p1.both)
        Edge: (event: p2.release_both) (guard: p2.both and (f2.taken and f3.taken) -> <bdd 23n 9p>) (assignments: f2 := f2.available, f3 := f3.available, p2 := p2.neither)
        Edge: (event: p3.take_left) (guard: f3.available and p3.neither -> <bdd 34n 17p>) (assignments: f3 := f3.taken, p3 := p3.left)
        Edge: (event: p3.take_left) (guard: f3.available and p3.right -> <bdd 25n 9p>) (assignments: f3 := f3.taken, p3 := p3.both)
        Edge: (event: p2.take_right) (guard: p2.neither and f3.available -> <bdd 30n 17p>) (assignments: f3 := f3.taken, p2 := p2.right)
        Edge: (event: p2.take_right) (guard: p2.left and f3.available -> <bdd 23n 9p>) (assignments: f3 := f3.taken, p2 := p2.both)
        Edge: (event: p3.release_both) (guard: f3.taken and (p3.both and f4.taken) -> <bdd 25n 9p>) (assignments: f3 := f3.available, f4 := f4.available, p3 := p3.neither)
        Edge: (event: p4.take_left) (guard: f4.available and p4.neither -> <bdd 35n 17p>) (assignments: f4 := f4.taken, p4 := p4.left)
        Edge: (event: p4.take_left) (guard: f4.available and p4.right -> <bdd 27n 9p>) (assignments: f4 := f4.taken, p4 := p4.both)
        Edge: (event: p3.take_right) (guard: p3.neither and f4.available -> <bdd 32n 17p>) (assignments: f4 := f4.taken, p3 := p3.right)
        Edge: (event: p3.take_right) (guard: p3.left and f4.available -> <bdd 25n 9p>) (assignments: f4 := f4.taken, p3 := p3.both)

Computing initialization predicate of the controlled system.

Controlled system: exactly 79 states.

Determining initialization predicate for output model:
    Initial (synthesis result):            <bdd 55n 79p>
    Initial (uncontrolled system):         p2.neither and f2.available and (f3.available and p1.neither) and (f1.available and p3.neither and (f4.available and p4.neither))
    Initial (controlled system):           p2.neither and f2.available and (f3.available and p1.neither) and (f1.available and p3.neither and (f4.available and p4.neither))
    Initial (removed by supervisor):       false
    Initial (added by supervisor):         true

    Initial (output model):                n/a

Determining supervisor guards for output model:
    Event p1.take_left: guard: <bdd 36n 26p>.
    Event p4.take_right: guard: <bdd 34n 26p>.
    Event p1.release_both: guard: p2.neither and f2.taken and (f3.available and p1.both) and (f1.taken and p3.neither and (f4.available and p4.neither)) or p2.neither and f2.taken and (f3.available and p1.both) and (f1.taken and p3.neither and (f4.taken and p4.left)) or (p2.neither and f2.taken and (f3.available and p1.both) and (f1.taken and p3.right and (f4.taken and p4.neither)) or p2.neither and f2.taken and (f3.taken and p1.both) and (f1.taken and p3.left and (f4.available and p4.neither))) or (p2.neither and f2.taken and (f3.taken and p1.both) and (f1.taken and p3.left and (f4.taken and p4.left)) or p2.neither and f2.taken and (f3.taken and p1.both) and (f1.taken and p3.both and (f4.taken and p4.neither)) or (p2.right and f2.taken and (f3.taken and p1.both) and (f1.taken and p3.neither and (f4.available and p4.neither)) or (p2.right and f2.taken and (f3.taken and p1.both) and (f1.taken and p3.neither and (f4.taken and p4.left)) or p2.right and f2.taken and (f3.taken and p1.both) and (f1.taken and p3.right and (f4.taken and p4.neither))))).
    Event p4.release_both: guard: <bdd 27n 9p>.
    Event p2.take_left: guard: <bdd 35n 26p>.
    Event p1.take_right: guard: <bdd 37n 26p>.
    Event p2.release_both: guard: <bdd 23n 9p>.
    Event p3.take_left: guard: <bdd 36n 26p>.
    Event p2.take_right: guard: <bdd 32n 26p>.
    Event p3.release_both: guard: <bdd 25n 9p>.
    Event p4.take_left: guard: <bdd 41n 26p>.
    Event p3.take_right: guard: <bdd 42n 26p>.

Checking post-synthesis for events that are never enabled.

Simplifying supervisor guards for output model:
    Simplification under the assumption of the plants, requirement automata, state/event exclusion plant invariants, state/event exclusion requirement invariants, state plant invariants, state requirement invariants, and controlled behavior.

    Event p1.take_left: guard: <bdd 36n 26p> -> not p2.left or f3.available or (p3.right or (p3.both or f4.available)) [assume <bdd 29n 27p>].
    Event p4.take_right: guard: <bdd 34n 26p> -> not p2.right or f2.available or (p3.neither or p3.left) [assume <bdd 29n 27p>].
    Event p1.release_both: guard: p2.neither and f2.taken and (f3.available and p1.both) and (f1.taken and p3.neither and (f4.available and p4.neither)) or p2.neither and f2.taken and (f3.available and p1.both) and (f1.taken and p3.neither and (f4.taken and p4.left)) or (p2.neither and f2.taken and (f3.available and p1.both) and (f1.taken and p3.right and (f4.taken and p4.neither)) or p2.neither and f2.taken and (f3.taken and p1.both) and (f1.taken and p3.left and (f4.available and p4.neither))) or (p2.neither and f2.taken and (f3.taken and p1.both) and (f1.taken and p3.left and (f4.taken and p4.left)) or p2.neither and f2.taken and (f3.taken and p1.both) and (f1.taken and p3.both and (f4.taken and p4.neither)) or (p2.right and f2.taken and (f3.taken and p1.both) and (f1.taken and p3.neither and (f4.available and p4.neither)) or (p2.right and f2.taken and (f3.taken and p1.both) and (f1.taken and p3.neither and (f4.taken and p4.left)) or p2.right and f2.taken and (f3.taken and p1.both) and (f1.taken and p3.right and (f4.taken and p4.neither))))) -> true [assume p2.neither and f2.taken and (f3.available and p1.both) and (f1.taken and p3.neither and (f4.available and p4.neither)) or p2.neither and f2.taken and (f3.available and p1.both) and (f1.taken and p3.neither and (f4.taken and p4.left)) or (p2.neither and f2.taken and (f3.available and p1.both) and (f1.taken and p3.right and (f4.taken and p4.neither)) or p2.neither and f2.taken and (f3.taken and p1.both) and (f1.taken and p3.left and (f4.available and p4.neither))) or (p2.neither and f2.taken and (f3.taken and p1.both) and (f1.taken and p3.left and (f4.taken and p4.left)) or p2.neither and f2.taken and (f3.taken and p1.both) and (f1.taken and p3.both and (f4.taken and p4.neither)) or (p2.right and f2.taken and (f3.taken and p1.both) and (f1.taken and p3.neither and (f4.available and p4.neither)) or (p2.right and f2.taken and (f3.taken and p1.both) and (f1.taken and p3.neither and (f4.taken and p4.left)) or p2.right and f2.taken and (f3.taken and p1.both) and (f1.taken and p3.right and (f4.taken and p4.neither)))))].
    Event p4.release_both: guard: <bdd 27n 9p> -> true [assume <bdd 27n 9p>].
    Event p2.take_left: guard: <bdd 35n 26p> -> p2.right or p2.both or (f3.available or p1.neither) or (p1.right or p3.right or (p3.both or f4.available)) [assume <bdd 32n 27p>].
    Event p1.take_right: guard: <bdd 37n 26p> -> p2.neither or (p2.left or p1.left) or (p1.both or f1.available or (p3.neither or p3.left)) [assume <bdd 32n 27p>].
    Event p2.release_both: guard: <bdd 23n 9p> -> true [assume <bdd 23n 9p>].
    Event p3.take_left: guard: <bdd 36n 26p> -> p2.neither or (p2.right or p1.neither) or (p1.right or p3.right or (p3.both or f4.available)) [assume <bdd 29n 27p>].
    Event p2.take_right: guard: <bdd 32n 26p> -> p2.left or p2.both or (f2.available or p1.left) or (p1.both or f1.available or (p3.neither or p3.left)) [assume <bdd 29n 27p>].
    Event p3.release_both: guard: <bdd 25n 9p> -> true [assume <bdd 25n 9p>].
    Event p4.take_left: guard: <bdd 41n 26p> -> not p2.left or f3.available or (p1.neither or p1.right) [assume <bdd 39n 27p>].
    Event p3.take_right: guard: <bdd 42n 26p> -> not p2.right or f2.available or (p1.left or (p1.both or f1.available)) [assume <bdd 39n 27p>].

Constructing output CIF specification.

Checking output CIF specification.

Writing output CIF file "datasynth/dining_philosophers4.ctrlsys.real.cif".
