Reading CIF file "datasynth/fixed_point_order_nonblock_ctrl_reach.cif".

Preprocessing CIF specification (includes checking that the specification is supported).

Converting CIF specification to internal format (BDDs):
    CIF variables and location pointers:
        Nr     Kind               Type       Name  Group  BDD vars  CIF values  BDD values  Values used
        -----  -----------------  ---------  ----  -----  --------  ----------  ----------  -----------
        1      location pointer   n/a        p     0      3 * 2     5 * 2       8 * 2       ~63%
        2      discrete variable  int[0..3]  p.x   1      2 * 2     4 * 2       4 * 2       100%
        3      discrete variable  int[0..3]  p.y   2      2 * 2     4 * 2       4 * 2       100%
        -----  -----------------  ---------  ----  -----  --------  ----------  ----------  -----------
        Total                                      3      14        26          32          ~81%

    Applying variable ordering:
        Applying 4 orderers, sequentially:
            Applying model variable order:
                Effect: both

            Applying DCSH algorithm:
                Metric: wes
                Relations: legacy
                Effect: var-order
                Number of hyper-edges: 16

                Applying Weighted Cuthill-McKee algorithm:
                    Node finder: george-liu
                    Relations: legacy
                    Effect: var-order
                    Number of graph edges: 2

                    Total span:   6 (total)   0.38 (avg/edge) / WES:   0.472222 (total)   0.029514 (avg/edge) [before]
                    Total span:   4 (total)   0.25 (avg/edge) / WES:   0.333333 (total)   0.020833 (avg/edge) [after]

                Found new best variable order.

                Applying Sloan algorithm:
                    Relations: legacy
                    Effect: var-order
                    Number of graph edges: 2

                    Total span:   6 (total)   0.38 (avg/edge) / WES:   0.472222 (total)   0.029514 (avg/edge) [before]
                    Total span:   4 (total)   0.25 (avg/edge) / WES:   0.333333 (total)   0.020833 (avg/edge) [after]

                Applying 2 orderers, sequentially:
                    Applying Weighted Cuthill-McKee algorithm:
                        Node finder: george-liu
                        Relations: legacy
                        Effect: var-order
                        Number of graph edges: 2

                        Total span:   6 (total)   0.38 (avg/edge) / WES:   0.472222 (total)   0.029514 (avg/edge) [before]
                        Total span:   4 (total)   0.25 (avg/edge) / WES:   0.333333 (total)   0.020833 (avg/edge) [after]

                    Reversing the variable order:
                        Relations: legacy
                        Effect: var-order
                        Number of hyper-edges: 16

                        Total span:   4 (total)   0.25 (avg/edge) / WES:   0.333333 (total)   0.020833 (avg/edge) [before]
                        Total span:   4 (total)   0.25 (avg/edge) / WES:   0.333333 (total)   0.020833 (avg/edge) [reversed]

                Applying 2 orderers, sequentially:
                    Applying Sloan algorithm:
                        Relations: legacy
                        Effect: var-order
                        Number of graph edges: 2

                        Total span:   6 (total)   0.38 (avg/edge) / WES:   0.472222 (total)   0.029514 (avg/edge) [before]
                        Total span:   4 (total)   0.25 (avg/edge) / WES:   0.333333 (total)   0.020833 (avg/edge) [after]

                    Reversing the variable order:
                        Relations: legacy
                        Effect: var-order
                        Number of hyper-edges: 16

                        Total span:   4 (total)   0.25 (avg/edge) / WES:   0.333333 (total)   0.020833 (avg/edge) [before]
                        Total span:   4 (total)   0.25 (avg/edge) / WES:   0.333333 (total)   0.020833 (avg/edge) [reversed]

            Applying FORCE algorithm:
                Metric: total-span
                Relations: linearized
                Effect: var-order
                Number of hyper-edges: 8
                Maximum number of iterations: 20

                Total span:    8 (total)   1.00 (avg/edge) / WES:   0.666667 (total)   0.083333 (avg/edge) [before]
                Total span:    8 (total)   1.00 (avg/edge) / WES:   0.666667 (total)   0.083333 (avg/edge) [iteration 1]
                Total span:    8 (total)   1.00 (avg/edge) / WES:   0.666667 (total)   0.083333 (avg/edge) [after]

            Applying sliding window algorithm:
                Size: 4
                Metric: total-span
                Relations: linearized
                Effect: var-order
                Number of hyper-edges: 8
                Window length: 3

                Total span:    8 (total)   1.00 (avg/edge) / WES:   0.666667 (total)   0.083333 (avg/edge) [before]
                Total span:    8 (total)   1.00 (avg/edge) / WES:   0.666667 (total)   0.083333 (avg/edge) [after]

    Variable order changed.

    CIF variables and location pointers:
        Nr     Kind               Type       Name  Group  BDD vars  CIF values  BDD values  Values used
        -----  -----------------  ---------  ----  -----  --------  ----------  ----------  -----------
        1      discrete variable  int[0..3]  p.x   0      2 * 2     4 * 2       4 * 2       100%
        2      location pointer   n/a        p     1      3 * 2     5 * 2       8 * 2       ~63%
        3      discrete variable  int[0..3]  p.y   2      2 * 2     4 * 2       4 * 2       100%
        -----  -----------------  ---------  ----  -----  --------  ----------  ----------  -----------
        Total                                      3      14        26          32          ~81%

Starting data-based synthesis.

Synthesis input:
    Invariant (components state plant inv):      true
    Invariant (locations state plant invariant): true
    Invariant (system state plant invariant):    true

    Invariant (components state req invariant):  true
    Invariant (locations state req invariant):   true
    Invariant (system state req invariant):      true

    Initial   (discrete variable 0):             true
    Initial   (discrete variable 2):             p.y = 0
    Initial   (discrete variables):              p.y = 0
    Initial   (components init predicate):       true
    Initial   (aut/locs init predicate):         p.l1
    Initial   (auts/locs init predicate):        p.l1
    Initial   (uncontrolled system):             p.l1 and p.y = 0
    Initial   (system, combined init/plant inv): p.l1 and p.y = 0
    Initial   (system, combined init/state inv): p.l1 and p.y = 0

    Marked    (components marker predicate):     true
    Marked    (aut/locs marker predicate):       p.l5 and p.y = 1
    Marked    (auts/locs marker predicate):      p.l5 and p.y = 1
    Marked    (uncontrolled system):             p.l5 and p.y = 1
    Marked    (system, combined mark/plant inv): p.l5 and p.y = 1
    Marked    (system, combined mark/state inv): p.l5 and p.y = 1

    State/event exclusion plants:
        None

    State/event exclusion requirements:
        None

    Uncontrolled system:
        State: (controlled-behavior: ?)
            Edge: (event: p.c1) (guard: (p.x = 0 or p.x = 2) and p.l1 or p.x = 1 and p.l1) (assignments: p.x := p.x + 1)
            Edge: (event: p.c1) (guard: p.x = 3 and p.l1) (assignments: p := p.l2)
            Edge: (event: p.u2) (guard: (p.l2 or p.l4) and ((not p.l2 or p.y != 3) and not p.l4)) (assignments: p.y := p.y + 1)
            Edge: (event: p.u2) (guard: p.l2 and p.y = 3) (assignments: p := p.l3)
            Edge: (event: p.c3) (guard: (p.x = 2 or p.x = 3) and p.l3) (assignments: p.x := p.x - 1)
            Edge: (event: p.c3) (guard: p.x = 1 and p.l3) (assignments: p := p.l4)
            Edge: (event: p.u4) (guard: p.l4 and (p.y = 2 or p.y = 3)) (assignments: p.y := p.y - 1)
            Edge: (event: p.u4) (guard: p.l4 and p.y = 1) (assignments: p := p.l5)

Checking input for potential problems.

Restricting edge guards to prevent runtime errors:
    No guards changed.

Restricting uncontrolled system behavior using state/event exclusion plant invariants:
    No guards changed.

Initializing edges for being applied.

Restricting uncontrolled system behavior using state plant invariants:
    No restrictions needed.

Initializing controlled behavior:
    Controlled-behavior predicate: true.
    Controlled-initialization predicate: p.l1 and p.y = 0.

Restricting behavior using state requirements:
    Controlled behavior not changed.

Extending controlled-behavior predicate using variable ranges:
    Controlled behavior: true -> true [range: true, variable: location pointer for automaton "p" (group: 1, domain: 2+3, BDD variables: 3, CIF/BDD values: 5/8)].

    Extended controlled-behavior predicate using variable ranges: true.

Restricting behavior using state/event exclusion requirements:
    Guards and controlled behavior not changed.

Restricting behavior using implicit runtime error requirements:
    Controlled behavior not changed.

Re-initializing edges for being applied.

Checking pre-synthesis for events that are never enabled.

Synthesis round 1:
    Computing backward controlled-behavior predicate:
        Saturation matrix:
                   /-------------- 1  p.x#0
                   |/------------- 2  p.x#0+
                   ||/------------ 3  p.x#1
                   |||/----------- 4  p.x#1+
                   ||||/---------- 5  p#0
                   |||||/--------- 6  p#0+
                   ||||||/-------- 7  p#1
                   |||||||/------- 8  p#1+
                   ||||||||/------ 9  p#2
                   |||||||||/----- 10 p#2+
                   ||||||||||/---- 11 p.y#0
                   |||||||||||/--- 12 p.y#0+
                   ||||||||||||/-- 13 p.y#1
                   |||||||||||||/- 14 p.y#1+
            1 p.c1 rwrwr r r
            2 p.c1 r r rwrwrw
            3 p.c3 rwrwr r r
            4 p.c3 r r rwrwrw
            5 p.u2     r r r rwrw
            6 p.u2     rwrwrwr r
            7 p.u4     r r r rwrw
            8 p.u4     rwrwrwr r

        Backward controlled-behavior: p.l5 and p.y = 1 [marker predicate]
        Backward controlled-behavior: p.l5 and p.y = 1 -> p.l5 and p.y = 1 or p.l4 and p.y = 1 [backward reach using bounded saturation (transition: 8 of 8) (level: 5 of 14) with edge: (event: p.u4) (guard: p.l4 and p.y = 1) (assignments: p := p.l5)]
        Backward controlled-behavior: p.l5 and p.y = 1 or p.l4 and p.y = 1 -> p.l5 and p.y = 1 or (p.l4 and p.y = 2 or p.l4 and p.y = 1) [backward reach using bounded saturation (transition: 7 of 8) (level: 5 of 14) with edge: (event: p.u4) (guard: p.l4 and (p.y = 2 or p.y = 3)) (assignments: p.y := p.y - 1)]
        Backward controlled-behavior: p.l5 and p.y = 1 or (p.l4 and p.y = 2 or p.l4 and p.y = 1) -> p.l5 and p.y = 1 or (p.l4 and p.y = 2 or p.l4 and (p.y = 1 or p.y = 3)) [backward reach using bounded saturation (transition: 7 of 8) (level: 5 of 14) with edge: (event: p.u4) (guard: p.l4 and (p.y = 2 or p.y = 3)) (assignments: p.y := p.y - 1)]
        Backward controlled-behavior: p.l5 and p.y = 1 or (p.l4 and p.y = 2 or p.l4 and (p.y = 1 or p.y = 3)) -> (p.x = 0 or p.x = 2) and (p.l5 and p.y = 1) or (p.x = 0 or p.x = 2) and (p.l4 and p.y = 2) or ((p.x = 0 or p.x = 2) and (p.l4 and (p.y = 1 or p.y = 3)) or (p.x = 1 and (p.l5 and p.y = 1) or p.x = 1 and (p.l3 and p.y = 2))) or (p.x = 1 and (p.l3 and (p.y = 1 or p.y = 3)) or (p.x = 1 and (p.l4 and p.y = 2) or p.x = 1 and (p.l4 and (p.y = 1 or p.y = 3))) or (p.x = 3 and (p.l5 and p.y = 1) or (p.x = 3 and (p.l4 and p.y = 2) or p.x = 3 and (p.l4 and (p.y = 1 or p.y = 3))))) [backward reach using bounded saturation (transition: 4 of 8) (level: 1 of 14) with edge: (event: p.c3) (guard: p.x = 1 and p.l3) (assignments: p := p.l4)]
        Backward controlled-behavior: not p.l1 and ((not p.l5 or (p.y = 1 or p.y = 3)) and (not p.l5 or p.y != 3)) and ((not p.l3 or p.y != 0) and (not p.l2 and (not p.l4 or p.y != 0))) -> p.l5 and p.y = 1 or (p.l3 and p.y = 2 or p.l3 and (p.y = 1 or p.y = 3)) or (p.l2 and p.y = 3 or (p.l4 and p.y = 2 or p.l4 and (p.y = 1 or p.y = 3))) [backward reach using bounded saturation (transition: 6 of 8) (level: 5 of 14) with edge: (event: p.u2) (guard: p.l2 and p.y = 3) (assignments: p := p.l3)]
        Backward controlled-behavior: p.l5 and p.y = 1 or (p.l3 and p.y = 2 or p.l3 and (p.y = 1 or p.y = 3)) or (p.l2 and p.y = 3 or (p.l4 and p.y = 2 or p.l4 and (p.y = 1 or p.y = 3))) -> not p.l1 and ((not p.l5 or (p.y = 1 or p.y = 3)) and (not p.l5 or p.y != 3)) and ((not p.l3 or p.y != 0) and ((not p.l2 or (p.y = 2 or p.y = 3)) and (not p.l4 or p.y != 0))) [backward reach using bounded saturation (transition: 5 of 8) (level: 5 of 14) with edge: (event: p.u2) (guard: (p.l2 or p.l4) and ((not p.l2 or p.y != 3) and not p.l4)) (assignments: p.y := p.y + 1)]
        Backward controlled-behavior: not p.l1 and ((not p.l5 or (p.y = 1 or p.y = 3)) and (not p.l5 or p.y != 3)) and ((not p.l3 or p.y != 0) and ((not p.l2 or (p.y = 2 or p.y = 3)) and (not p.l4 or p.y != 0))) -> not p.l1 and (not p.l5 or (p.y = 1 or p.y = 3)) and ((not p.l5 or p.y != 3) and ((not p.l3 or p.y != 0) and (not p.l2 and not p.l4 or p.y != 0))) [backward reach using bounded saturation (transition: 5 of 8) (level: 5 of 14) with edge: (event: p.u2) (guard: (p.l2 or p.l4) and ((not p.l2 or p.y != 3) and not p.l4)) (assignments: p.y := p.y + 1)]
        Backward controlled-behavior: not p.l1 and (not p.l5 or (p.y = 1 or p.y = 3)) and ((not p.l5 or p.y != 3) and ((not p.l3 or p.y != 0) and (not p.l2 and not p.l4 or p.y != 0))) -> not p.l1 and (not p.l5 or (p.y = 1 or p.y = 3)) and ((not p.l5 or p.y != 3) and ((not p.l3 or p.y != 0) and (not p.l4 or p.y != 0))) [backward reach using bounded saturation (transition: 5 of 8) (level: 5 of 14) with edge: (event: p.u2) (guard: (p.l2 or p.l4) and ((not p.l2 or p.y != 3) and not p.l4)) (assignments: p.y := p.y + 1)]
        Backward controlled-behavior: (p.x = 0 or p.x = 2) and (p.l5 and p.y = 1) or ((p.x = 0 or p.x = 2) and (p.l4 and p.y = 2) or (p.x = 0 or p.x = 2) and (p.l4 and (p.y = 1 or p.y = 3))) or (p.x = 1 and (p.l5 and p.y = 1) or (p.x = 1 and (p.l3 and p.y = 2) or p.x = 1 and (p.l3 and (p.y = 1 or p.y = 3)))) or (p.x = 1 and p.l2 or (p.x = 1 and (p.l4 and p.y = 2) or p.x = 1 and (p.l4 and (p.y = 1 or p.y = 3))) or (p.x = 3 and (p.l5 and p.y = 1) or (p.x = 3 and (p.l4 and p.y = 2) or p.x = 3 and (p.l4 and (p.y = 1 or p.y = 3))))) -> p.x = 0 and (p.l5 and p.y = 1) or p.x = 0 and (p.l4 and p.y = 2) or (p.x = 0 and (p.l4 and (p.y = 1 or p.y = 3)) or p.x = 2 and (p.l5 and p.y = 1)) or (p.x = 2 and (p.l3 and p.y = 2) or p.x = 2 and (p.l3 and (p.y = 1 or p.y = 3)) or (p.x = 2 and (p.l4 and p.y = 2) or p.x = 2 and (p.l4 and (p.y = 1 or p.y = 3)))) or (p.x = 1 and (p.l5 and p.y = 1) or p.x = 1 and (p.l3 and p.y = 2) or (p.x = 1 and (p.l3 and (p.y = 1 or p.y = 3)) or p.x = 1 and p.l2) or (p.x = 1 and (p.l4 and p.y = 2) or p.x = 1 and (p.l4 and (p.y = 1 or p.y = 3)) or (p.x = 3 and (p.l5 and p.y = 1) or (p.x = 3 and (p.l4 and p.y = 2) or p.x = 3 and (p.l4 and (p.y = 1 or p.y = 3)))))) [backward reach using bounded saturation (transition: 3 of 8) (level: 1 of 14) with edge: (event: p.c3) (guard: (p.x = 2 or p.x = 3) and p.l3) (assignments: p.x := p.x - 1)]
        Backward controlled-behavior: p.x = 0 and (p.l5 and p.y = 1) or p.x = 0 and (p.l4 and p.y = 2) or (p.x = 0 and (p.l4 and (p.y = 1 or p.y = 3)) or p.x = 2 and (p.l5 and p.y = 1)) or (p.x = 2 and (p.l3 and p.y = 2) or p.x = 2 and (p.l3 and (p.y = 1 or p.y = 3)) or (p.x = 2 and p.l2 or (p.x = 2 and (p.l4 and p.y = 2) or p.x = 2 and (p.l4 and (p.y = 1 or p.y = 3))))) or (p.x = 1 and (p.l5 and p.y = 1) or p.x = 1 and (p.l3 and p.y = 2) or (p.x = 1 and (p.l3 and (p.y = 1 or p.y = 3)) or p.x = 1 and p.l2) or (p.x = 1 and (p.l4 and p.y = 2) or p.x = 1 and (p.l4 and (p.y = 1 or p.y = 3)) or (p.x = 3 and (p.l5 and p.y = 1) or (p.x = 3 and (p.l4 and p.y = 2) or p.x = 3 and (p.l4 and (p.y = 1 or p.y = 3)))))) -> p.x = 0 and (p.l5 and p.y = 1) or p.x = 0 and (p.l4 and p.y = 2) or (p.x = 0 and (p.l4 and (p.y = 1 or p.y = 3)) or (p.x = 2 and (p.l5 and p.y = 1) or p.x = 2 and (p.l3 and p.y = 2))) or (p.x = 2 and (p.l3 and (p.y = 1 or p.y = 3)) or p.x = 2 and p.l2 or (p.x = 2 and (p.l4 and p.y = 2) or (p.x = 2 and (p.l4 and (p.y = 1 or p.y = 3)) or p.x = 1 and (p.l5 and p.y = 1)))) or (p.x = 1 and (p.l3 and p.y = 2) or p.x = 1 and (p.l3 and (p.y = 1 or p.y = 3)) or (p.x = 1 and p.l2 or (p.x = 1 and (p.l4 and p.y = 2) or p.x = 1 and (p.l4 and (p.y = 1 or p.y = 3)))) or (p.x = 3 and (p.l5 and p.y = 1) or p.x = 3 and (p.l3 and p.y = 2) or (p.x = 3 and (p.l3 and (p.y = 1 or p.y = 3)) or (p.x = 3 and (p.l4 and p.y = 2) or p.x = 3 and (p.l4 and (p.y = 1 or p.y = 3)))))) [backward reach using bounded saturation (transition: 3 of 8) (level: 1 of 14) with edge: (event: p.c3) (guard: (p.x = 2 or p.x = 3) and p.l3) (assignments: p.x := p.x - 1)]
        Backward controlled-behavior: p.x = 0 and (p.l5 and p.y = 1) or (p.x = 0 and (p.l4 and p.y = 2) or p.x = 0 and (p.l4 and (p.y = 1 or p.y = 3))) or (p.x = 2 and (p.l5 and p.y = 1) or p.x = 2 and (p.l3 and p.y = 2) or (p.x = 2 and (p.l3 and (p.y = 1 or p.y = 3)) or p.x = 2 and p.l2)) or (p.x = 2 and (p.l4 and p.y = 2) or p.x = 2 and (p.l4 and (p.y = 1 or p.y = 3)) or ((p.x = 1 or p.x = 3) and (p.l5 and p.y = 1) or (p.x = 1 or p.x = 3) and (p.l3 and p.y = 2)) or ((p.x = 1 or p.x = 3) and (p.l3 and (p.y = 1 or p.y = 3)) or (p.x = 1 or p.x = 3) and p.l2 or ((p.x = 1 or p.x = 3) and (p.l4 and p.y = 2) or (p.x = 1 or p.x = 3) and (p.l4 and (p.y = 1 or p.y = 3))))) -> <bdd 19n 22p> [backward reach using bounded saturation (transition: 2 of 8) (level: 1 of 14) with edge: (event: p.c1) (guard: p.x = 3 and p.l1) (assignments: p := p.l2)]
        Backward controlled-behavior: <bdd 19n 22p> -> <bdd 19n 23p> [backward reach using bounded saturation (transition: 1 of 8) (level: 1 of 14) with edge: (event: p.c1) (guard: (p.x = 0 or p.x = 2) and p.l1 or p.x = 1 and p.l1) (assignments: p.x := p.x + 1)]
        Backward controlled-behavior: <bdd 19n 23p> -> (p.x != 0 or not p.l1) and ((p.x != 0 or not p.l5 or (p.y = 1 or p.y = 3)) and (p.x != 0 or (not p.l5 or p.y != 3))) and ((p.x != 0 or not p.l3) and (p.x != 0 or not p.l2) and ((p.x != 0 or (not p.l4 or p.y != 0)) and (p.x != 2 or not p.l5 or (p.y = 1 or p.y = 3)))) and ((p.x != 2 or (not p.l5 or p.y != 3)) and ((p.x != 2 or (not p.l3 or p.y != 0)) and (p.x != 2 or (not p.l4 or p.y != 0))) and ((p.x = 0 or p.x = 2 or (not p.l5 or (p.y = 1 or p.y = 3))) and (p.x = 0 or p.x = 2 or (not p.l5 or p.y != 3)) and ((p.x = 0 or p.x = 2 or (not p.l3 or p.y != 0)) and (p.x = 0 or p.x = 2 or (not p.l4 or p.y != 0))))) [backward reach using bounded saturation (transition: 1 of 8) (level: 1 of 14) with edge: (event: p.c1) (guard: (p.x = 0 or p.x = 2) and p.l1 or p.x = 1 and p.l1) (assignments: p.x := p.x + 1)]
        Backward controlled-behavior: (p.x != 0 or not p.l1) and ((p.x != 0 or not p.l5 or (p.y = 1 or p.y = 3)) and (p.x != 0 or (not p.l5 or p.y != 3))) and ((p.x != 0 or not p.l3) and (p.x != 0 or not p.l2) and ((p.x != 0 or (not p.l4 or p.y != 0)) and (p.x != 2 or not p.l5 or (p.y = 1 or p.y = 3)))) and ((p.x != 2 or (not p.l5 or p.y != 3)) and ((p.x != 2 or (not p.l3 or p.y != 0)) and (p.x != 2 or (not p.l4 or p.y != 0))) and ((p.x = 0 or p.x = 2 or (not p.l5 or (p.y = 1 or p.y = 3))) and (p.x = 0 or p.x = 2 or (not p.l5 or p.y != 3)) and ((p.x = 0 or p.x = 2 or (not p.l3 or p.y != 0)) and (p.x = 0 or p.x = 2 or (not p.l4 or p.y != 0))))) -> (p.x != 0 or not p.l5 or (p.y = 1 or p.y = 3)) and ((p.x != 0 or (not p.l5 or p.y != 3)) and (p.x != 0 or not p.l3)) and ((p.x != 0 or not p.l2) and ((p.x != 0 or (not p.l4 or p.y != 0)) and (p.x != 2 or not p.l5 or (p.y = 1 or p.y = 3)))) and ((p.x != 2 or (not p.l5 or p.y != 3)) and ((p.x != 2 or (not p.l3 or p.y != 0)) and (p.x != 2 or (not p.l4 or p.y != 0))) and ((p.x = 0 or p.x = 2 or (not p.l5 or (p.y = 1 or p.y = 3))) and (p.x = 0 or p.x = 2 or (not p.l5 or p.y != 3)) and ((p.x = 0 or p.x = 2 or (not p.l3 or p.y != 0)) and (p.x = 0 or p.x = 2 or (not p.l4 or p.y != 0))))) [backward reach using bounded saturation (transition: 1 of 8) (level: 1 of 14) with edge: (event: p.c1) (guard: (p.x = 0 or p.x = 2) and p.l1 or p.x = 1 and p.l1) (assignments: p.x := p.x + 1)]

        Backward controlled-behavior: (p.x != 0 or not p.l5 or (p.y = 1 or p.y = 3)) and ((p.x != 0 or (not p.l5 or p.y != 3)) and (p.x != 0 or not p.l3)) and ((p.x != 0 or not p.l2) and ((p.x != 0 or (not p.l4 or p.y != 0)) and (p.x != 2 or not p.l5 or (p.y = 1 or p.y = 3)))) and ((p.x != 2 or (not p.l5 or p.y != 3)) and ((p.x != 2 or (not p.l3 or p.y != 0)) and (p.x != 2 or (not p.l4 or p.y != 0))) and ((p.x = 0 or p.x = 2 or (not p.l5 or (p.y = 1 or p.y = 3))) and (p.x = 0 or p.x = 2 or (not p.l5 or p.y != 3)) and ((p.x = 0 or p.x = 2 or (not p.l3 or p.y != 0)) and (p.x = 0 or p.x = 2 or (not p.l4 or p.y != 0))))) [fixed point].

        Controlled behavior: true -> (p.x != 0 or not p.l5 or (p.y = 1 or p.y = 3)) and ((p.x != 0 or (not p.l5 or p.y != 3)) and (p.x != 0 or not p.l3)) and ((p.x != 0 or not p.l2) and ((p.x != 0 or (not p.l4 or p.y != 0)) and (p.x != 2 or not p.l5 or (p.y = 1 or p.y = 3)))) and ((p.x != 2 or (not p.l5 or p.y != 3)) and ((p.x != 2 or (not p.l3 or p.y != 0)) and (p.x != 2 or (not p.l4 or p.y != 0))) and ((p.x = 0 or p.x = 2 or (not p.l5 or (p.y = 1 or p.y = 3))) and (p.x = 0 or p.x = 2 or (not p.l5 or p.y != 3)) and ((p.x = 0 or p.x = 2 or (not p.l3 or p.y != 0)) and (p.x = 0 or p.x = 2 or (not p.l4 or p.y != 0))))).

    Computing backward uncontrolled bad-state predicate:
        Saturation matrix:
                   /-------------- 1  p.x#0
                   |/------------- 2  p.x#0+
                   ||/------------ 3  p.x#1
                   |||/----------- 4  p.x#1+
                   ||||/---------- 5  p#0
                   |||||/--------- 6  p#0+
                   ||||||/-------- 7  p#1
                   |||||||/------- 8  p#1+
                   ||||||||/------ 9  p#2
                   |||||||||/----- 10 p#2+
                   ||||||||||/---- 11 p.y#0
                   |||||||||||/--- 12 p.y#0+
                   ||||||||||||/-- 13 p.y#1
                   |||||||||||||/- 14 p.y#1+
            1 p.u2     r r r rwrw
            2 p.u2     rwrwrwr r
            3 p.u4     r r r rwrw
            4 p.u4     rwrwrwr r

        Backward uncontrolled bad-state: p.x = 0 and (p.l5 and (p.y = 0 or p.y = 2)) or (p.x = 0 and (p.l5 and p.y = 3) or p.x = 0 and p.l3) or (p.x = 0 and p.l2 or (p.x = 0 and (p.l4 and p.y = 0) or p.x = 2 and (p.l5 and (p.y = 0 or p.y = 2)))) or (p.x = 2 and (p.l5 and p.y = 3) or (p.x = 2 and (p.l3 and p.y = 0) or p.x = 2 and (p.l4 and p.y = 0)) or ((p.x = 1 or p.x = 3) and (p.l5 and (p.y = 0 or p.y = 2)) or (p.x = 1 or p.x = 3) and (p.l5 and p.y = 3) or ((p.x = 1 or p.x = 3) and (p.l3 and p.y = 0) or (p.x = 1 or p.x = 3) and (p.l4 and p.y = 0)))) [current/previous controlled behavior predicate]

        Controlled behavior not changed.

    Computing forward controlled-behavior predicate:
        Saturation matrix:
                   /-------------- 1  p.x#0
                   |/------------- 2  p.x#0+
                   ||/------------ 3  p.x#1
                   |||/----------- 4  p.x#1+
                   ||||/---------- 5  p#0
                   |||||/--------- 6  p#0+
                   ||||||/-------- 7  p#1
                   |||||||/------- 8  p#1+
                   ||||||||/------ 9  p#2
                   |||||||||/----- 10 p#2+
                   ||||||||||/---- 11 p.y#0
                   |||||||||||/--- 12 p.y#0+
                   ||||||||||||/-- 13 p.y#1
                   |||||||||||||/- 14 p.y#1+
            1 p.c1 rwrwr r r
            2 p.c1 r r rwrwrw
            3 p.c3 rwrwr r r
            4 p.c3 r r rwrwrw
            5 p.u2     r r r rwrw
            6 p.u2     rwrwrwr r
            7 p.u4     r r r rwrw
            8 p.u4     rwrwrwr r

        Forward controlled-behavior: p.l1 and p.y = 0 [initialization predicate]
        Forward controlled-behavior: p.l1 and p.y = 0 -> (p.x = 0 or p.x = 2) and (p.l1 and p.y = 0) or (p.x = 1 and (p.l1 and p.y = 0) or p.x = 3 and ((p.l1 or p.l2) and p.y = 0)) [forward reach using bounded saturation (transition: 2 of 8) (level: 1 of 14) with edge: (event: p.c1) (guard: p.x = 3 and p.l1) (assignments: p := p.l2)]
        Forward controlled-behavior: (p.l1 or p.l2) and p.y = 0 -> p.l1 and p.y = 0 or p.l2 and (p.y = 0 or p.y = 1) [forward reach using bounded saturation (transition: 5 of 8) (level: 5 of 14) with edge: (event: p.u2) (guard: (p.l2 or p.l4) and ((not p.l2 or p.y != 3) and not p.l4)) (assignments: p.y := p.y + 1)]
        Forward controlled-behavior: p.l1 and p.y = 0 or p.l2 and (p.y = 0 or p.y = 1) -> p.l1 and p.y = 0 or (p.l2 and (p.y = 0 or p.y = 2) or p.l2 and p.y = 1) [forward reach using bounded saturation (transition: 5 of 8) (level: 5 of 14) with edge: (event: p.u2) (guard: (p.l2 or p.l4) and ((not p.l2 or p.y != 3) and not p.l4)) (assignments: p.y := p.y + 1)]
        Forward controlled-behavior: p.l1 and p.y = 0 or (p.l2 and (p.y = 0 or p.y = 2) or p.l2 and p.y = 1) -> p.l1 and p.y = 0 or p.l2 [forward reach using bounded saturation (transition: 5 of 8) (level: 5 of 14) with edge: (event: p.u2) (guard: (p.l2 or p.l4) and ((not p.l2 or p.y != 3) and not p.l4)) (assignments: p.y := p.y + 1)]
        Forward controlled-behavior: p.l1 and p.y = 0 or p.l2 -> p.l1 and p.y = 0 or (p.l3 and p.y = 3 or p.l2) [forward reach using bounded saturation (transition: 6 of 8) (level: 5 of 14) with edge: (event: p.u2) (guard: p.l2 and p.y = 3) (assignments: p := p.l3)]
        Forward controlled-behavior: (p.x = 0 or p.x = 2) and (p.l1 and p.y = 0) or p.x = 1 and (p.l1 and p.y = 0) or (p.x = 3 and (p.l1 and p.y = 0) or (p.x = 3 and (p.l3 and p.y = 3) or p.x = 3 and p.l2)) -> p.x = 0 and (p.l1 and p.y = 0) or (p.x = 2 and (p.l1 and p.y = 0) or p.x = 2 and (p.l3 and p.y = 3)) or (p.x = 1 and (p.l1 and p.y = 0) or p.x = 3 and (p.l1 and p.y = 0) or (p.x = 3 and (p.l3 and p.y = 3) or p.x = 3 and p.l2)) [forward reach using bounded saturation (transition: 3 of 8) (level: 1 of 14) with edge: (event: p.c3) (guard: (p.x = 2 or p.x = 3) and p.l3) (assignments: p.x := p.x - 1)]
        Forward controlled-behavior: p.x = 0 and (p.l1 and p.y = 0) or (p.x = 2 and (p.l1 and p.y = 0) or p.x = 2 and (p.l3 and p.y = 3)) or (p.x = 1 and (p.l1 and p.y = 0) or p.x = 3 and (p.l1 and p.y = 0) or (p.x = 3 and (p.l3 and p.y = 3) or p.x = 3 and p.l2)) -> p.x = 0 and (p.l1 and p.y = 0) or p.x = 2 and (p.l1 and p.y = 0) or (p.x = 2 and (p.l3 and p.y = 3) or p.x = 1 and (p.l1 and p.y = 0)) or (p.x = 1 and (p.l3 and p.y = 3) or p.x = 3 and (p.l1 and p.y = 0) or (p.x = 3 and (p.l3 and p.y = 3) or p.x = 3 and p.l2)) [forward reach using bounded saturation (transition: 3 of 8) (level: 1 of 14) with edge: (event: p.c3) (guard: (p.x = 2 or p.x = 3) and p.l3) (assignments: p.x := p.x - 1)]
        Forward controlled-behavior: p.x = 0 and (p.l1 and p.y = 0) or p.x = 2 and (p.l1 and p.y = 0) or (p.x = 2 and (p.l3 and p.y = 3) or p.x = 1 and (p.l1 and p.y = 0)) or (p.x = 1 and (p.l3 and p.y = 3) or p.x = 3 and (p.l1 and p.y = 0) or (p.x = 3 and (p.l3 and p.y = 3) or p.x = 3 and p.l2)) -> p.x = 0 and (p.l1 and p.y = 0) or p.x = 2 and (p.l1 and p.y = 0) or (p.x = 2 and (p.l3 and p.y = 3) or p.x = 1 and (p.l1 and p.y = 0)) or (p.x = 1 and (p.l3 and p.y = 3) or p.x = 1 and (p.l4 and p.y = 3) or (p.x = 3 and (p.l1 and p.y = 0) or (p.x = 3 and (p.l3 and p.y = 3) or p.x = 3 and p.l2))) [forward reach using bounded saturation (transition: 4 of 8) (level: 1 of 14) with edge: (event: p.c3) (guard: p.x = 1 and p.l3) (assignments: p := p.l4)]
        Forward controlled-behavior: p.l1 and p.y = 0 or (p.l3 and p.y = 3 or p.l4 and p.y = 3) -> p.l1 and p.y = 0 or (p.l3 and p.y = 3 or p.l4 and (p.y = 2 or p.y = 3)) [forward reach using bounded saturation (transition: 7 of 8) (level: 5 of 14) with edge: (event: p.u4) (guard: p.l4 and (p.y = 2 or p.y = 3)) (assignments: p.y := p.y - 1)]
        Forward controlled-behavior: p.l1 and p.y = 0 or (p.l3 and p.y = 3 or p.l4 and (p.y = 2 or p.y = 3)) -> p.l1 and p.y = 0 or p.l3 and p.y = 3 or (p.l4 and p.y = 2 or p.l4 and (p.y = 1 or p.y = 3)) [forward reach using bounded saturation (transition: 7 of 8) (level: 5 of 14) with edge: (event: p.u4) (guard: p.l4 and (p.y = 2 or p.y = 3)) (assignments: p.y := p.y - 1)]
        Forward controlled-behavior: p.l1 and p.y = 0 or p.l3 and p.y = 3 or (p.l4 and p.y = 2 or p.l4 and (p.y = 1 or p.y = 3)) -> p.l1 and p.y = 0 or p.l5 and p.y = 1 or (p.l3 and p.y = 3 or (p.l4 and p.y = 2 or p.l4 and (p.y = 1 or p.y = 3))) [forward reach using bounded saturation (transition: 8 of 8) (level: 5 of 14) with edge: (event: p.u4) (guard: p.l4 and p.y = 1) (assignments: p := p.l5)]

        Forward controlled-behavior: <bdd 23n 11p> [fixed point].

        Controlled behavior: (p.x != 0 or not p.l5 or (p.y = 1 or p.y = 3)) and ((p.x != 0 or (not p.l5 or p.y != 3)) and (p.x != 0 or not p.l3)) and ((p.x != 0 or not p.l2) and ((p.x != 0 or (not p.l4 or p.y != 0)) and (p.x != 2 or not p.l5 or (p.y = 1 or p.y = 3)))) and ((p.x != 2 or (not p.l5 or p.y != 3)) and ((p.x != 2 or (not p.l3 or p.y != 0)) and (p.x != 2 or (not p.l4 or p.y != 0))) and ((p.x = 0 or p.x = 2 or (not p.l5 or (p.y = 1 or p.y = 3))) and (p.x = 0 or p.x = 2 or (not p.l5 or p.y != 3)) and ((p.x = 0 or p.x = 2 or (not p.l3 or p.y != 0)) and (p.x = 0 or p.x = 2 or (not p.l4 or p.y != 0))))) -> <bdd 23n 11p>.

    Need another round.

Synthesis round 2:
    Computing backward controlled-behavior predicate:
        Saturation matrix:
                   /-------------- 1  p.x#0
                   |/------------- 2  p.x#0+
                   ||/------------ 3  p.x#1
                   |||/----------- 4  p.x#1+
                   ||||/---------- 5  p#0
                   |||||/--------- 6  p#0+
                   ||||||/-------- 7  p#1
                   |||||||/------- 8  p#1+
                   ||||||||/------ 9  p#2
                   |||||||||/----- 10 p#2+
                   ||||||||||/---- 11 p.y#0
                   |||||||||||/--- 12 p.y#0+
                   ||||||||||||/-- 13 p.y#1
                   |||||||||||||/- 14 p.y#1+
            1 p.c1 rwrwr r r
            2 p.c1 r r rwrwrw
            3 p.c3 rwrwr r r
            4 p.c3 r r rwrwrw
            5 p.u2     r r r rwrw
            6 p.u2     rwrwrwr r
            7 p.u4     r r r rwrw
            8 p.u4     rwrwrwr r

        Backward controlled-behavior: p.l5 and p.y = 1 [marker predicate]
        Backward controlled-behavior: p.l5 and p.y = 1 -> p.x = 1 and (p.l5 and p.y = 1) [restricted to current/previous controlled-behavior predicate: <bdd 23n 11p>]
        Backward controlled-behavior: p.l5 and p.y = 1 -> p.l5 and p.y = 1 or p.l4 and p.y = 1 [backward reach using bounded saturation (transition: 8 of 8) (level: 5 of 14) with edge: (event: p.u4) (guard: p.l4 and p.y = 1) (assignments: p := p.l5)]
        Backward controlled-behavior: p.l5 and p.y = 1 or p.l4 and p.y = 1 -> p.l5 and p.y = 1 or (p.l4 and p.y = 2 or p.l4 and p.y = 1) [backward reach using bounded saturation (transition: 7 of 8) (level: 5 of 14) with edge: (event: p.u4) (guard: p.l4 and (p.y = 2 or p.y = 3)) (assignments: p.y := p.y - 1)]
        Backward controlled-behavior: p.l5 and p.y = 1 or (p.l4 and p.y = 2 or p.l4 and p.y = 1) -> p.l5 and p.y = 1 or (p.l4 and p.y = 2 or p.l4 and (p.y = 1 or p.y = 3)) [backward reach using bounded saturation (transition: 7 of 8) (level: 5 of 14) with edge: (event: p.u4) (guard: p.l4 and (p.y = 2 or p.y = 3)) (assignments: p.y := p.y - 1)]
        Backward controlled-behavior: p.x = 1 and (p.l5 and p.y = 1) or (p.x = 1 and (p.l4 and p.y = 2) or p.x = 1 and (p.l4 and (p.y = 1 or p.y = 3))) -> p.x = 1 and (p.l5 and p.y = 1) or p.x = 1 and (p.l3 and p.y = 3) or (p.x = 1 and (p.l4 and p.y = 2) or p.x = 1 and (p.l4 and (p.y = 1 or p.y = 3))) [backward reach using bounded saturation (transition: 4 of 8) (level: 1 of 14) with edge: (event: p.c3) (guard: p.x = 1 and p.l3) (assignments: p := p.l4)]
        Backward controlled-behavior: p.x = 1 and (p.l5 and p.y = 1) or p.x = 1 and (p.l3 and p.y = 3) or (p.x = 1 and (p.l4 and p.y = 2) or p.x = 1 and (p.l4 and (p.y = 1 or p.y = 3))) -> p.x = 2 and (p.l3 and p.y = 3) or p.x = 1 and (p.l5 and p.y = 1) or (p.x = 1 and (p.l3 and p.y = 3) or (p.x = 1 and (p.l4 and p.y = 2) or p.x = 1 and (p.l4 and (p.y = 1 or p.y = 3)))) [backward reach using bounded saturation (transition: 3 of 8) (level: 1 of 14) with edge: (event: p.c3) (guard: (p.x = 2 or p.x = 3) and p.l3) (assignments: p.x := p.x - 1)]
        Backward controlled-behavior: p.x = 2 and (p.l3 and p.y = 3) or p.x = 1 and (p.l5 and p.y = 1) or (p.x = 1 and (p.l3 and p.y = 3) or (p.x = 1 and (p.l4 and p.y = 2) or p.x = 1 and (p.l4 and (p.y = 1 or p.y = 3)))) -> p.x = 2 and (p.l3 and p.y = 3) or (p.x = 1 and (p.l5 and p.y = 1) or p.x = 1 and (p.l3 and p.y = 3)) or (p.x = 1 and (p.l4 and p.y = 2) or (p.x = 1 and (p.l4 and (p.y = 1 or p.y = 3)) or p.x = 3 and (p.l3 and p.y = 3))) [backward reach using bounded saturation (transition: 3 of 8) (level: 1 of 14) with edge: (event: p.c3) (guard: (p.x = 2 or p.x = 3) and p.l3) (assignments: p.x := p.x - 1)]
        Backward controlled-behavior: p.l3 and p.y = 3 -> p.l3 and p.y = 3 or p.l2 and p.y = 3 [backward reach using bounded saturation (transition: 6 of 8) (level: 5 of 14) with edge: (event: p.u2) (guard: p.l2 and p.y = 3) (assignments: p := p.l3)]
        Backward controlled-behavior: p.l3 and p.y = 3 or p.l2 and p.y = 3 -> p.l3 and p.y = 3 or p.l2 and (p.y = 2 or p.y = 3) [backward reach using bounded saturation (transition: 5 of 8) (level: 5 of 14) with edge: (event: p.u2) (guard: (p.l2 or p.l4) and ((not p.l2 or p.y != 3) and not p.l4)) (assignments: p.y := p.y + 1)]
        Backward controlled-behavior: p.l3 and p.y = 3 or p.l2 and (p.y = 2 or p.y = 3) -> p.l3 and p.y = 3 or (p.l2 and p.y = 2 or p.l2 and (p.y = 1 or p.y = 3)) [backward reach using bounded saturation (transition: 5 of 8) (level: 5 of 14) with edge: (event: p.u2) (guard: (p.l2 or p.l4) and ((not p.l2 or p.y != 3) and not p.l4)) (assignments: p.y := p.y + 1)]
        Backward controlled-behavior: p.l3 and p.y = 3 or (p.l2 and p.y = 2 or p.l2 and (p.y = 1 or p.y = 3)) -> p.l3 and p.y = 3 or p.l2 [backward reach using bounded saturation (transition: 5 of 8) (level: 5 of 14) with edge: (event: p.u2) (guard: (p.l2 or p.l4) and ((not p.l2 or p.y != 3) and not p.l4)) (assignments: p.y := p.y + 1)]
        Backward controlled-behavior: p.x = 2 and (p.l3 and p.y = 3) or (p.x = 1 and (p.l5 and p.y = 1) or p.x = 1 and (p.l3 and p.y = 3)) or (p.x = 1 and (p.l4 and p.y = 2) or p.x = 1 and (p.l4 and (p.y = 1 or p.y = 3)) or (p.x = 3 and (p.l3 and p.y = 3) or p.x = 3 and p.l2)) -> <bdd 22n 8p> [backward reach using bounded saturation (transition: 2 of 8) (level: 1 of 14) with edge: (event: p.c1) (guard: p.x = 3 and p.l1) (assignments: p := p.l2)]
        Backward controlled-behavior: <bdd 22n 8p> -> <bdd 21n 9p> [backward reach using bounded saturation (transition: 1 of 8) (level: 1 of 14) with edge: (event: p.c1) (guard: (p.x = 0 or p.x = 2) and p.l1 or p.x = 1 and p.l1) (assignments: p.x := p.x + 1)]
        Backward controlled-behavior: <bdd 21n 9p> -> <bdd 21n 10p> [backward reach using bounded saturation (transition: 1 of 8) (level: 1 of 14) with edge: (event: p.c1) (guard: (p.x = 0 or p.x = 2) and p.l1 or p.x = 1 and p.l1) (assignments: p.x := p.x + 1)]
        Backward controlled-behavior: <bdd 21n 10p> -> <bdd 23n 11p> [backward reach using bounded saturation (transition: 1 of 8) (level: 1 of 14) with edge: (event: p.c1) (guard: (p.x = 0 or p.x = 2) and p.l1 or p.x = 1 and p.l1) (assignments: p.x := p.x + 1)]

        Backward controlled-behavior: <bdd 23n 11p> [fixed point].

        Controlled behavior not changed.

    Computing backward uncontrolled bad-state predicate:
        Saturation matrix:
                   /-------------- 1  p.x#0
                   |/------------- 2  p.x#0+
                   ||/------------ 3  p.x#1
                   |||/----------- 4  p.x#1+
                   ||||/---------- 5  p#0
                   |||||/--------- 6  p#0+
                   ||||||/-------- 7  p#1
                   |||||||/------- 8  p#1+
                   ||||||||/------ 9  p#2
                   |||||||||/----- 10 p#2+
                   ||||||||||/---- 11 p.y#0
                   |||||||||||/--- 12 p.y#0+
                   ||||||||||||/-- 13 p.y#1
                   |||||||||||||/- 14 p.y#1+
            1 p.u2     r r r rwrw
            2 p.u2     rwrwrwr r
            3 p.u4     r r r rwrw
            4 p.u4     rwrwrwr r

        Backward uncontrolled bad-state: <bdd 23n 30p> [current/previous controlled behavior predicate]

        Controlled behavior not changed.

    Finished: controlled behavior is stable.

Computing final controlled system guards:
    Edge (event: p.c1) (guard: (p.x = 0 or p.x = 2) and p.l1 or p.x = 1 and p.l1) (assignments: p.x := p.x + 1): guard: (p.x = 0 or p.x = 2) and p.l1 or p.x = 1 and p.l1 -> (p.x = 0 or p.x = 2) and (p.l1 and p.y = 0) or p.x = 1 and (p.l1 and p.y = 0).
    Edge (event: p.c3) (guard: (p.x = 2 or p.x = 3) and p.l3) (assignments: p.x := p.x - 1): guard: (p.x = 2 or p.x = 3) and p.l3 -> (p.x = 2 or p.x = 3) and (p.l3 and p.y = 3).
    Edge (event: p.c3) (guard: p.x = 1 and p.l3) (assignments: p := p.l4): guard: p.x = 1 and p.l3 -> p.x = 1 and (p.l3 and p.y = 2) or p.x = 1 and (p.l3 and (p.y = 1 or p.y = 3)).

Cleaning up cached predicate of edges that were used when applying edges.

Final synthesis result:
    State: (controlled-behavior: <bdd 23n 11p>)
        Edge: (event: p.c1) (guard: (p.x = 0 or p.x = 2) and p.l1 or p.x = 1 and p.l1 -> (p.x = 0 or p.x = 2) and (p.l1 and p.y = 0) or p.x = 1 and (p.l1 and p.y = 0)) (assignments: p.x := p.x + 1)
        Edge: (event: p.c1) (guard: p.x = 3 and p.l1) (assignments: p := p.l2)
        Edge: (event: p.u2) (guard: (p.l2 or p.l4) and ((not p.l2 or p.y != 3) and not p.l4)) (assignments: p.y := p.y + 1)
        Edge: (event: p.u2) (guard: p.l2 and p.y = 3) (assignments: p := p.l3)
        Edge: (event: p.c3) (guard: (p.x = 2 or p.x = 3) and p.l3 -> (p.x = 2 or p.x = 3) and (p.l3 and p.y = 3)) (assignments: p.x := p.x - 1)
        Edge: (event: p.c3) (guard: p.x = 1 and p.l3 -> p.x = 1 and (p.l3 and p.y = 2) or p.x = 1 and (p.l3 and (p.y = 1 or p.y = 3))) (assignments: p := p.l4)
        Edge: (event: p.u4) (guard: p.l4 and (p.y = 2 or p.y = 3)) (assignments: p.y := p.y - 1)
        Edge: (event: p.u4) (guard: p.l4 and p.y = 1) (assignments: p := p.l5)

Computing initialization predicate of the controlled system.

Controlled system: exactly 15 states.

Determining initialization predicate for output model:
    Initial (synthesis result):            <bdd 23n 11p>
    Initial (uncontrolled system):         p.l1 and p.y = 0
    Initial (controlled system):           p.l1 and p.y = 0
    Initial (removed by supervisor):       false
    Initial (added by supervisor):         true

    Initial (output model):                n/a

Determining supervisor guards for output model:
    Event p.c1: guard: (p.x = 0 or p.x = 2) and (p.l1 and p.y = 0) or (p.x = 1 and (p.l1 and p.y = 0) or p.x = 3 and p.l1).
    Event p.c3: guard: p.x = 2 and (p.l3 and p.y = 3) or p.x = 1 and (p.l3 and p.y = 2) or (p.x = 1 and (p.l3 and (p.y = 1 or p.y = 3)) or p.x = 3 and (p.l3 and p.y = 3)).

Checking post-synthesis for events that are never enabled.

Simplifying supervisor guards for output model:
    Simplification under the assumption of the plants.

    Event p.c1: guard: (p.x = 0 or p.x = 2) and (p.l1 and p.y = 0) or (p.x = 1 and (p.l1 and p.y = 0) or p.x = 3 and p.l1) -> (p.x = 0 or p.x = 2) and p.y = 0 or (p.x = 1 and p.y = 0 or p.x = 3) [assume p.l1].
    Event p.c3: guard: p.x = 2 and (p.l3 and p.y = 3) or p.x = 1 and (p.l3 and p.y = 2) or (p.x = 1 and (p.l3 and (p.y = 1 or p.y = 3)) or p.x = 3 and (p.l3 and p.y = 3)) -> (p.x = 0 or p.x = 2) and p.y = 3 or p.x = 1 and p.y = 2 or (p.x = 1 and (p.y = 1 or p.y = 3) or p.x = 3 and p.y = 3) [assume p.x = 2 and p.l3 or (p.x = 1 or p.x = 3) and p.l3].

Constructing output CIF specification.

Checking output CIF specification.

Writing output CIF file "datasynth/fixed_point_order_nonblock_ctrl_reach.ctrlsys.real.cif".
