Reading CIF file "datasynth/namespace.cif".

Preprocessing CIF specification (includes checking that the specification is supported).

Converting CIF specification to internal format (BDDs):
    CIF variables and location pointers:
        Nr     Kind               Type       Name   Group  BDD vars  CIF values  BDD values  Values used
        -----  -----------------  ---------  -----  -----  --------  ----------  ----------  -----------
        1      location pointer   n/a        g.r    0      1 * 2     2 * 2       2 * 2       100%
        2      discrete variable  int[0..3]  g.r.x  1      2 * 2     4 * 2       4 * 2       100%
        3      discrete variable  int[0..3]  g.r.y  2      2 * 2     4 * 2       4 * 2       100%
        -----  -----------------  ---------  -----  -----  --------  ----------  ----------  -----------
        Total                                       3      10        20          20          100%

    Applying variable ordering:
        Applying 4 orderers, sequentially:
            Applying model variable order:
                Effect: both

            Applying DCSH algorithm:
                Metric: wes
                Relations: legacy
                Effect: var-order
                Number of hyper-edges: 6

                Applying Weighted Cuthill-McKee algorithm:
                    Node finder: george-liu
                    Relations: legacy
                    Effect: var-order
                    Number of graph edges: 2

                    Total span:   4 (total)   0.67 (avg/edge) / WES:   0.518519 (total)   0.086420 (avg/edge) [before]
                    Total span:   3 (total)   0.50 (avg/edge) / WES:   0.370370 (total)   0.061728 (avg/edge) [after]

                Found new best variable order.

                Applying Sloan algorithm:
                    Relations: legacy
                    Effect: var-order
                    Number of graph edges: 2

                    Total span:   4 (total)   0.67 (avg/edge) / WES:   0.518519 (total)   0.086420 (avg/edge) [before]
                    Total span:   3 (total)   0.50 (avg/edge) / WES:   0.370370 (total)   0.061728 (avg/edge) [after]

                Applying 2 orderers, sequentially:
                    Applying Weighted Cuthill-McKee algorithm:
                        Node finder: george-liu
                        Relations: legacy
                        Effect: var-order
                        Number of graph edges: 2

                        Total span:   4 (total)   0.67 (avg/edge) / WES:   0.518519 (total)   0.086420 (avg/edge) [before]
                        Total span:   3 (total)   0.50 (avg/edge) / WES:   0.370370 (total)   0.061728 (avg/edge) [after]

                    Reversing the variable order:
                        Relations: legacy
                        Effect: var-order
                        Number of hyper-edges: 6

                        Total span:   3 (total)   0.50 (avg/edge) / WES:   0.370370 (total)   0.061728 (avg/edge) [before]
                        Total span:   3 (total)   0.50 (avg/edge) / WES:   0.370370 (total)   0.061728 (avg/edge) [reversed]

                Applying 2 orderers, sequentially:
                    Applying Sloan algorithm:
                        Relations: legacy
                        Effect: var-order
                        Number of graph edges: 2

                        Total span:   4 (total)   0.67 (avg/edge) / WES:   0.518519 (total)   0.086420 (avg/edge) [before]
                        Total span:   3 (total)   0.50 (avg/edge) / WES:   0.370370 (total)   0.061728 (avg/edge) [after]

                    Reversing the variable order:
                        Relations: legacy
                        Effect: var-order
                        Number of hyper-edges: 6

                        Total span:   3 (total)   0.50 (avg/edge) / WES:   0.370370 (total)   0.061728 (avg/edge) [before]
                        Total span:   3 (total)   0.50 (avg/edge) / WES:   0.370370 (total)   0.061728 (avg/edge) [reversed]

            Applying FORCE algorithm:
                Metric: total-span
                Relations: linearized
                Effect: var-order
                Number of hyper-edges: 3
                Maximum number of iterations: 20

                Total span:   3 (total)   1.00 (avg/edge) / WES:   0.592593 (total)   0.197531 (avg/edge) [before]
                Total span:   3 (total)   1.00 (avg/edge) / WES:   0.592593 (total)   0.197531 (avg/edge) [iteration 1]
                Total span:   3 (total)   1.00 (avg/edge) / WES:   0.592593 (total)   0.197531 (avg/edge) [after]

            Applying sliding window algorithm:
                Size: 4
                Metric: total-span
                Relations: linearized
                Effect: var-order
                Number of hyper-edges: 3
                Window length: 3

                Total span:   3 (total)   1.00 (avg/edge) / WES:   0.592593 (total)   0.197531 (avg/edge) [before]
                Total span:   3 (total)   1.00 (avg/edge) / WES:   0.592593 (total)   0.197531 (avg/edge) [after]

    Variable order changed.

    CIF variables and location pointers:
        Nr     Kind               Type       Name   Group  BDD vars  CIF values  BDD values  Values used
        -----  -----------------  ---------  -----  -----  --------  ----------  ----------  -----------
        1      discrete variable  int[0..3]  g.r.x  0      2 * 2     4 * 2       4 * 2       100%
        2      location pointer   n/a        g.r    1      1 * 2     2 * 2       2 * 2       100%
        3      discrete variable  int[0..3]  g.r.y  2      2 * 2     4 * 2       4 * 2       100%
        -----  -----------------  ---------  -----  -----  --------  ----------  ----------  -----------
        Total                                       3      10        20          20          100%

Starting data-based synthesis.

Synthesis input:
    Invariant (components state plant inv):      true
    Invariant (locations state plant invariant): true
    Invariant (system state plant invariant):    true

    Invariant (components state req invariant):  true
    Invariant (locations state req invariant):   true
    Invariant (system state req invariant):      true

    Initial   (discrete variable 0):             true
    Initial   (discrete variable 2):             true
    Initial   (discrete variables):              true
    Initial   (components init predicate):       true
    Initial   (aut/locs init predicate):         true
    Initial   (aut/locs init predicate):         g.r.loc1
    Initial   (auts/locs init predicate):        g.r.loc1
    Initial   (uncontrolled system):             g.r.loc1
    Initial   (system, combined init/plant inv): g.r.loc1
    Initial   (system, combined init/state inv): g.r.loc1

    Marked    (components marker predicate):     true
    Marked    (aut/locs marker predicate):       true
    Marked    (aut/locs marker predicate):       g.r.loc1
    Marked    (auts/locs marker predicate):      g.r.loc1
    Marked    (uncontrolled system):             g.r.loc1
    Marked    (system, combined mark/plant inv): g.r.loc1
    Marked    (system, combined mark/state inv): g.r.loc1

    State/event exclusion plants:
        None

    State/event exclusion requirements:
        Event "c" needs:
            (g.r.x = 1 or g.r.x = 3) and g.r.loc1
        Event "p.u" needs:
            g.r.loc1
        Event "p.c2" needs:
            g.r.loc1 and g.r.y = 0

    Uncontrolled system:
        State: (controlled-behavior: ?)
            Edge: (event: c) (guard: (g.r.x = 1 or g.r.x = 3) and g.r.loc1)
            Edge: (event: c) (guard: g.r.x = 0 or (g.r.x = 2 or g.r.loc2))
            Edge: (event: p.u) (guard: g.r.loc1) (assignments: g.r.x := (g.r.x + 1) mod 4)
            Edge: (event: p.u) (guard: g.r.loc2)
            Edge: (event: p.c2) (guard: g.r.loc1 and g.r.y = 0) (assignments: g.r := g.r.loc2)
            Edge: (event: p.c2) (guard: g.r.loc2 or g.r.y != 0)

Checking input for potential problems.

Restricting edge guards to prevent runtime errors:
    No guards changed.

Restricting uncontrolled system behavior using state/event exclusion plant invariants:
    No guards changed.

Initializing edges for being applied.

Restricting uncontrolled system behavior using state plant invariants:
    No restrictions needed.

Initializing controlled behavior:
    Controlled-behavior predicate: true.
    Controlled-initialization predicate: g.r.loc1.

Restricting behavior using state requirements:
    Controlled behavior not changed.

Extending controlled-behavior predicate using variable ranges:
    Controlled behavior not changed.

Restricting behavior using state/event exclusion requirements:
    Edge (event: c) (guard: g.r.x = 0 or (g.r.x = 2 or g.r.loc2)): guard: g.r.x = 0 or (g.r.x = 2 or g.r.loc2) -> false [state/event exclusion requirement: (g.r.x = 1 or g.r.x = 3) and g.r.loc1].
    Controlled behavior: true -> g.r.loc1 [state/event exclusion requirement: g.r.loc1, edge: (event: p.u) (guard: g.r.loc2)].
    Edge (event: p.c2) (guard: g.r.loc2 or g.r.y != 0): guard: g.r.loc2 or g.r.y != 0 -> false [state/event exclusion requirement: g.r.loc1 and g.r.y = 0].

    Restricted behavior using state/event exclusion requirements:
        State: (controlled-behavior: g.r.loc1)
            Edge: (event: c) (guard: (g.r.x = 1 or g.r.x = 3) and g.r.loc1)
            Edge: (event: c) (guard: g.r.x = 0 or (g.r.x = 2 or g.r.loc2) -> false)
            Edge: (event: p.u) (guard: g.r.loc1) (assignments: g.r.x := (g.r.x + 1) mod 4)
            Edge: (event: p.u) (guard: g.r.loc2)
            Edge: (event: p.c2) (guard: g.r.loc1 and g.r.y = 0) (assignments: g.r := g.r.loc2)
            Edge: (event: p.c2) (guard: g.r.loc2 or g.r.y != 0 -> false)

Restricting behavior using implicit runtime error requirements:
    Controlled behavior not changed.

Re-initializing edges for being applied.

Checking pre-synthesis for events that are never enabled.

Synthesis round 1:
    Computing backward controlled-behavior predicate:
        Saturation matrix:
                   /---------- 1  g.r.x#0
                   |/--------- 2  g.r.x#0+
                   ||/-------- 3  g.r.x#1
                   |||/------- 4  g.r.x#1+
                   ||||/------ 5  g.r#0
                   |||||/----- 6  g.r#0+
                   ||||||/---- 7  g.r.y#0
                   |||||||/--- 8  g.r.y#0+
                   ||||||||/-- 9  g.r.y#1
                   |||||||||/- 10 g.r.y#1+
            1 c    r   r
            2 p.u  rwrwr
            3 p.u      r
            4 p.c2     rwr r
            5 c
            6 p.c2

        Backward controlled-behavior: g.r.loc1 [marker predicate]

        Controlled behavior not changed.

    Computing backward uncontrolled bad-state predicate:
        Saturation matrix:
                  /---------- 1  g.r.x#0
                  |/--------- 2  g.r.x#0+
                  ||/-------- 3  g.r.x#1
                  |||/------- 4  g.r.x#1+
                  ||||/------ 5  g.r#0
                  |||||/----- 6  g.r#0+
                  ||||||/---- 7  g.r.y#0
                  |||||||/--- 8  g.r.y#0+
                  ||||||||/-- 9  g.r.y#1
                  |||||||||/- 10 g.r.y#1+
            1 p.u rwrwr
            2 p.u     r

        Backward uncontrolled bad-state: g.r.loc2 [current/previous controlled behavior predicate]

        Controlled behavior not changed.

    Computing forward controlled-behavior predicate:
        Saturation matrix:
                   /---------- 1  g.r.x#0
                   |/--------- 2  g.r.x#0+
                   ||/-------- 3  g.r.x#1
                   |||/------- 4  g.r.x#1+
                   ||||/------ 5  g.r#0
                   |||||/----- 6  g.r#0+
                   ||||||/---- 7  g.r.y#0
                   |||||||/--- 8  g.r.y#0+
                   ||||||||/-- 9  g.r.y#1
                   |||||||||/- 10 g.r.y#1+
            1 c    r   r
            2 p.u  rwrwr
            3 p.u      r
            4 p.c2     rwr r
            5 c
            6 p.c2

        Forward controlled-behavior: g.r.loc1 [initialization predicate]

        Controlled behavior not changed.

    Finished: controlled behavior is stable.

Computing final controlled system guards:
    Edge (event: p.c2) (guard: g.r.loc1 and g.r.y = 0) (assignments: g.r := g.r.loc2): guard: g.r.loc1 and g.r.y = 0 -> false.

Cleaning up cached predicate of edges that were used when applying edges.

Final synthesis result:
    State: (controlled-behavior: g.r.loc1)
        Edge: (event: c) (guard: (g.r.x = 1 or g.r.x = 3) and g.r.loc1)
        Edge: (event: c) (guard: g.r.x = 0 or (g.r.x = 2 or g.r.loc2) -> false)
        Edge: (event: p.u) (guard: g.r.loc1) (assignments: g.r.x := (g.r.x + 1) mod 4)
        Edge: (event: p.u) (guard: g.r.loc2)
        Edge: (event: p.c2) (guard: g.r.loc1 and g.r.y = 0 -> false) (assignments: g.r := g.r.loc2)
        Edge: (event: p.c2) (guard: g.r.loc2 or g.r.y != 0 -> false)

Computing initialization predicate of the controlled system.

Controlled system: exactly 16 states.

Determining initialization predicate for output model:
    Initial (synthesis result):            g.r.loc1
    Initial (uncontrolled system):         g.r.loc1
    Initial (controlled system):           g.r.loc1
    Initial (removed by supervisor):       false
    Initial (added by supervisor):         true

    Initial (output model):                n/a

Determining supervisor guards for output model:
    Event c: guard: (g.r.x = 1 or g.r.x = 3) and g.r.loc1.
    Event p.c2: guard: false.

Checking post-synthesis for events that are never enabled.

Simplifying supervisor guards for output model:
    Simplification under the assumption of the plants.

    Guards not changed.

Constructing output CIF specification.

Checking output CIF specification.

Writing output CIF file "datasynth/namespace.ctrlsys.real.cif".
