Reading CIF file "datasynth/no_initial_plant_inv.cif".

Preprocessing CIF specification (includes checking that the specification is supported).

Converting CIF specification to internal format (BDDs):
    CIF variables and location pointers:
        Nr     Kind               Type       Name  Group  BDD vars  CIF values  BDD values  Values used
        -----  -----------------  ---------  ----  -----  --------  ----------  ----------  -----------
        1      discrete variable  int[0..5]  p.x   0      3 * 2     6 * 2       8 * 2       75%
        -----  -----------------  ---------  ----  -----  --------  ----------  ----------  -----------
        Total                                      1      6         12          16          75%

    Skipping variable ordering: only one variable present.

Starting data-based synthesis.

Synthesis input:
    Invariant (component state plant invariant): p.x = 0 or p.x = 1
    Invariant (components state plant inv):      p.x = 0 or p.x = 1
    Invariant (locations state plant invariant): true
    Invariant (system state plant invariant):    p.x = 0 or p.x = 1

    Invariant (components state req invariant):  true
    Invariant (locations state req invariant):   true
    Invariant (system state req invariant):      true

    Initial   (discrete variable 0):             p.x = 2 or p.x = 3
    Initial   (discrete variables):              p.x = 2 or p.x = 3
    Initial   (components init predicate):       true
    Initial   (aut/locs init predicate):         true
    Initial   (auts/locs init predicate):        true
    Initial   (uncontrolled system):             p.x = 2 or p.x = 3
    Initial   (system, combined init/plant inv): false
    Initial   (system, combined init/state inv): false

    Marked    (components marker predicate):     true
    Marked    (aut/locs marker predicate):       true
    Marked    (auts/locs marker predicate):      true
    Marked    (uncontrolled system):             true
    Marked    (system, combined mark/plant inv): p.x = 0 or p.x = 1
    Marked    (system, combined mark/state inv): p.x = 0 or p.x = 1

    State/event exclusion plants:
        None

    State/event exclusion requirements:
        None

    Uncontrolled system:
        State: (controlled-behavior: ?)

Checking input for potential problems.

Restricting edge guards to prevent runtime errors:
    No guards changed.

Restricting uncontrolled system behavior using state/event exclusion plant invariants:
    No guards changed.

Initializing edges for being applied.

Restricting uncontrolled system behavior using state plant invariants:
    No guards changed.

Initializing controlled behavior:
    Controlled-behavior predicate: true.
    Controlled-initialization predicate: false.

Restricting behavior using state requirements:
    Controlled behavior not changed.

Extending controlled-behavior predicate using variable ranges:
    Controlled behavior: true -> true [range: true, variable: discrete variable "p.x" of type "int[0..5]" (group: 0, domain: 0+1, BDD variables: 3, CIF/BDD values: 6/8)].

    Extended controlled-behavior predicate using variable ranges: true.

Restricting behavior using state/event exclusion requirements:
    Guards and controlled behavior not changed.

Restricting behavior using implicit runtime error requirements:
    Controlled behavior not changed.

Re-initializing edges for being applied.

Checking pre-synthesis for events that are never enabled.

Synthesis round 1:
    Computing backward controlled-behavior predicate:
        Saturation matrix:
            No edges.

        Backward controlled-behavior: true [marker predicate]
        Backward controlled-behavior: true -> true [restricted to current/previous controlled-behavior predicate: true]

        Backward controlled-behavior: true [fixed point].

        Controlled behavior not changed.

    Computing backward uncontrolled bad-state predicate:
        Saturation matrix:
            No edges.

        Backward uncontrolled bad-state: false [current/previous controlled behavior predicate]

        Controlled behavior not changed.

    Computing forward controlled-behavior predicate:
        Saturation matrix:
            No edges.

        Forward controlled-behavior: false [initialization predicate]

        Controlled behavior: true -> false.

    Finished: all states are bad.

Computing final controlled system guards:
    No guards changed.

Cleaning up cached predicate of edges that were used when applying edges.

Final synthesis result:
    State: (controlled-behavior: false)

Computing initialization predicate of the controlled system.

Controlled system: exactly 0 states.

Determining initialization predicate for output model:
    Initial (synthesis result):            false
    Initial (uncontrolled system):         p.x = 2 or p.x = 3
    Initial (controlled system):           false
    Initial (removed by supervisor):       p.x = 2 or p.x = 3
    Initial (added by supervisor):         not(p.x = 2 or p.x = 3)

    Simplifying of controlled system initialization predicate under the assumption of the uncontrolled system initialization predicates:
        Predicate not changed.

    Initial (output model):                false

