Reading CIF file "datasynth/simplify_req_auts_on.cif".

Preprocessing CIF specification (includes checking that the specification is supported).

Converting CIF specification to internal format (BDDs):
    CIF variables and location pointers:
        Nr     Kind               Type       Name  Group  BDD vars  CIF values  BDD values  Values used
        -----  -----------------  ---------  ----  -----  --------  ----------  ----------  -----------
        1      discrete variable  int[0..5]  p.x   0      3 * 2     6 * 2       8 * 2       75%
        -----  -----------------  ---------  ----  -----  --------  ----------  ----------  -----------
        Total                                      1      6         12          16          75%

    Skipping variable ordering: only one variable present.

Starting data-based synthesis.

Synthesis input:
    Invariant (components state plant inv):      true
    Invariant (locations state plant invariant): true
    Invariant (system state plant invariant):    true

    Invariant (components state req invariant):  true
    Invariant (locations state req invariant):   true
    Invariant (system state req invariant):      true

    Initial   (discrete variable 0):             true
    Initial   (discrete variables):              true
    Initial   (components init predicate):       true
    Initial   (aut/locs init predicate):         true
    Initial   (aut/locs init predicate):         true
    Initial   (auts/locs init predicate):        true
    Initial   (uncontrolled system):             true
    Initial   (system, combined init/plant inv): true
    Initial   (system, combined init/state inv): true

    Marked    (components marker predicate):     true
    Marked    (aut/locs marker predicate):       true
    Marked    (aut/locs marker predicate):       true
    Marked    (auts/locs marker predicate):      true
    Marked    (uncontrolled system):             true
    Marked    (system, combined mark/plant inv): true
    Marked    (system, combined mark/state inv): true

    State/event exclusion plants:
        None

    State/event exclusion requirements:
        Event "c_a" needs:
            2 <= p.x and p.x <= 5
        Event "c_b" needs:
            p.x = 4 or p.x = 5

    Uncontrolled system:
        State: (controlled-behavior: ?)
            Edge: (event: c_a) (guard: p.x = 4 or (p.x = 5 or p.x = 3))
            Edge: (event: c_a) (guard: false)
            Edge: (event: c_b) (guard: p.x = 4 or p.x = 5)
            Edge: (event: c_b) (guard: p.x = 3)

Checking input for potential problems.

Restricting edge guards to prevent runtime errors:
    No guards changed.

Restricting uncontrolled system behavior using state/event exclusion plant invariants:
    No guards changed.

Initializing edges for being applied.

Restricting uncontrolled system behavior using state plant invariants:
    No restrictions needed.

Initializing controlled behavior:
    Controlled-behavior predicate: true.
    Controlled-initialization predicate: true.

Restricting behavior using state requirements:
    Controlled behavior not changed.

Extending controlled-behavior predicate using variable ranges:
    Controlled behavior: true -> true [range: true, variable: discrete variable "p.x" of type "int[0..5]" (group: 0, domain: 0+1, BDD variables: 3, CIF/BDD values: 6/8)].

    Extended controlled-behavior predicate using variable ranges: true.

Restricting behavior using state/event exclusion requirements:
    Edge (event: c_b) (guard: p.x = 3): guard: p.x = 3 -> false [state/event exclusion requirement: p.x = 4 or p.x = 5].

    Restricted behavior using state/event exclusion requirements:
        State: (controlled-behavior: true)
            Edge: (event: c_a) (guard: p.x = 4 or (p.x = 5 or p.x = 3))
            Edge: (event: c_a) (guard: false)
            Edge: (event: c_b) (guard: p.x = 4 or p.x = 5)
            Edge: (event: c_b) (guard: p.x = 3 -> false)

Restricting behavior using implicit runtime error requirements:
    Controlled behavior not changed.

Re-initializing edges for being applied.

Checking pre-synthesis for events that are never enabled.

Synthesis round 1:
    Computing backward controlled-behavior predicate:
        Saturation matrix:
                  /------ 1 p.x#0
                  |/----- 2 p.x#0+
                  ||/---- 3 p.x#1
                  |||/--- 4 p.x#1+
                  ||||/-- 5 p.x#2
                  |||||/- 6 p.x#2+
            1 c_a r r r
            2 c_b     r
            3 c_a
            4 c_b

        Backward controlled-behavior: true [marker predicate]
        Backward controlled-behavior: true -> true [restricted to current/previous controlled-behavior predicate: true]

        Backward controlled-behavior: true [fixed point].

        Controlled behavior not changed.

    Computing backward uncontrolled bad-state predicate:
        Saturation matrix:
            No edges.

        Backward uncontrolled bad-state: false [current/previous controlled behavior predicate]

        Controlled behavior not changed.

    Computing forward controlled-behavior predicate:
        Saturation matrix:
                  /------ 1 p.x#0
                  |/----- 2 p.x#0+
                  ||/---- 3 p.x#1
                  |||/--- 4 p.x#1+
                  ||||/-- 5 p.x#2
                  |||||/- 6 p.x#2+
            1 c_a r r r
            2 c_b     r
            3 c_a
            4 c_b

        Forward controlled-behavior: true [initialization predicate]

        Controlled behavior not changed.

    Finished: controlled behavior is stable.

Computing final controlled system guards:
    Edge (event: c_a) (guard: p.x = 4 or (p.x = 5 or p.x = 3)): guard: p.x = 4 or (p.x = 5 or p.x = 3) -> p.x != 0 and (p.x != 2 and p.x != 1).
    Edge (event: c_b) (guard: p.x = 4 or p.x = 5): guard: p.x = 4 or p.x = 5 -> p.x = 4 or p.x = 5.

Cleaning up cached predicate of edges that were used when applying edges.

Final synthesis result:
    State: (controlled-behavior: true)
        Edge: (event: c_a) (guard: p.x = 4 or (p.x = 5 or p.x = 3) -> p.x != 0 and (p.x != 2 and p.x != 1))
        Edge: (event: c_a) (guard: false)
        Edge: (event: c_b) (guard: p.x = 4 or p.x = 5 -> p.x = 4 or p.x = 5)
        Edge: (event: c_b) (guard: p.x = 3 -> false)

Computing initialization predicate of the controlled system.

Controlled system: exactly 6 states.

Determining initialization predicate for output model:
    Initial (synthesis result):            true
    Initial (uncontrolled system):         true
    Initial (controlled system):           true
    Initial (removed by supervisor):       false
    Initial (added by supervisor):         true

    Initial (output model):                n/a

Determining supervisor guards for output model:
    Event c_a: guard: p.x != 0 and (p.x != 2 and p.x != 1).
    Event c_b: guard: p.x = 4 or p.x = 5.

Checking post-synthesis for events that are never enabled.

Simplifying supervisor guards for output model:
    Simplification under the assumption of the requirement automata.

    Event c_a: guard: p.x != 0 and (p.x != 2 and p.x != 1) -> p.x != 2 [assume 2 <= p.x and p.x <= 5].
    Event c_b: guard: p.x = 4 or p.x = 5 -> not(p.x = 2 or p.x = 3) [assume p.x = 4 or p.x = 5].

Constructing output CIF specification.

Checking output CIF specification.

Writing output CIF file "datasynth/simplify_req_auts_on.ctrlsys.real.cif".
