Reading CIF file "datasynth/state_plant_invs_simple.cif".

Preprocessing CIF specification (includes checking that the specification is supported).

Converting CIF specification to internal format (BDDs):
    CIF variables and location pointers:
        Nr     Kind              Type  Name  Group  BDD vars  CIF values  BDD values  Values used
        -----  ----------------  ----  ----  -----  --------  ----------  ----------  -----------
        1      location pointer  n/a   A     0      3 * 2     5 * 2       8 * 2       ~63%
        -----  ----------------  ----  ----  -----  --------  ----------  ----------  -----------
        Total                                1      6         10          16          ~63%

    Skipping variable ordering: only one variable present.

Starting data-based synthesis.

Synthesis input:
    Invariant (component state plant invariant): not A.l3
    Invariant (component state plant invariant): not A.l4
    Invariant (components state plant inv):      not A.l3 and not A.l4
    Invariant (location state plant invariant):  not A.l5
    Invariant (locations state plant invariant): not A.l5
    Invariant (system state plant invariant):    A.l1 or A.l2

    Invariant (components state req invariant):  true
    Invariant (locations state req invariant):   true
    Invariant (system state req invariant):      true

    Initial   (discrete variables):              true
    Initial   (components init predicate):       true
    Initial   (aut/locs init predicate):         not A.l2
    Initial   (auts/locs init predicate):        not A.l2
    Initial   (uncontrolled system):             not A.l2
    Initial   (system, combined init/plant inv): A.l1
    Initial   (system, combined init/state inv): A.l1

    Marked    (components marker predicate):     true
    Marked    (aut/locs marker predicate):       true
    Marked    (auts/locs marker predicate):      true
    Marked    (uncontrolled system):             true
    Marked    (system, combined mark/plant inv): A.l1 or A.l2
    Marked    (system, combined mark/state inv): A.l1 or A.l2

    State/event exclusion plants:
        None

    State/event exclusion requirements:
        None

    Uncontrolled system:
        State: (controlled-behavior: ?)
            Edge: (event: c) (guard: A.l1) (assignments: A := A.l2)
            Edge: (event: u1) (guard: A.l2) (assignments: A := A.l3)
            Edge: (event: u2) (guard: A.l2) (assignments: A := A.l4)
            Edge: (event: u3) (guard: A.l2) (assignments: A := A.l5)

Checking input for potential problems.

Restricting edge guards to prevent runtime errors:
    No guards changed.

Restricting uncontrolled system behavior using state/event exclusion plant invariants:
    No guards changed.

Initializing edges for being applied.

Restricting uncontrolled system behavior using state plant invariants:
    Edge (event: u1) (guard: A.l2) (assignments: A := A.l3): guard: A.l2 -> false.
    Edge (event: u2) (guard: A.l2) (assignments: A := A.l4): guard: A.l2 -> false.
    Edge (event: u3) (guard: A.l2) (assignments: A := A.l5): guard: A.l2 -> false.

    Uncontrolled system:
        State: (controlled-behavior: ?)
            Edge: (event: c) (guard: A.l1) (assignments: A := A.l2)
            Edge: (event: u1) (guard: A.l2 -> false) (assignments: A := A.l3)
            Edge: (event: u2) (guard: A.l2 -> false) (assignments: A := A.l4)
            Edge: (event: u3) (guard: A.l2 -> false) (assignments: A := A.l5)

Initializing controlled behavior:
    Controlled-behavior predicate: true.
    Controlled-initialization predicate: A.l1.

Restricting behavior using state requirements:
    Controlled behavior not changed.

Extending controlled-behavior predicate using variable ranges:
    Controlled behavior: true -> true [range: true, variable: location pointer for automaton "A" (group: 0, domain: 0+1, BDD variables: 3, CIF/BDD values: 5/8)].

    Extended controlled-behavior predicate using variable ranges: true.

Restricting behavior using state/event exclusion requirements:
    Guards and controlled behavior not changed.

Restricting behavior using implicit runtime error requirements:
    Controlled behavior not changed.

Re-initializing edges for being applied.

Checking pre-synthesis for events that are never enabled.

Synthesis round 1:
    Computing backward controlled-behavior predicate:
        Saturation matrix:
                 /------ 1 A#0
                 |/----- 2 A#0+
                 ||/---- 3 A#1
                 |||/--- 4 A#1+
                 ||||/-- 5 A#2
                 |||||/- 6 A#2+
            1 c  rwrwrw
            2 u1 rwrwrw
            3 u2 rwrwrw
            4 u3 rwrwrw

        Backward controlled-behavior: true [marker predicate]

        Controlled behavior not changed.

    Computing backward uncontrolled bad-state predicate:
        Saturation matrix:
                 /------ 1 A#0
                 |/----- 2 A#0+
                 ||/---- 3 A#1
                 |||/--- 4 A#1+
                 ||||/-- 5 A#2
                 |||||/- 6 A#2+
            1 u1 rwrwrw
            2 u2 rwrwrw
            3 u3 rwrwrw

        Backward uncontrolled bad-state: false [current/previous controlled behavior predicate]

        Controlled behavior not changed.

    Computing forward controlled-behavior predicate:
        Saturation matrix:
                 /------ 1 A#0
                 |/----- 2 A#0+
                 ||/---- 3 A#1
                 |||/--- 4 A#1+
                 ||||/-- 5 A#2
                 |||||/- 6 A#2+
            1 c  rwrwrw
            2 u1 rwrwrw
            3 u2 rwrwrw
            4 u3 rwrwrw

        Forward controlled-behavior: A.l1 [initialization predicate]
        Forward controlled-behavior: A.l1 -> A.l1 or A.l2 [forward reach using bounded saturation (transition: 1 of 4) (level: 1 of 6) with edge: (event: c) (guard: A.l1) (assignments: A := A.l2)]

        Forward controlled-behavior: A.l1 or A.l2 [fixed point].

        Controlled behavior: true -> A.l1 or A.l2.

    Need another round.

Synthesis round 2:
    Computing backward controlled-behavior predicate:
        Saturation matrix:
                 /------ 1 A#0
                 |/----- 2 A#0+
                 ||/---- 3 A#1
                 |||/--- 4 A#1+
                 ||||/-- 5 A#2
                 |||||/- 6 A#2+
            1 c  rwrwrw
            2 u1 rwrwrw
            3 u2 rwrwrw
            4 u3 rwrwrw

        Backward controlled-behavior: true [marker predicate]
        Backward controlled-behavior: true -> A.l1 or A.l2 [restricted to current/previous controlled-behavior predicate: A.l1 or A.l2]

        Backward controlled-behavior: A.l1 or A.l2 [fixed point].

        Controlled behavior not changed.

    Computing backward uncontrolled bad-state predicate:
        Saturation matrix:
                 /------ 1 A#0
                 |/----- 2 A#0+
                 ||/---- 3 A#1
                 |||/--- 4 A#1+
                 ||||/-- 5 A#2
                 |||||/- 6 A#2+
            1 u1 rwrwrw
            2 u2 rwrwrw
            3 u3 rwrwrw

        Backward uncontrolled bad-state: not A.l1 and not A.l2 [current/previous controlled behavior predicate]

        Controlled behavior not changed.

    Finished: controlled behavior is stable.

Computing final controlled system guards:
    No guards changed.

Cleaning up cached predicate of edges that were used when applying edges.

Final synthesis result:
    State: (controlled-behavior: A.l1 or A.l2)
        Edge: (event: c) (guard: A.l1) (assignments: A := A.l2)
        Edge: (event: u1) (guard: A.l2 -> false) (assignments: A := A.l3)
        Edge: (event: u2) (guard: A.l2 -> false) (assignments: A := A.l4)
        Edge: (event: u3) (guard: A.l2 -> false) (assignments: A := A.l5)

Computing initialization predicate of the controlled system.

Controlled system: exactly 2 states.

Determining initialization predicate for output model:
    Initial (synthesis result):            A.l1 or A.l2
    Initial (uncontrolled system):         not A.l2
    Initial (controlled system):           A.l1
    Initial (removed by supervisor):       not A.l1 and not A.l2
    Initial (added by supervisor):         A.l1 or A.l2

    Simplifying of controlled system initialization predicate under the assumption of the uncontrolled system initialization predicates:
        Predicate not changed.

    Initial (output model):                A.l1

Determining supervisor guards for output model:
    Event c: guard: A.l1.

Checking post-synthesis for events that are never enabled.

Simplifying supervisor guards for output model:
    Simplification under the assumption of the plants.

    Event c: guard: A.l1 -> true [assume A.l1].

Constructing output CIF specification.

Checking output CIF specification.

Writing output CIF file "datasynth/state_plant_invs_simple.ctrlsys.real.cif".
