<?xml version="1.0" encoding="UTF-8" standalone="no"?>
<!--
  Copyright (c) 2024 Contributors to the Eclipse Foundation

  See the NOTICE file(s) distributed with this work for additional
  information regarding copyright ownership.

  This program and the accompanying materials are made available under the terms
  of the MIT License which is available at https://opensource.org/licenses/MIT

  SPDX-License-Identifier: MIT
-->

<svg width="300" height="160" xmlns="http://www.w3.org/2000/svg">
    <rect id="building" x="0" y="0" width="300" height="760" fill="#eee"/>

    <rect id="floor-top"    x="5"  y="5"   fill-opacity="0" width="250" height="50" stroke="black" stroke-width="1"/>
    <rect id="floor-middle" x="5"  y="55"  fill-opacity="0" width="250" height="50" stroke="black" stroke-width="1"/>
    <rect id="floor-bottom" x="5"  y="105" fill-opacity="0" width="250" height="50" stroke="black" stroke-width="1"/>

    <rect id="elevator" x="10" y="110" width="240" height="40" fill="#888"/>

    <circle id="sensor-top"    cx="275" cy="30"  r="12" fill="orange"/>
    <circle id="sensor-middle" cx="275" cy="80"  r="12" fill="orange"/>
    <circle id="sensor-bottom" cx="275" cy="130" r="12" fill="orange"/>
</svg>
