Loading CIF specification "controllercheck/confluence/independence2.cif".
Checking for confluence:
    Converting CIF specification to a BDD representation:
        CIF variables and location pointers:
            Nr     Kind              Type  Name  Group  BDD vars  CIF values  BDD values  Values used
            -----  ----------------  ----  ----  -----  --------  ----------  ----------  -----------
            1      input variable    bool  A     0      1 * 4     2 * 4       2 * 4       100%
            2      input variable    bool  B     1      1 * 4     2 * 4       2 * 4       100%
            3      location pointer  n/a   Aut1  2      1 * 4     2 * 4       2 * 4       100%
            4      location pointer  n/a   Aut2  3      1 * 4     2 * 4       2 * 4       100%
            -----  ----------------  ----  ----  -----  --------  ----------  ----------  -----------
            Total                                4      16        32          32          100%

        Applying variable ordering:
            Applying 4 orderers, sequentially:
                Applying sorted variable order:
                    Effect: both

                Applying DCSH algorithm:
                    Metric: wes
                    Relations: legacy
                    Effect: var-order
                    Number of hyper-edges: 6

                    Applying Weighted Cuthill-McKee algorithm:
                        Node finder: george-liu
                        Relations: legacy
                        Effect: var-order
                        Number of graph edges: 1

                        Total span:   6 (total)   1.00 (avg/edge) / WES:   0.625000 (total)   0.104167 (avg/edge) [before]
                        Total span:   2 (total)   0.33 (avg/edge) / WES:   0.291667 (total)   0.048611 (avg/edge) [after]

                    Found new best variable order.

                    Applying Sloan algorithm:
                        Relations: legacy
                        Effect: var-order
                        Number of graph edges: 1

                        Total span:   6 (total)   1.00 (avg/edge) / WES:   0.625000 (total)   0.104167 (avg/edge) [before]
                        Total span:   2 (total)   0.33 (avg/edge) / WES:   0.291667 (total)   0.048611 (avg/edge) [after]

                    Applying 2 orderers, sequentially:
                        Applying Weighted Cuthill-McKee algorithm:
                            Node finder: george-liu
                            Relations: legacy
                            Effect: var-order
                            Number of graph edges: 1

                            Total span:   6 (total)   1.00 (avg/edge) / WES:   0.625000 (total)   0.104167 (avg/edge) [before]
                            Total span:   2 (total)   0.33 (avg/edge) / WES:   0.291667 (total)   0.048611 (avg/edge) [after]

                        Reversing the variable order:
                            Relations: legacy
                            Effect: var-order
                            Number of hyper-edges: 6

                            Total span:   2 (total)   0.33 (avg/edge) / WES:   0.291667 (total)   0.048611 (avg/edge) [before]
                            Total span:   2 (total)   0.33 (avg/edge) / WES:   0.291667 (total)   0.048611 (avg/edge) [reversed]

                    Applying 2 orderers, sequentially:
                        Applying Sloan algorithm:
                            Relations: legacy
                            Effect: var-order
                            Number of graph edges: 1

                            Total span:   6 (total)   1.00 (avg/edge) / WES:   0.625000 (total)   0.104167 (avg/edge) [before]
                            Total span:   2 (total)   0.33 (avg/edge) / WES:   0.291667 (total)   0.048611 (avg/edge) [after]

                        Reversing the variable order:
                            Relations: legacy
                            Effect: var-order
                            Number of hyper-edges: 6

                            Total span:   2 (total)   0.33 (avg/edge) / WES:   0.291667 (total)   0.048611 (avg/edge) [before]
                            Total span:   2 (total)   0.33 (avg/edge) / WES:   0.291667 (total)   0.048611 (avg/edge) [reversed]

                Applying FORCE algorithm:
                    Metric: total-span
                    Relations: linearized
                    Effect: var-order
                    Number of hyper-edges: 4
                    Maximum number of iterations: 20

                    Total span:   5 (total)   1.25 (avg/edge) / WES:   0.718750 (total)   0.179688 (avg/edge) [before]
                    Total span:   5 (total)   1.25 (avg/edge) / WES:   0.718750 (total)   0.179688 (avg/edge) [iteration 1]
                    Total span:   5 (total)   1.25 (avg/edge) / WES:   0.718750 (total)   0.179688 (avg/edge) [after]

                Applying sliding window algorithm:
                    Size: 4
                    Metric: total-span
                    Relations: linearized
                    Effect: var-order
                    Number of hyper-edges: 4
                    Window length: 4

                    Total span:   5 (total)   1.25 (avg/edge) / WES:   0.718750 (total)   0.179688 (avg/edge) [before]
                    Total span:   4 (total)   1.00 (avg/edge) / WES:   0.562500 (total)   0.140625 (avg/edge) [window 0..3]
                    Total span:   4 (total)   1.00 (avg/edge) / WES:   0.562500 (total)   0.140625 (avg/edge) [after]

        Variable order changed.

        CIF variables and location pointers:
            Nr     Kind              Type  Name  Group  BDD vars  CIF values  BDD values  Values used
            -----  ----------------  ----  ----  -----  --------  ----------  ----------  -----------
            1      location pointer  n/a   Aut1  0      1 * 4     2 * 4       2 * 4       100%
            2      input variable    bool  B     1      1 * 4     2 * 4       2 * 4       100%
            3      input variable    bool  A     2      1 * 4     2 * 4       2 * 4       100%
            4      location pointer  n/a   Aut2  3      1 * 4     2 * 4       2 * 4       100%
            -----  ----------------  ----  ----  -----  --------  ----------  ----------  -----------
            Total                                4      16        32          32          100%

        Restricting system behavior using state/event exclusion plant invariants:
            Edge (event: Aut2.c_a) (guard: Aut2.l1) (assignments: Aut2 := Aut2.l2): guard: Aut2.l1 -> false [plant: false].

            System:
                Edge: (event: Aut1.c_a) (guard: Aut1.l1) (assignments: Aut1 := Aut1.l2)
                Edge: (event: Aut1.c_b) (guard: Aut1.l2) (assignments: Aut1 := Aut1.l1)
                Edge: (event: Aut2.c_a) (guard: Aut2.l1 -> false) (assignments: Aut2 := Aut2.l2)
                Edge: (event: Aut2.c_b) (guard: Aut2.l2) (assignments: Aut2 := Aut2.l1)
                Edge: (event: B) (guard: true) (assignments: B+ != B)
                Edge: (event: A) (guard: true) (assignments: A+ != A)

    Mutual exclusive event pairs:
        (Aut1.c_a, Aut1.c_b), (Aut1.c_a, Aut2.c_a), (Aut1.c_b, Aut2.c_a), (Aut2.c_a, Aut2.c_b)

    Independent event pairs:
        (Aut1.c_a, Aut2.c_b), (Aut1.c_b, Aut2.c_b)

    All pairs proven. Confluence holds.

CONCLUSION:
    [UNKNOWN] Bounded response checking was disabled, bounded response property is unknown.
    [UNKNOWN] Non-blocking under control checking was disabled, non-blocking under control property is unknown.
    [UNKNOWN] Finite response checking was disabled, finite response property is unknown.
    [OK] The specification has confluence.

The model with the check results has been written to "controllercheck/confluence/independence2.xCxx.out.cif.real".
