Loading CIF specification "controllercheck/confluence/skippable1.cif".
Checking for confluence:
    Converting CIF specification to a BDD representation:
        CIF variables and location pointers:
            Nr     Kind               Type       Name                  Group  BDD vars  CIF values  BDD values  Values used
            -----  -----------------  ---------  --------------------  -----  --------  ----------  ----------  -----------
            1      location pointer   n/a        OptionalChangeBool    0      2 * 4     3 * 4       4 * 4       75%
            2      discrete variable  int[0..2]  OptionalChangeBool.v  1      2 * 4     3 * 4       4 * 4       75%
            -----  -----------------  ---------  --------------------  -----  --------  ----------  ----------  -----------
            Total                                                      2      16        24          32          75%

        Applying variable ordering:
            Applying 4 orderers, sequentially:
                Applying sorted variable order:
                    Effect: both

                Applying DCSH algorithm:
                    Metric: wes
                    Relations: legacy
                    Effect: var-order
                    Number of hyper-edges: 5

                    Applying Weighted Cuthill-McKee algorithm:
                        Node finder: george-liu
                        Relations: legacy
                        Effect: var-order
                        Number of graph edges: 1

                        Total span:   2 (total)   0.40 (avg/edge) / WES:   0.700000 (total)   0.140000 (avg/edge) [before]
                        Total span:   2 (total)   0.40 (avg/edge) / WES:   0.700000 (total)   0.140000 (avg/edge) [after]

                    Found new best variable order.

                    Applying Sloan algorithm:
                        Relations: legacy
                        Effect: var-order
                        Number of graph edges: 1

                        Total span:   2 (total)   0.40 (avg/edge) / WES:   0.700000 (total)   0.140000 (avg/edge) [before]
                        Total span:   2 (total)   0.40 (avg/edge) / WES:   0.700000 (total)   0.140000 (avg/edge) [after]

                    Applying 2 orderers, sequentially:
                        Applying Weighted Cuthill-McKee algorithm:
                            Node finder: george-liu
                            Relations: legacy
                            Effect: var-order
                            Number of graph edges: 1

                            Total span:   2 (total)   0.40 (avg/edge) / WES:   0.700000 (total)   0.140000 (avg/edge) [before]
                            Total span:   2 (total)   0.40 (avg/edge) / WES:   0.700000 (total)   0.140000 (avg/edge) [after]

                        Reversing the variable order:
                            Relations: legacy
                            Effect: var-order
                            Number of hyper-edges: 5

                            Total span:   2 (total)   0.40 (avg/edge) / WES:   0.700000 (total)   0.140000 (avg/edge) [before]
                            Total span:   2 (total)   0.40 (avg/edge) / WES:   0.700000 (total)   0.140000 (avg/edge) [reversed]

                    Found new best variable order.

                    Applying 2 orderers, sequentially:
                        Applying Sloan algorithm:
                            Relations: legacy
                            Effect: var-order
                            Number of graph edges: 1

                            Total span:   2 (total)   0.40 (avg/edge) / WES:   0.700000 (total)   0.140000 (avg/edge) [before]
                            Total span:   2 (total)   0.40 (avg/edge) / WES:   0.700000 (total)   0.140000 (avg/edge) [after]

                        Reversing the variable order:
                            Relations: legacy
                            Effect: var-order
                            Number of hyper-edges: 5

                            Total span:   2 (total)   0.40 (avg/edge) / WES:   0.700000 (total)   0.140000 (avg/edge) [before]
                            Total span:   2 (total)   0.40 (avg/edge) / WES:   0.700000 (total)   0.140000 (avg/edge) [reversed]

                Applying FORCE algorithm:
                    Metric: total-span
                    Relations: linearized
                    Effect: var-order
                    Number of hyper-edges: 3
                    Maximum number of iterations: 10

                    Total span:   3 (total)   1.00 (avg/edge) / WES:   1.000000 (total)   0.333333 (avg/edge) [before]
                    Total span:   3 (total)   1.00 (avg/edge) / WES:   1.000000 (total)   0.333333 (avg/edge) [iteration 1]
                    Total span:   3 (total)   1.00 (avg/edge) / WES:   1.000000 (total)   0.333333 (avg/edge) [after]

                Applying sliding window algorithm:
                    Size: 4
                    Metric: total-span
                    Relations: linearized
                    Effect: var-order
                    Number of hyper-edges: 3
                    Window length: 2

                    Total span:   3 (total)   1.00 (avg/edge) / WES:   1.000000 (total)   0.333333 (avg/edge) [before]
                    Total span:   3 (total)   1.00 (avg/edge) / WES:   1.000000 (total)   0.333333 (avg/edge) [after]

        Variable order changed.

        CIF variables and location pointers:
            Nr     Kind               Type       Name                  Group  BDD vars  CIF values  BDD values  Values used
            -----  -----------------  ---------  --------------------  -----  --------  ----------  ----------  -----------
            1      discrete variable  int[0..2]  OptionalChangeBool.v  0      2 * 4     3 * 4       4 * 4       75%
            2      location pointer   n/a        OptionalChangeBool    1      2 * 4     3 * 4       4 * 4       75%
            -----  -----------------  ---------  --------------------  -----  --------  ----------  ----------  -----------
            Total                                                      2      16        24          32          75%

        Restricting system behavior using state/event exclusion plant invariants:
            No guards changed.

    Skippable event pairs:
        (OptionalChangeBool.a, OptionalChangeBool.b)

    All pairs proven. Confluence holds.

CONCLUSION:
    [UNKNOWN] Bounded response checking was disabled, bounded response property is unknown.
    [UNKNOWN] Non-blocking under control checking was disabled, non-blocking under control property is unknown.
    [UNKNOWN] Finite response checking was disabled, finite response property is unknown.
    [OK] The specification has confluence.

The model with the check results has been written to "controllercheck/confluence/skippable1.xCxx.out.cif.real".
